Date,Open,High,Low,Close,Adj Close,Volume
2013-03-11,77.019997,77.389999,76.900002,77.349998,66.138214,6621000
2013-03-12,77.190002,77.449997,77.000000,77.169998,65.984299,7016700
2013-03-13,77.070000,77.099998,76.519997,76.800003,65.667938,6340300
2013-03-14,76.870003,77.470001,76.830002,77.389999,66.172424,8079100
2013-03-15,77.080002,77.379997,76.339996,76.339996,65.274605,15237000
2013-03-18,75.900002,76.550003,75.800003,76.160004,65.120712,7081800
2013-03-19,76.139999,77.180000,76.110001,77.110001,65.933006,9326400
2013-03-20,77.290001,77.820000,77.269997,77.580002,66.334892,8615800
2013-03-21,77.419998,77.669998,77.139999,77.209999,66.018501,6319500
2013-03-22,77.180000,77.449997,77.000000,77.269997,66.069817,5868400
2013-03-25,77.269997,77.620003,76.440002,76.680000,65.565323,6843600
2013-03-26,77.019997,77.500000,76.889999,77.400002,66.180977,5386000
2013-03-27,76.980003,77.110001,76.570000,77.059998,65.890251,5274600
2013-03-28,76.949997,77.160004,76.660004,77.059998,65.890251,8016700
2013-04-01,76.849998,77.849998,76.730003,77.699997,66.437477,7266000
2013-04-02,77.839996,79.150002,77.650002,78.959999,67.514854,13373600
2013-04-03,78.879997,79.080002,77.839996,78.120003,66.796608,8426700
2013-04-04,78.320000,78.980003,78.250000,78.540001,67.155731,8770600
2013-04-05,77.879997,78.389999,77.830002,78.230003,66.890656,6562600
2013-04-08,78.120003,78.879997,77.879997,78.790001,67.369492,6284500
2013-04-09,78.820000,78.889999,78.070000,78.260002,66.916313,6760600
2013-04-10,78.489998,79.489998,78.430000,79.239998,67.754250,7947600
2013-04-11,79.370003,80.129997,79.330002,79.669998,68.121956,11831600
2013-04-12,79.510002,80.660004,79.470001,80.080002,68.472504,9383400
2013-04-15,79.790001,80.839996,79.599998,79.650002,68.104836,10877200
2013-04-16,79.830002,80.209999,79.370003,80.099998,68.489616,9365600
2013-04-17,79.980003,80.139999,78.849998,79.059998,67.600349,10964600
2013-04-18,79.089996,80.180000,79.059998,79.870003,68.292961,10896200
2013-04-19,80.370003,81.699997,80.199997,81.430000,69.626816,13147600
2013-04-22,81.309998,81.589996,81.120003,81.400002,69.601173,7530300
2013-04-23,81.459999,82.540001,80.510002,82.540001,70.575951,12684800
2013-04-24,79.489998,79.610001,76.930000,77.120003,66.426048,25708200
2013-04-25,77.669998,77.669998,76.349998,76.580002,65.960907,14702300
2013-04-26,76.720001,77.220001,76.580002,77.099998,66.408813,8769100
2013-04-29,77.559998,77.980003,77.230003,77.680000,66.908379,6638100
2013-04-30,77.860001,77.889999,76.599998,76.769997,66.124573,9653800
2013-05-01,76.830002,77.769997,76.720001,76.989998,66.314056,8388800
2013-05-02,77.389999,78.279999,77.139999,77.760002,66.977280,7288200
2013-05-03,78.099998,78.459999,77.660004,78.190002,67.347687,7884000
2013-05-06,78.029999,78.400002,77.519997,77.750000,66.968658,7204200
2013-05-07,77.980003,78.199997,77.269997,77.940002,67.132332,9574200
2013-05-08,77.900002,78.510002,77.230003,78.440002,67.562996,12067300
2013-05-09,78.570000,78.889999,78.019997,78.209999,67.364883,7189400
2013-05-10,78.410004,78.790001,78.230003,78.760002,67.838631,6162500
2013-05-13,78.510002,78.970001,78.419998,78.589996,67.692177,5420200
2013-05-14,78.930000,79.470001,78.739998,79.470001,68.450165,6867400
2013-05-15,79.470001,81.000000,79.470001,80.680000,69.492378,11154400
2013-05-16,80.489998,80.739998,79.889999,80.199997,69.078934,8065600
2013-05-17,79.910004,80.180000,79.309998,80.019997,68.923889,8549900
2013-05-20,79.980003,79.980003,78.779999,79.089996,68.122864,7307300
2013-05-21,79.169998,79.220001,78.220001,78.800003,67.873062,7377700
2013-05-22,78.839996,79.680000,78.620003,78.820000,67.890297,8873300
2013-05-23,78.269997,79.110001,78.230003,78.699997,67.786934,7141200
2013-05-24,81.879997,82.349998,81.440002,81.879997,70.525963,25580900
2013-05-28,82.050003,82.129997,80.769997,80.860001,69.647423,14372700
2013-05-29,80.160004,80.250000,78.870003,78.900002,67.959213,9992500
2013-05-30,78.900002,79.879997,78.900002,79.089996,68.122864,14761500
2013-05-31,78.790001,78.809998,76.750000,76.760002,66.115959,16461900
2013-06-03,76.870003,77.699997,76.120003,77.660004,66.891151,11720600
2013-06-04,77.709999,78.470001,76.750000,77.370003,66.641357,11379300
2013-06-05,77.080002,77.209999,76.629997,76.660004,66.029823,8826900
2013-06-06,76.559998,76.970001,75.830002,76.820000,66.167641,11099900
2013-06-07,77.440002,78.279999,77.269997,77.750000,66.968658,7839500
2013-06-10,77.690002,78.220001,77.260002,78.070000,67.244308,8966400
2013-06-11,77.680000,78.750000,77.449997,78.120003,67.287376,6781200
2013-06-12,78.639999,78.889999,77.480003,77.599998,66.839470,7834200
2013-06-13,77.540001,78.690002,77.139999,78.430000,67.554367,6927700
2013-06-14,78.489998,78.790001,77.669998,78.029999,67.209839,6825900
2013-06-17,78.260002,79.470001,78.250000,78.959999,68.010880,7359900
2013-06-18,78.949997,79.230003,78.699997,79.040001,68.079796,6051400
2013-06-19,79.050003,79.470001,77.589996,77.610001,66.848083,7424500
2013-06-20,77.209999,77.330002,75.099998,75.250000,64.815338,15555700
2013-06-21,76.250000,77.529999,75.690002,77.430000,66.693047,20055700
2013-06-24,76.949997,77.430000,75.629997,76.580002,65.960907,12563300
2013-06-25,77.099998,77.239998,76.290001,76.690002,66.055656,7909400
2013-06-26,77.230003,77.589996,77.019997,77.400002,66.667213,7326500
2013-06-27,77.959999,78.379997,77.570000,77.669998,66.899773,14731500
2013-06-28,77.620003,77.940002,76.900002,76.989998,66.314056,9865300
2013-07-01,77.019997,78.449997,77.000000,78.019997,67.201241,6699200
2013-07-02,77.949997,78.610001,77.709999,78.440002,67.562996,10228500
2013-07-03,78.279999,78.750000,77.430000,78.570000,67.674973,5339900
2013-07-05,78.889999,79.019997,77.779999,78.339996,67.476860,7264700
2013-07-08,78.540001,79.080002,78.500000,78.760002,67.838631,11141400
2013-07-09,79.070000,79.900002,79.070000,79.570000,68.536293,11456200
2013-07-10,79.650002,80.099998,79.300003,79.800003,68.734413,6862800
2013-07-11,80.550003,80.989998,80.290001,80.769997,69.569908,9185400
2013-07-12,80.669998,81.639999,80.669998,81.550003,70.241753,12586300
2013-07-15,81.370003,81.589996,80.849998,81.510002,70.207283,10024700
2013-07-16,81.320000,81.370003,80.910004,80.970001,69.742172,11208600
2013-07-17,80.489998,80.849998,80.010002,80.089996,69.500916,7644300
2013-07-18,80.029999,80.750000,80.029999,80.300003,69.683167,5526000
2013-07-19,80.360001,81.410004,80.050003,81.370003,70.611687,7862600
2013-07-22,81.230003,81.449997,80.900002,81.220001,70.481514,4813600
2013-07-23,81.220001,81.400002,80.779999,80.949997,70.247208,4311700
2013-07-24,80.949997,81.000000,80.129997,80.269997,69.657112,5606600
2013-07-25,80.010002,80.570000,79.839996,80.410004,69.778618,6239900
2013-07-26,80.019997,80.419998,79.389999,80.389999,69.761253,6543500
2013-07-29,80.099998,80.449997,80.050003,80.089996,69.500916,4389400
2013-07-30,80.489998,80.900002,80.160004,80.440002,69.804665,6434100
2013-07-31,80.440002,81.410004,80.160004,80.300003,69.683167,11857000
2013-08-01,81.620003,82.230003,81.209999,81.639999,70.845985,10724800
2013-08-02,81.419998,81.500000,80.559998,81.290001,70.542267,6626300
2013-08-05,81.050003,81.650002,80.959999,81.400002,70.637718,4662800
2013-08-06,81.300003,81.970001,81.300003,81.739998,70.932762,6212500
2013-08-07,81.410004,82.209999,81.379997,81.959999,71.123680,5828500
2013-08-08,82.110001,82.400002,81.510002,82.169998,71.305901,6207900
2013-08-09,81.919998,82.059998,81.190002,81.639999,70.845985,6127200
2013-08-12,81.230003,81.730003,81.040001,81.620003,70.828636,4922200
2013-08-13,81.779999,81.989998,81.330002,81.660004,70.863350,4936400
2013-08-14,81.669998,81.779999,81.190002,81.250000,70.507553,5167500
2013-08-15,80.959999,81.080002,80.169998,80.480003,69.839355,7415300
2013-08-16,80.269997,80.480003,79.059998,79.900002,69.336037,9451600
2013-08-19,79.639999,80.089996,79.419998,79.589996,69.067032,5959400
2013-08-20,79.720001,80.099998,79.279999,79.529999,69.014977,5172500
2013-08-21,79.500000,80.120003,79.050003,79.379997,68.884781,7390900
2013-08-22,79.300003,80.050003,78.870003,79.769997,69.223221,6274400
2013-08-23,79.870003,80.070000,79.589996,80.010002,69.431488,5219600
2013-08-26,79.919998,79.980003,78.529999,78.540001,68.155853,6385400
2013-08-27,77.870003,78.360001,77.330002,77.970001,67.661217,7052200
2013-08-28,77.860001,77.860001,76.849998,76.849998,66.689293,9008500
2013-08-29,76.760002,77.839996,76.419998,77.309998,67.088478,5961000
2013-08-30,77.529999,78.070000,73.610001,77.889999,67.591797,9039100
2013-09-03,78.269997,78.419998,77.440002,77.750000,67.470322,6743800
2013-09-04,77.519997,77.750000,77.120003,77.489998,67.244675,6031300
2013-09-05,77.580002,77.629997,76.830002,77.139999,66.940948,7163200
2013-09-06,77.120003,77.610001,76.400002,77.150002,66.949638,6977400
2013-09-09,77.370003,78.199997,77.370003,78.160004,67.826111,6089300
2013-09-10,78.500000,78.639999,77.779999,77.949997,67.643867,6650200
2013-09-11,77.260002,78.269997,77.250000,78.269997,67.921547,7049800
2013-09-12,78.400002,78.800003,78.169998,78.260002,67.912888,6944900
2013-09-13,78.440002,79.180000,78.410004,79.050003,68.598419,4894100
2013-09-16,79.720001,80.209999,79.709999,80.160004,69.561668,7512800
2013-09-17,79.959999,80.250000,79.639999,79.830002,69.275307,5457700
2013-09-18,79.059998,80.480003,78.529999,80.300003,69.683167,10372100
2013-09-19,80.500000,80.529999,79.779999,80.120003,69.526947,8157300
2013-09-20,80.089996,80.180000,79.389999,79.389999,68.893456,11146100
2013-09-23,79.199997,79.580002,78.669998,79.279999,68.798019,6304900
2013-09-24,78.970001,79.480003,78.589996,78.620003,68.225288,7692100
2013-09-25,78.839996,79.000000,77.709999,77.720001,67.444267,7589300
2013-09-26,77.910004,78.139999,77.620003,78.050003,67.730652,4632600
2013-09-27,77.750000,77.750000,76.769997,77.209999,67.001694,6551300
2013-09-30,76.800003,77.160004,75.349998,75.589996,65.595901,15028300
2013-10-01,75.519997,76.500000,75.440002,76.160004,66.090530,8076100
2013-10-02,75.910004,76.139999,75.419998,75.930000,65.890945,8522900
2013-10-03,75.889999,76.139999,75.199997,75.839996,65.812828,9251600
2013-10-04,75.980003,76.120003,75.510002,76.019997,65.969040,4984700
2013-10-07,75.660004,76.099998,75.480003,75.650002,65.647957,6373300
2013-10-08,76.389999,77.000000,76.050003,76.330002,66.238045,9656600
2013-10-09,76.580002,77.160004,76.099998,76.949997,66.776093,8470700
2013-10-10,77.410004,77.919998,77.150002,77.889999,67.591797,10121900
2013-10-11,78.000000,78.489998,77.809998,78.480003,68.103798,6082200
2013-10-14,78.010002,78.800003,77.930000,78.739998,68.329414,6326100
2013-10-15,78.379997,78.610001,77.440002,77.599998,67.340126,11192500
2013-10-16,77.349998,78.489998,77.260002,78.339996,68.513802,6562600
2013-10-17,78.190002,79.470001,77.980003,79.419998,69.458359,8671300
2013-10-18,79.389999,79.570000,78.779999,79.410004,69.449593,7958500
2013-10-21,79.269997,79.320000,78.440002,78.970001,69.064789,6478700
2013-10-22,79.309998,80.610001,79.279999,80.379997,70.297928,9572300
2013-10-23,80.339996,81.250000,80.250000,80.910004,70.761452,8960700
2013-10-24,80.769997,80.949997,80.250000,80.610001,70.499092,7521100
2013-10-25,80.550003,80.720001,79.510002,80.000000,69.965599,9606500
2013-10-28,80.110001,81.860001,79.949997,81.300003,71.102547,9820900
2013-10-29,81.459999,82.620003,81.099998,82.459999,72.117027,9482900
2013-10-30,82.529999,82.559998,81.230003,81.519997,71.294945,6490000
2013-10-31,81.199997,81.599998,80.720001,80.750000,70.621513,7786800
2013-11-01,80.680000,81.330002,80.639999,81.150002,70.971352,6802300
2013-11-04,81.459999,81.730003,80.910004,81.330002,71.128792,5460100
2013-11-05,81.129997,81.739998,80.849998,81.430000,71.216232,4949300
2013-11-06,81.639999,83.099998,81.330002,82.809998,72.423141,9526400
2013-11-07,82.910004,83.099998,82.110001,82.320000,71.994598,10087700
2013-11-08,82.279999,82.570000,81.669998,82.510002,72.160751,9768400
2013-11-11,82.349998,82.680000,82.019997,82.260002,71.942123,6173600
2013-11-12,82.230003,83.040001,82.120003,82.800003,72.414398,8201700
2013-11-13,82.570000,83.500000,82.459999,83.500000,73.026604,7581600
2013-11-14,83.430000,84.459999,83.430000,84.320000,73.743744,7580500
2013-11-15,84.169998,84.919998,84.160004,84.839996,74.198517,9664700
2013-11-18,84.790001,84.940002,84.180000,84.570000,73.962372,8507300
2013-11-19,84.309998,84.589996,84.209999,84.339996,73.761215,7924200
2013-11-20,84.309998,84.980003,84.239998,84.690002,74.067329,7680900
2013-11-21,84.839996,84.889999,84.510002,84.669998,74.049843,7287700
2013-11-22,84.529999,85.000000,84.230003,84.949997,74.294716,7436200
2013-11-25,84.959999,85.820000,84.849998,85.410004,74.697014,9670500
2013-11-26,85.199997,85.760002,84.639999,84.639999,74.023613,7111600
2013-11-27,84.879997,84.889999,84.019997,84.279999,73.708755,4905000
2013-11-29,84.769997,85.209999,84.150002,84.220001,73.656281,4954500
2013-12-02,84.040001,84.150002,83.099998,83.339996,72.886650,7497500
2013-12-03,83.300003,84.000000,83.230003,83.830002,73.315201,7533200
2013-12-04,83.379997,83.489998,82.589996,83.349998,72.895393,6807200
2013-12-05,83.389999,83.449997,82.300003,82.690002,72.318184,8186600
2013-12-06,83.230003,84.529999,83.169998,84.519997,73.918655,7189400
2013-12-09,84.480003,84.940002,84.339996,84.779999,74.146027,7395300
2013-12-10,84.410004,84.430000,83.430000,83.650002,73.157791,7373300
2013-12-11,83.739998,84.500000,83.610001,84.019997,73.481369,9787900
2013-12-12,83.820000,83.870003,81.930000,82.300003,71.977119,10176300
2013-12-13,82.320000,82.459999,81.559998,82.370003,72.038322,7441600
2013-12-16,82.720001,83.070000,81.599998,81.690002,71.443626,8849700
2013-12-17,81.790001,81.849998,80.690002,80.910004,70.761452,11416400
2013-12-18,81.209999,82.419998,80.480003,82.379997,72.047066,12036100
2013-12-19,81.980003,82.290001,81.510002,81.900002,71.627274,6442600
2013-12-20,81.980003,82.540001,81.820000,81.839996,71.574791,13206100
2013-12-23,82.139999,82.139999,81.010002,81.309998,71.111282,8653600
2013-12-24,81.330002,81.610001,81.250000,81.309998,71.111282,2899100
2013-12-26,81.489998,81.889999,81.290001,81.760002,71.504837,5347000
2013-12-27,82.089996,82.480003,81.860001,82.010002,71.723480,4006000
2013-12-30,82.000000,82.050003,81.570000,82.000000,71.714737,4145600
2013-12-31,81.830002,82.000000,81.089996,81.410004,71.198746,5765300
2014-01-02,81.330002,81.360001,80.320000,80.540001,70.437851,6981700
2014-01-03,80.760002,80.849998,80.190002,80.449997,70.359138,6925600
2014-01-06,80.610001,80.980003,80.300003,80.639999,70.525314,7208200
2014-01-07,80.709999,81.580002,80.620003,81.419998,71.207481,7158200
2014-01-08,80.970001,81.150002,80.050003,80.239998,70.175484,13458800
2014-01-09,80.540001,80.800003,80.029999,80.419998,70.332924,10833900
2014-01-10,80.589996,80.889999,80.199997,80.300003,70.227974,8448300
2014-01-13,80.010002,80.500000,79.690002,80.010002,69.974350,9360800
2014-01-14,80.059998,80.919998,80.019997,80.870003,70.726486,8737100
2014-01-15,80.699997,81.180000,80.250000,80.790001,70.656502,8221900
2014-01-16,80.650002,80.830002,80.260002,80.559998,70.455360,11673300
2014-01-17,80.419998,80.639999,79.800003,79.879997,69.860657,13629800
2014-01-21,80.589996,80.720001,79.540001,80.180000,70.123024,13216400
2014-01-22,79.570000,79.879997,79.050003,79.230003,69.816376,8455600
2014-01-23,78.709999,78.970001,78.120003,78.239998,68.943993,12667700
2014-01-24,79.330002,81.699997,78.779999,79.180000,69.772293,20163200
2014-01-27,79.239998,79.300003,78.419998,78.470001,69.146667,10395400
2014-01-28,78.669998,79.519997,78.430000,79.110001,69.710609,10060800
2014-01-29,78.800003,78.800003,77.379997,77.639999,68.415283,13443100
2014-01-30,78.050003,78.050003,76.769997,76.870003,67.736771,9450500
2014-01-31,76.029999,77.190002,75.260002,76.620003,67.516472,12988800
2014-02-03,76.690002,76.760002,75.599998,75.699997,66.705772,14292700
2014-02-04,76.000000,76.389999,75.400002,76.089996,67.049431,12055400
2014-02-05,75.940002,76.800003,75.669998,76.449997,67.366669,9734100
2014-02-06,76.529999,76.989998,76.480003,76.900002,67.763199,7819700
2014-02-07,76.989998,77.389999,76.750000,77.309998,68.124481,7259200
2014-02-10,77.430000,78.089996,77.190002,78.029999,68.758949,8959700
2014-02-11,78.099998,79.110001,77.639999,78.839996,69.472710,10500800
2014-02-12,78.129997,78.529999,77.059998,77.489998,68.283096,11019700
2014-02-13,77.089996,77.919998,77.000000,77.800003,68.556290,7420600
2014-02-14,77.690002,79.750000,77.250000,79.400002,69.966164,10791900
2014-02-18,79.480003,79.629997,77.559998,77.970001,68.706062,15750700
2014-02-19,77.639999,78.959999,77.550003,78.139999,68.855873,8740000
2014-02-20,77.959999,78.440002,77.500000,77.919998,68.662003,8275200
2014-02-21,78.050003,78.889999,77.910004,77.970001,68.706062,8089200
2014-02-24,78.029999,78.769997,77.610001,77.860001,68.609131,7838700
2014-02-25,77.730003,78.309998,77.400002,78.120003,68.838249,8177500
2014-02-26,78.230003,78.769997,77.820000,77.860001,68.609131,7764700
2014-02-27,77.769997,78.230003,77.559998,78.190002,68.899933,6549800
2014-02-28,78.239998,78.910004,78.010002,78.660004,69.314095,8489600
2014-03-03,78.260002,78.410004,77.349998,77.480003,68.274292,8598600
2014-03-04,78.089996,78.720001,77.900002,78.449997,69.129044,8306900
2014-03-05,78.320000,78.410004,77.550003,77.820000,68.573875,8542300
2014-03-06,78.040001,78.440002,77.839996,78.059998,68.785378,6475600
2014-03-07,78.410004,78.599998,78.110001,78.379997,69.067352,5865400
2014-03-10,78.290001,78.570000,78.199997,78.529999,69.199516,5229900
2014-03-11,78.589996,79.389999,78.570000,78.949997,69.569618,6595800
2014-03-12,78.660004,79.449997,78.620003,79.239998,69.825188,7469300
2014-03-13,79.320000,79.760002,79.190002,79.190002,69.781120,9676600
2014-03-14,79.099998,79.230003,78.669998,78.980003,69.596069,14850700
2014-03-17,79.019997,79.949997,79.019997,79.839996,70.353874,8452100
2014-03-18,79.839996,80.080002,79.510002,79.769997,70.292191,7703200
2014-03-19,79.680000,79.910004,78.510002,78.779999,69.419846,8607200
2014-03-20,78.699997,78.930000,78.150002,78.320000,69.014473,8659500
2014-03-21,79.040001,79.750000,77.879997,77.879997,68.626755,21244400
2014-03-24,78.500000,79.830002,78.470001,79.300003,69.878036,11221600
2014-03-25,79.519997,79.989998,79.440002,79.809998,70.327446,8892500
2014-03-26,80.029999,80.180000,79.330002,79.500000,70.054298,8269800
2014-03-27,79.550003,80.430000,79.379997,79.650002,70.186470,8134100
2014-03-28,79.940002,80.320000,79.519997,79.760002,70.283386,6413500
2014-03-31,80.000000,80.830002,79.550003,80.599998,71.023590,8492800
2014-04-01,80.599998,80.839996,80.209999,80.339996,70.794472,8222300
2014-04-02,80.190002,80.330002,79.800003,80.129997,70.609428,6741800
2014-04-03,80.279999,80.580002,79.930000,80.099998,70.583000,5646000
2014-04-04,80.470001,80.559998,79.750000,79.769997,70.292191,8649600
2014-04-07,80.019997,81.070000,79.930000,80.489998,70.926651,13229000
2014-04-08,80.510002,81.379997,80.019997,81.349998,71.684471,11880700
2014-04-09,81.800003,82.239998,81.320000,81.489998,71.807854,11550700
2014-04-10,81.580002,82.129997,80.889999,81.089996,71.455376,12194300
2014-04-11,80.980003,81.660004,80.500000,80.760002,71.164574,11831400
2014-04-14,81.000000,81.199997,80.510002,80.809998,71.208656,7105600
2014-04-15,80.790001,81.089996,80.519997,80.839996,71.235069,9000800
2014-04-16,81.279999,81.879997,81.029999,81.650002,71.948845,8300700
2014-04-17,81.470001,81.889999,81.339996,81.760002,72.045769,8374700
2014-04-21,81.809998,81.809998,81.290001,81.559998,71.869522,6391000
2014-04-22,81.540001,81.669998,81.150002,81.250000,71.596352,9259100
2014-04-23,80.720001,80.720001,79.379997,80.360001,71.377861,9577500
2014-04-24,80.260002,81.379997,80.010002,81.150002,72.079559,9523200
2014-04-25,81.199997,81.580002,80.970001,81.410004,72.310501,7497400
2014-04-28,81.540001,82.980003,81.510002,82.940002,73.669479,11595100
2014-04-29,82.750000,82.949997,82.360001,82.440002,73.225357,7214300
2014-04-30,82.389999,82.750000,82.239998,82.550003,73.323082,6243300
2014-05-01,82.389999,82.470001,81.760002,82.339996,73.136536,5305000
2014-05-02,82.220001,82.599998,81.750000,81.919998,72.763496,6629200
2014-05-05,81.639999,81.879997,81.470001,81.699997,72.568069,4563600
2014-05-06,81.760002,81.760002,81.120003,81.129997,72.061783,4591300
2014-05-07,81.449997,82.139999,81.419998,82.089996,72.914482,6639500
2014-05-08,82.059998,82.320000,81.820000,82.160004,72.976662,4631200
2014-05-09,82.199997,82.800003,82.139999,82.389999,73.180954,7303500
2014-05-12,82.610001,82.709999,81.709999,81.730003,72.594742,7859000
2014-05-13,81.940002,81.980003,81.419998,81.610001,72.488136,6540200
2014-05-14,81.739998,81.910004,81.120003,81.169998,72.097321,6867200
2014-05-15,81.250000,81.370003,80.440002,80.529999,71.528862,9402100
2014-05-16,80.629997,80.760002,80.000000,80.330002,71.351212,11558900
2014-05-19,80.010002,80.050003,79.540001,79.930000,70.995911,6068100
2014-05-20,80.019997,80.580002,79.970001,80.230003,71.262383,7057200
2014-05-21,80.339996,80.669998,80.019997,80.489998,71.493317,6339800
2014-05-22,80.370003,80.669998,80.050003,80.650002,71.635445,5561100
2014-05-23,80.510002,80.849998,80.400002,80.519997,71.519966,4472600
2014-05-27,80.550003,80.580002,80.050003,80.080002,71.129158,7003800
2014-05-28,80.029999,80.279999,80.019997,80.099998,71.146927,4201400
2014-05-29,80.099998,80.400002,80.080002,80.400002,71.413391,3886800
2014-05-30,80.250000,80.849998,80.169998,80.790001,71.759789,7433000
2014-06-02,80.660004,80.669998,80.290001,80.360001,71.377861,4331700
2014-06-03,80.040001,80.300003,79.599998,79.930000,70.995911,6970600
2014-06-04,80.000000,80.220001,79.639999,79.860001,70.933739,5427700
2014-06-05,80.110001,80.309998,79.970001,80.110001,71.155792,5787700
2014-06-06,80.089996,80.239998,79.820000,80.029999,71.084740,5520500
2014-06-09,79.910004,80.239998,79.849998,80.089996,71.138031,6352500
2014-06-10,80.029999,80.300003,80.000000,80.150002,71.191345,5658400
2014-06-11,80.050003,80.300003,79.879997,80.059998,71.111397,7453700
2014-06-12,79.820000,80.029999,79.690002,79.760002,70.844925,6526800
2014-06-13,79.730003,79.940002,79.500000,79.639999,70.738350,5214000
2014-06-16,79.519997,79.940002,79.110001,79.690002,70.782753,5334600
2014-06-17,79.610001,79.790001,79.349998,79.580002,70.685036,5337300
2014-06-18,79.440002,79.940002,79.129997,79.790001,70.871567,9614200
2014-06-19,79.849998,80.570000,79.800003,80.239998,71.271271,12485100
2014-06-20,80.440002,80.500000,79.830002,79.930000,70.995911,11659900
2014-06-23,80.059998,80.059998,79.360001,79.519997,70.631744,6938900
2014-06-24,79.419998,79.440002,78.919998,79.010002,70.178757,8157300
2014-06-25,79.040001,79.360001,78.650002,79.320000,70.454102,12569300
2014-06-26,79.239998,79.290001,78.589996,78.620003,69.832336,7258800
2014-06-27,78.599998,79.190002,78.519997,79.019997,70.187637,8974900
2014-06-30,79.010002,79.459999,78.430000,78.589996,69.805695,10297700
2014-07-01,78.870003,79.410004,78.510002,79.279999,70.418571,8421200
2014-07-02,79.559998,79.860001,79.440002,79.559998,70.667290,6276600
2014-07-03,79.930000,80.139999,79.639999,79.980003,71.040337,5501100
2014-07-07,79.750000,80.199997,79.660004,80.190002,71.226852,6673600
2014-07-08,80.029999,80.849998,79.910004,80.559998,71.555504,9150200
2014-07-09,80.660004,81.800003,80.500000,81.669998,72.541435,12113100
2014-07-10,81.269997,81.910004,81.190002,81.610001,72.488136,8786500
2014-07-11,81.059998,81.570000,81.000000,81.160004,72.088448,7519300
2014-07-14,81.360001,81.739998,81.300003,81.320000,72.230560,6802000
2014-07-15,81.510002,81.519997,81.089996,81.260002,72.177261,9637600
2014-07-16,80.900002,81.199997,80.750000,80.940002,72.467346,8940500
2014-07-17,80.989998,81.220001,80.389999,80.400002,71.983864,5844700
2014-07-18,80.550003,80.750000,80.160004,80.550003,72.118172,6502400
2014-07-21,80.330002,80.400002,79.949997,80.279999,71.876427,4434300
2014-07-22,80.290001,80.580002,79.769997,80.099998,71.715263,6073200
2014-07-23,80.330002,80.500000,79.820000,79.989998,71.616783,5891200
2014-07-24,80.120003,80.320000,79.849998,80.260002,71.858521,6273100
2014-07-25,80.019997,80.160004,79.370003,79.559998,71.231781,6293400
2014-07-28,79.410004,79.620003,78.849998,79.260002,70.963203,6757300
2014-07-29,79.089996,79.500000,78.650002,78.650002,70.417068,6419600
2014-07-30,78.699997,79.010002,78.139999,78.160004,69.978355,8296500
2014-07-31,77.760002,78.010002,77.290001,77.320000,69.226265,11235600
2014-08-01,79.250000,80.669998,78.830002,79.650002,71.312386,18110700
2014-08-04,79.459999,79.459999,78.660004,79.220001,70.927391,12075300
2014-08-05,78.989998,79.739998,78.980003,79.410004,71.097519,7995900
2014-08-06,79.400002,81.300003,79.269997,81.089996,72.601639,12839000
2014-08-07,81.019997,81.180000,80.010002,80.139999,71.751083,7904000
2014-08-08,80.050003,81.029999,80.040001,80.949997,72.476288,6215600
2014-08-11,81.230003,81.870003,81.029999,81.480003,72.950813,8188000
2014-08-12,81.500000,81.860001,81.209999,81.419998,72.897087,6591200
2014-08-13,81.639999,81.800003,81.110001,81.480003,72.950813,5472200
2014-08-14,81.589996,82.040001,81.440002,81.949997,73.371613,5930700
2014-08-15,82.230003,82.230003,81.180000,81.779999,73.219406,7418400
2014-08-18,81.989998,82.849998,81.809998,82.440002,73.810349,8450500
2014-08-19,82.349998,82.870003,82.120003,82.690002,74.034157,6867700
2014-08-20,82.459999,82.940002,82.459999,82.809998,74.141594,4581800
2014-08-21,82.800003,83.470001,82.690002,83.279999,74.562378,7099800
2014-08-22,83.160004,83.660004,83.139999,83.389999,74.660881,6978500
2014-08-25,83.739998,83.820000,83.309998,83.540001,74.795174,5586800
2014-08-26,83.610001,83.830002,83.330002,83.379997,74.651932,5188400
2014-08-27,83.430000,83.599998,83.160004,83.309998,74.589272,4248300
2014-08-28,83.019997,83.220001,82.760002,83.029999,74.338570,4278700
2014-08-29,83.089996,83.129997,82.599998,83.110001,74.410194,4901300
2014-09-02,83.209999,83.489998,82.709999,82.980003,74.293800,5528900
2014-09-03,83.260002,83.480003,82.769997,82.900002,74.222176,5851800
2014-09-04,82.919998,83.750000,82.779999,83.699997,74.938423,7444200
2014-09-05,83.440002,83.800003,83.070000,83.769997,75.001099,5888900
2014-09-08,83.570000,83.599998,83.129997,83.320000,74.598206,4899600
2014-09-09,83.050003,83.290001,82.830002,82.989998,74.302742,5202900
2014-09-10,83.199997,83.959999,83.150002,83.639999,74.884689,6715300
2014-09-11,83.610001,83.750000,83.370003,83.489998,74.750404,6341600
2014-09-12,83.209999,83.379997,82.860001,83.260002,74.544487,6358500
2014-09-15,83.180000,84.250000,83.139999,83.870003,75.090652,7004700
2014-09-16,83.580002,84.449997,83.559998,84.080002,75.278664,7143800
2014-09-17,84.019997,84.500000,83.930000,84.160004,75.350296,8273800
2014-09-18,84.180000,84.440002,84.070000,84.190002,75.377144,5309200
2014-09-19,84.519997,84.769997,84.180000,84.470001,75.627831,11377700
2014-09-22,84.639999,84.949997,84.489998,84.809998,75.932243,8397100
2014-09-23,84.650002,84.919998,84.440002,84.440002,75.600983,7723500
2014-09-24,84.330002,85.400002,84.330002,85.239998,76.317230,11694700
2014-09-25,85.019997,85.129997,84.330002,84.330002,75.502487,8212300
2014-09-26,84.540001,84.739998,83.860001,84.580002,75.726311,5478000
2014-09-29,84.110001,84.470001,83.660004,84.440002,75.600983,6360000
2014-09-30,84.339996,84.360001,83.680000,83.739998,74.974243,8074700
2014-10-01,84.019997,84.040001,83.029999,83.139999,74.437050,9024700
2014-10-02,83.099998,83.970001,82.949997,83.050003,74.356468,8858400
2014-10-03,83.440002,83.949997,82.879997,83.790001,75.019012,6701500
2014-10-06,83.570000,83.940002,83.190002,83.570000,74.822029,5656500
2014-10-07,83.379997,83.919998,83.120003,83.160004,74.454964,7378200
2014-10-08,83.339996,84.279999,83.209999,84.180000,75.368179,8107100
2014-10-09,84.209999,84.879997,83.529999,83.660004,74.902626,7765700
2014-10-10,83.949997,85.279999,83.910004,84.690002,75.824799,13732400
2014-10-13,84.309998,84.470001,83.309998,83.370003,74.642975,10066100
2014-10-14,83.910004,83.910004,83.029999,83.550003,74.804131,8210300
2014-10-15,82.589996,83.580002,81.760002,82.949997,74.266945,13283200
2014-10-16,81.650002,82.800003,81.570000,82.239998,73.631248,11310200
2014-10-17,82.949997,83.480003,82.029999,83.269997,74.553429,11786600
2014-10-20,83.250000,84.330002,82.830002,84.180000,75.368179,8558100
2014-10-21,84.470001,84.639999,83.660004,84.610001,75.753174,12389600
2014-10-22,84.059998,84.589996,83.919998,84.230003,75.991356,9747600
2014-10-23,84.260002,84.330002,82.300003,83.230003,75.089157,14292100
2014-10-24,85.099998,85.970001,84.910004,85.160004,76.830391,13465600
2014-10-27,84.959999,86.480003,84.830002,85.949997,77.543114,10316600
2014-10-28,86.199997,86.650002,86.169998,86.470001,78.012253,9437700
2014-10-29,86.669998,86.669998,85.910004,86.540001,78.075424,6880600
2014-10-30,86.160004,87.000000,85.669998,86.940002,78.436287,5560300
2014-10-31,87.080002,87.360001,86.709999,87.269997,78.734001,9359800
2014-11-03,86.660004,87.389999,86.199997,87.379997,78.833244,7789500
2014-11-04,87.489998,88.870003,87.440002,88.639999,79.970009,10594800
2014-11-05,88.739998,89.489998,88.360001,89.000000,80.294800,8462000
2014-11-06,89.080002,89.199997,88.570000,88.900002,80.204567,6628900
2014-11-07,88.739998,89.199997,88.250000,89.129997,80.412071,5975700
2014-11-10,88.919998,89.500000,88.260002,89.449997,80.700768,5927100
2014-11-11,89.379997,89.790001,89.169998,89.669998,80.899254,6343900
2014-11-12,89.599998,89.879997,89.419998,89.480003,80.727844,6298700
2014-11-13,88.940002,89.839996,88.459999,88.599998,79.933907,10191600
2014-11-14,88.699997,88.889999,87.930000,88.110001,79.491837,7559400
2014-11-17,88.000000,88.180000,87.370003,87.839996,79.248245,9475800
2014-11-18,88.019997,88.180000,87.489998,87.949997,79.347496,6419400
2014-11-19,88.239998,88.870003,87.930000,88.730003,80.051208,6570400
2014-11-20,88.330002,88.800003,88.330002,88.470001,79.816620,5527600
2014-11-21,89.260002,89.430000,88.459999,88.599998,79.933907,8984100
2014-11-24,88.879997,88.889999,87.860001,88.110001,79.491837,5569200
2014-11-25,88.360001,88.820000,88.080002,88.800003,80.114365,6439700
2014-11-26,88.830002,88.879997,88.449997,88.879997,80.186523,4420000
2014-11-28,89.089996,90.559998,88.970001,90.430000,81.584923,7661800
2014-12-01,90.169998,90.669998,89.519997,90.080002,81.269157,6745100
2014-12-02,90.440002,91.169998,90.120003,91.070000,82.162315,7432900
2014-12-03,90.839996,90.970001,89.639999,90.000000,81.196960,6465600
2014-12-04,90.500000,90.940002,90.099998,90.580002,81.720238,6406700
2014-12-05,90.320000,90.419998,89.209999,90.379997,81.539810,6383400
2014-12-08,90.339996,91.000000,90.320000,90.760002,81.882645,4721900
2014-12-09,90.470001,90.779999,89.870003,90.709999,81.837532,5704000
2014-12-10,90.949997,91.099998,89.959999,90.000000,81.196960,6293300
2014-12-11,90.000000,91.279999,89.980003,90.410004,81.566864,6468700
2014-12-12,90.010002,90.970001,89.529999,89.550003,80.790993,6574600
2014-12-15,89.699997,90.599998,89.029999,89.199997,80.475220,6511900
2014-12-16,89.139999,90.959999,88.379997,89.360001,80.619576,8773800
2014-12-17,89.559998,91.160004,89.400002,90.699997,81.828506,7412700
2014-12-18,91.010002,92.000000,90.550003,92.000000,83.001366,8724500
2014-12-19,92.150002,92.730003,91.760002,92.050003,83.046478,14037800
2014-12-22,92.099998,92.730003,92.000000,92.599998,83.542671,7157100
2014-12-23,92.739998,93.480003,92.699997,93.290001,84.165184,5610600
2014-12-24,93.500000,93.889999,93.139999,93.139999,84.029846,2403000
2014-12-26,93.150002,93.809998,93.059998,93.459999,84.318558,3148700
2014-12-29,93.120003,93.430000,92.500000,92.639999,83.578758,4657700
2014-12-30,92.250000,92.820000,92.099998,92.400002,83.362221,4730000
2014-12-31,92.040001,92.550003,91.029999,91.089996,82.180359,5712100
2015-01-02,90.839996,91.000000,89.919998,90.440002,81.593941,7251400
2015-01-05,90.230003,91.000000,89.849998,90.010002,81.206001,8626100
2015-01-06,90.309998,90.559998,89.260002,89.599998,80.836098,7791200
2015-01-07,89.940002,90.370003,89.559998,90.070000,81.260124,5986600
2015-01-08,90.480003,91.230003,90.129997,91.099998,82.189384,6823300
2015-01-09,91.180000,91.180000,90.120003,90.250000,81.422531,4872800
2015-01-12,90.480003,90.620003,89.510002,89.919998,81.124794,5247600
2015-01-13,90.779999,91.500000,89.769997,90.300003,81.467644,6727100
2015-01-14,89.730003,90.160004,89.430000,89.989998,81.187965,6418200
2015-01-15,89.989998,90.500000,89.339996,89.860001,81.070671,6768200
2015-01-16,89.949997,91.339996,89.870003,91.250000,82.324699,8815700
2015-01-20,91.250000,91.790001,90.500000,91.190002,82.270592,9869900
2015-01-21,90.400002,91.190002,89.629997,90.730003,82.437759,6974500
2015-01-22,91.040001,91.690002,89.870003,91.620003,83.246429,7211200
2015-01-23,91.169998,91.190002,89.949997,90.080002,81.847191,6738200
2015-01-26,89.949997,89.949997,88.739998,89.580002,81.392860,9371700
2015-01-27,87.099998,87.209999,86.019997,86.489998,78.585289,14417400
2015-01-28,86.629997,86.910004,85.010002,85.150002,77.367752,14033400
2015-01-29,85.779999,86.110001,85.150002,85.669998,77.840210,12054500
2015-01-30,85.089996,85.220001,84.250000,84.290001,76.586357,14685300
2015-02-02,84.580002,85.139999,83.680000,85.120003,77.340492,10278700
2015-02-03,85.949997,86.000000,85.120003,85.949997,78.094635,10746700
2015-02-04,85.889999,86.480003,85.550003,85.790001,77.949249,9212800
2015-02-05,86.239998,86.779999,86.099998,86.699997,78.776093,6531300
2015-02-06,86.559998,86.610001,85.150002,85.610001,77.785698,8330800
2015-02-09,85.309998,85.430000,84.589996,85.050003,77.276894,8811500
2015-02-10,85.330002,85.570000,84.820000,85.389999,77.585815,7059300
2015-02-11,85.949997,86.199997,85.150002,85.639999,77.812973,7184600
2015-02-12,86.059998,86.150002,85.410004,86.029999,78.167328,6074600
2015-02-13,86.029999,86.150002,85.500000,85.900002,78.049202,6272000
2015-02-17,86.059998,86.059998,85.000000,85.489998,77.676659,10310400
2015-02-18,85.760002,86.389999,85.519997,86.260002,78.376312,7515600
2015-02-19,86.110001,86.300003,85.050003,85.209999,77.422279,7271600
2015-02-20,84.949997,85.050003,84.190002,84.870003,77.113342,9581300
2015-02-23,84.959999,85.500000,84.650002,85.389999,77.585815,7919200
2015-02-24,85.510002,85.739998,85.010002,85.500000,77.685768,6418100
2015-02-25,85.699997,85.800003,85.239998,85.459999,77.649422,5975800
2015-02-26,85.419998,85.760002,84.889999,85.169998,77.385925,7964500
2015-02-27,85.019997,85.379997,84.570000,85.129997,77.349571,7685000
2015-03-02,85.129997,85.410004,84.839996,85.410004,77.603996,7235200
2015-03-03,85.349998,85.440002,84.540001,85.160004,77.376839,6095600
2015-03-04,85.040001,85.239998,84.209999,84.349998,76.640862,7341700
2015-03-05,84.620003,84.760002,84.089996,84.629997,76.895279,5914200
2015-03-06,84.339996,84.370003,82.370003,82.660004,75.105331,11338700
2015-03-09,82.790001,83.209999,82.680000,83.089996,75.496025,7326700
2015-03-10,82.470001,82.879997,81.540001,81.540001,74.087700,9627900
2015-03-11,81.529999,81.779999,80.809998,81.389999,73.951401,10066600
2015-03-12,81.589996,82.120003,81.510002,82.089996,74.587418,6951100
2015-03-13,81.980003,82.279999,81.150002,81.830002,74.351189,7492500
2015-03-16,82.080002,83.949997,81.989998,83.559998,75.923058,15618300
2015-03-17,83.360001,83.370003,82.430000,82.849998,75.277939,7455000
2015-03-18,82.860001,84.050003,82.019997,83.750000,76.095711,12602400
2015-03-19,83.459999,83.750000,83.120003,83.379997,75.759514,9257500
2015-03-20,83.989998,84.790001,83.769997,84.739998,76.995239,22580300
2015-03-23,84.370003,85.050003,84.360001,84.860001,77.104256,9828300
2015-03-24,84.889999,85.110001,83.870003,83.919998,76.250160,7478800
2015-03-25,84.370003,84.370003,82.860001,83.010002,75.423332,8482200
2015-03-26,82.580002,82.610001,81.949997,82.150002,74.641930,7311600
2015-03-27,82.080002,82.540001,81.989998,82.309998,74.787292,6440600
2015-03-30,82.629997,82.949997,82.150002,82.720001,75.159836,6416800
2015-03-31,82.760002,82.930000,81.940002,81.940002,74.451134,8649700
2015-04-01,82.440002,82.449997,81.449997,82.320000,74.796402,7371800
2015-04-02,82.169998,82.589996,81.919998,82.430000,74.896355,6169800
2015-04-06,81.919998,83.230003,81.510002,83.040001,75.450592,6856300
2015-04-07,82.930000,83.290001,82.330002,82.389999,74.860008,6329900
2015-04-08,82.300003,83.180000,82.269997,82.769997,75.205261,6523400
2015-04-09,82.629997,82.949997,82.010002,82.889999,75.314293,6185000
2015-04-10,82.800003,83.629997,82.720001,83.349998,75.732269,7001700
2015-04-13,83.000000,83.949997,82.940002,83.430000,75.804947,8290500
2015-04-14,83.389999,83.879997,83.050003,83.599998,75.959412,6170500
2015-04-15,83.849998,84.199997,83.480003,83.510002,75.877640,7006400
2015-04-16,83.559998,84.070000,83.349998,83.500000,75.868546,7615900
2015-04-17,83.000000,83.220001,82.029999,82.529999,74.987198,9533800
2015-04-20,83.089996,83.980003,82.800003,82.870003,75.296135,7414000
2015-04-21,83.389999,83.800003,82.900002,83.080002,75.486946,7696400
2015-04-22,83.220001,83.339996,82.599998,83.089996,75.496025,6753100
2015-04-23,81.419998,82.099998,80.900002,80.949997,74.143211,14569500
2015-04-24,81.040001,81.529999,80.900002,81.000000,74.189026,8785500
2015-04-27,80.910004,81.199997,80.470001,80.599998,73.822662,9192300
2015-04-28,80.730003,80.820000,80.190002,80.419998,73.657768,8395500
2015-04-29,80.000000,80.309998,79.720001,79.849998,73.135704,11858500
2015-04-30,79.949997,80.150002,79.070000,79.510002,72.824310,9409300
2015-05-01,79.760002,80.320000,79.629997,80.290001,73.538712,8193000
2015-05-04,80.480003,80.970001,80.300003,80.349998,73.593674,7203800
2015-05-05,80.500000,80.650002,79.779999,80.070000,73.337212,6589400
2015-05-06,80.339996,80.580002,79.519997,80.400002,73.639481,7335700
2015-05-07,80.370003,80.550003,80.000000,80.199997,73.456276,7224300
2015-05-08,80.889999,81.209999,80.820000,80.959999,74.152359,6929400
2015-05-11,80.949997,80.989998,80.260002,80.269997,73.520393,5237800
2015-05-12,80.029999,80.290001,79.360001,79.949997,73.227310,6305800
2015-05-13,80.160004,80.589996,79.550003,79.699997,72.998314,6459900
2015-05-14,80.110001,80.690002,80.089996,80.570000,73.795174,5634200
2015-05-15,80.830002,81.120003,80.730003,81.050003,74.234818,7454800
2015-05-18,80.970001,81.129997,80.500000,80.739998,73.950882,5578900
2015-05-19,80.750000,80.949997,80.330002,80.830002,74.033318,5729500
2015-05-20,80.930000,81.000000,80.449997,80.480003,73.712730,5487000
2015-05-21,80.169998,80.580002,79.839996,80.410004,73.648643,6054700
2015-05-22,80.239998,80.400002,79.919998,79.949997,73.227310,6003600
2015-05-26,79.970001,80.070000,78.940002,79.139999,72.485428,6698300
2015-05-27,79.220001,79.940002,79.089996,79.389999,72.714386,8094600
2015-05-28,79.430000,79.449997,79.019997,79.330002,72.659447,5803400
2015-05-29,79.180000,79.239998,78.190002,78.389999,71.798470,12491400
2015-06-01,78.650002,79.070000,78.269997,78.849998,72.219803,7588000
2015-06-02,78.459999,78.720001,78.169998,78.540001,71.935875,7352800
2015-06-03,78.910004,78.930000,78.269997,78.559998,71.954185,5985800
2015-06-04,78.410004,78.839996,78.059998,78.150002,71.578659,7714600
2015-06-05,78.040001,78.120003,77.370003,77.430000,70.919197,9439700
2015-06-08,77.480003,77.980003,77.099998,77.709999,71.175659,10885800
2015-06-09,77.970001,79.330002,77.820000,78.900002,72.265587,11528900
2015-06-10,79.230003,79.790001,79.010002,79.540001,72.851784,9483500
2015-06-11,79.930000,79.930000,79.239998,79.410004,72.732712,7633300
2015-06-12,79.169998,79.320000,78.570000,78.870003,72.238121,6508600
2015-06-15,78.330002,78.459999,77.930000,78.120003,71.551178,7527900
2015-06-16,79.599998,79.599998,78.540001,79.099998,72.448769,8285700
2015-06-17,79.199997,80.190002,79.160004,80.080002,73.346382,9305800
2015-06-18,80.330002,81.220001,80.300003,80.820000,74.024139,10712500
2015-06-19,80.709999,81.199997,80.480003,80.540001,73.767708,15598800
2015-06-22,80.919998,81.180000,80.330002,80.449997,73.685249,6907900
2015-06-23,80.330002,80.449997,79.620003,79.790001,73.080765,7190600
2015-06-24,79.800003,79.849998,79.500000,79.510002,72.824310,8843700
2015-06-25,79.709999,79.900002,79.389999,79.389999,72.714386,5855700
2015-06-26,79.540001,79.739998,79.279999,79.339996,72.668587,7703200
2015-06-29,78.949997,79.370003,78.260002,78.320000,71.734360,7966200
2015-06-30,78.919998,79.010002,78.129997,78.239998,71.661095,8451400
2015-07-01,78.389999,79.769997,78.120003,79.720001,73.016640,8868000
2015-07-02,80.010002,80.349998,79.769997,79.930000,73.208992,6602500
2015-07-06,79.610001,80.220001,79.500000,80.050003,73.318886,6601200
2015-07-07,80.059998,81.830002,80.059998,81.720001,74.848473,11690400
2015-07-08,81.209999,81.690002,80.889999,80.989998,74.179848,6724700
2015-07-09,81.750000,82.000000,80.519997,80.660004,73.877602,10419800
2015-07-10,81.230003,81.360001,80.760002,80.949997,74.143211,6892500
2015-07-13,81.519997,82.040001,81.339996,81.910004,75.022507,7332900
2015-07-14,82.040001,82.459999,81.980003,82.040001,75.141571,6119500
2015-07-15,81.910004,82.320000,81.839996,82.150002,75.242317,6673700
2015-07-16,82.449997,82.550003,82.099998,82.300003,75.379707,6623400
2015-07-17,81.889999,82.379997,81.599998,82.239998,75.324745,5827300
2015-07-20,82.089996,82.349998,82.000000,82.190002,75.278938,4952100
2015-07-21,82.010002,82.129997,81.370003,81.629997,74.766037,7512400
2015-07-22,81.029999,81.300003,80.669998,80.830002,74.639534,6106400
2015-07-23,80.830002,80.889999,80.139999,80.699997,74.519478,5380900
2015-07-24,80.510002,80.730003,80.230003,80.290001,74.140892,5660800
2015-07-27,79.830002,80.070000,79.430000,79.970001,73.845398,8613600
2015-07-28,80.139999,80.660004,79.910004,80.230003,74.085487,8649900
2015-07-29,80.260002,80.989998,80.160004,80.620003,74.445618,8921500
2015-07-30,79.400002,79.480003,77.150002,77.389999,71.462990,22067800
2015-07-31,77.629997,77.739998,76.660004,76.699997,70.825821,11877200
2015-08-03,76.510002,77.089996,76.010002,76.400002,70.548820,9511300
2015-08-04,76.029999,76.339996,75.750000,75.910004,70.096336,13369100
2015-08-05,76.050003,76.540001,75.750000,75.769997,69.967049,10895400
2015-08-06,76.010002,76.010002,75.250000,75.739998,69.939346,9353300
2015-08-07,75.589996,75.720001,75.339996,75.480003,69.699265,10045400
2015-08-10,75.949997,76.500000,75.800003,76.379997,70.530334,9165900
2015-08-11,76.040001,76.449997,75.809998,76.220001,70.382607,7462000
2015-08-12,75.889999,76.430000,75.339996,76.389999,70.539581,10397700
2015-08-13,76.489998,76.510002,75.629997,75.779999,69.976303,5948000
2015-08-14,75.739998,75.809998,75.379997,75.620003,69.828545,5580600
2015-08-17,75.809998,75.809998,74.750000,75.529999,69.745445,8683900
2015-08-18,75.580002,75.800003,75.000000,75.129997,69.376068,7445900
2015-08-19,74.930000,74.930000,74.019997,74.120003,68.443428,9865300
2015-08-20,73.750000,74.720001,73.459999,73.910004,68.249512,10696500
2015-08-21,73.550003,73.900002,71.830002,71.839996,66.338036,15763900
2015-08-24,68.570000,71.070000,65.019997,69.139999,63.844822,23696300
2015-08-25,72.180000,72.230003,68.300003,68.419998,63.179958,21476900
2015-08-26,69.900002,71.000000,68.949997,70.900002,65.470032,17464700
2015-08-27,71.400002,71.750000,70.019997,71.480003,66.005615,13434000
2015-08-28,71.169998,71.269997,70.589996,71.209999,65.756287,10020000
2015-08-31,71.000000,71.000000,70.300003,70.669998,65.257645,9351800
2015-09-01,69.370003,69.879997,68.519997,68.900002,63.623215,15437700
2015-09-02,69.650002,69.849998,69.220001,69.809998,64.463524,8903700
2015-09-03,70.180000,70.459999,69.699997,69.930000,64.574318,8468300
2015-09-04,69.279999,69.279999,68.500000,68.760002,63.493927,11497500
2015-09-08,70.309998,70.440002,69.559998,69.980003,64.620506,9182300
2015-09-09,70.440002,70.540001,68.370003,68.480003,63.235382,10968000
2015-09-10,68.120003,68.949997,67.750000,68.320000,63.087624,12591100
2015-09-11,68.059998,68.510002,67.730003,68.419998,63.179958,11291400
2015-09-14,68.230003,68.300003,67.330002,68.059998,62.847534,9712800
2015-09-15,68.019997,69.739998,67.900002,69.449997,64.131088,10974500
2015-09-16,70.120003,70.360001,69.699997,70.099998,64.731300,8704200
2015-09-17,70.000000,71.269997,69.860001,70.239998,64.860580,11029600
2015-09-18,69.440002,70.779999,69.370003,69.940002,64.583557,18003300
2015-09-21,70.150002,70.879997,70.010002,70.650002,65.239182,7742800
2015-09-22,70.059998,70.650002,69.980003,70.190002,64.814407,10207800
2015-09-23,70.180000,70.489998,69.959999,70.260002,64.879059,6294200
2015-09-24,69.820000,71.580002,69.739998,71.360001,65.894814,13423500
2015-09-25,72.389999,73.379997,71.949997,72.669998,67.104469,15080700
2015-09-28,72.309998,72.669998,71.750000,71.769997,66.273392,9207300
2015-09-29,71.769997,72.410004,71.349998,72.279999,66.744339,9033300
2015-09-30,72.860001,73.059998,71.550003,71.940002,66.430374,10860500
2015-10-01,71.760002,72.180000,71.400002,71.949997,66.439613,8547600
2015-10-02,71.360001,72.419998,71.290001,72.419998,66.873627,9085600
2015-10-05,72.970001,73.430000,72.500000,73.220001,67.612350,9187700
2015-10-06,73.339996,73.779999,72.589996,73.400002,67.778557,8851500
2015-10-07,73.720001,73.870003,73.320000,73.720001,68.074074,8013200
2015-10-08,73.680000,74.440002,73.489998,74.400002,68.701988,6856600
2015-10-09,74.589996,74.910004,74.320000,74.480003,68.775856,6880100
2015-10-12,74.690002,74.760002,73.910004,74.330002,68.637352,6255900
2015-10-13,74.239998,74.279999,73.660004,74.110001,68.434189,8390200
2015-10-14,74.209999,74.610001,73.900002,74.209999,68.526527,8479200
2015-10-15,74.639999,74.839996,74.029999,74.269997,68.581917,8607400
2015-10-16,74.720001,75.040001,74.339996,74.900002,69.163689,9578900
2015-10-19,74.650002,75.190002,74.529999,75.160004,69.403778,7292200
2015-10-20,74.870003,75.050003,74.160004,74.430000,68.729691,8507100
2015-10-21,73.750000,74.540001,73.500000,73.589996,68.564758,8302100
2015-10-22,73.860001,75.610001,73.610001,74.849998,69.738716,14080900
2015-10-23,76.760002,78.449997,76.309998,77.029999,71.769867,16451200
2015-10-26,77.000000,77.900002,77.000000,77.489998,72.198448,11464700
2015-10-27,77.120003,77.360001,76.809998,77.290001,72.012115,9423400
2015-10-28,77.389999,77.540001,75.690002,76.510002,71.285378,10178400
2015-10-29,76.750000,77.190002,76.239998,77.019997,71.760529,8214600
2015-10-30,76.980003,77.139999,76.379997,76.379997,71.164246,9547700
2015-11-02,76.570000,76.769997,76.050003,76.599998,71.369225,7152900
2015-11-03,76.300003,77.419998,75.959999,77.050003,71.788506,8013200
2015-11-04,77.029999,77.139999,76.510002,77.059998,71.797798,6375400
2015-11-05,77.089996,77.260002,75.959999,76.389999,71.173569,6860900
2015-11-06,75.879997,76.000000,74.690002,75.570000,70.409569,9483500
2015-11-09,75.190002,75.629997,74.930000,75.400002,70.251167,8607200
2015-11-10,75.379997,76.239998,75.230003,75.769997,70.595894,6551000
2015-11-11,76.019997,76.430000,75.919998,75.959999,70.772934,5295900
2015-11-12,75.669998,76.010002,74.660004,74.660004,69.561699,7678600
2015-11-13,74.639999,74.980003,73.949997,73.959999,68.909492,8468800
2015-11-16,74.250000,75.330002,74.010002,75.300003,70.157997,7410600
2015-11-17,75.330002,76.010002,74.870003,75.070000,69.943710,8761800
2015-11-18,74.980003,75.959999,74.809998,75.900002,70.717041,6447100
2015-11-19,76.139999,76.959999,76.019997,76.220001,71.015175,7899500
2015-11-20,76.550003,76.860001,75.680000,75.820000,70.642487,9533200
2015-11-23,75.820000,76.059998,75.400002,75.970001,70.782257,9421300
2015-11-24,75.620003,76.690002,75.610001,76.449997,71.229477,7086800
2015-11-25,76.529999,76.739998,75.879997,75.900002,70.717041,4266500
2015-11-27,75.889999,76.370003,75.500000,75.699997,70.530678,2390100
2015-11-30,75.580002,75.809998,74.839996,74.839996,69.729408,8935700
2015-12-01,74.870003,76.220001,74.870003,75.940002,70.754303,8391700
2015-12-02,75.730003,76.459999,75.650002,75.790001,70.614540,8104200
2015-12-03,75.830002,76.199997,75.169998,75.739998,70.567947,11177800
2015-12-04,75.980003,77.900002,75.919998,77.830002,72.515228,11961000
2015-12-07,77.540001,78.500000,77.540001,78.370003,73.018364,9460000
2015-12-08,77.680000,78.500000,77.349998,77.750000,72.440704,8312700
2015-12-09,77.599998,78.989998,77.440002,77.699997,72.394104,10081900
2015-12-10,77.910004,78.540001,77.570000,77.790001,72.477966,8915900
2015-12-11,77.510002,78.330002,77.110001,77.779999,72.468658,12280500
2015-12-14,77.629997,78.529999,77.440002,78.290001,72.943817,12098800
2015-12-15,78.709999,80.000000,78.480003,79.680000,74.238907,14113400
2015-12-16,79.980003,81.230003,79.800003,80.989998,75.459450,14102600
2015-12-17,80.980003,81.029999,80.199997,80.290001,74.807251,9864200
2015-12-18,79.949997,80.120003,78.129997,78.129997,72.794746,21342100
2015-12-21,78.629997,78.980003,78.150002,78.949997,73.558746,9105800
2015-12-22,79.160004,79.750000,78.879997,79.599998,74.164368,9837500
2015-12-23,79.949997,80.430000,79.500000,79.919998,74.462509,8254600
2015-12-24,79.660004,80.150002,79.599998,79.790001,74.341385,2498000
2015-12-28,79.739998,79.970001,79.470001,79.919998,74.462509,4144400
2015-12-29,80.220001,80.610001,79.849998,80.360001,74.872475,4406100
2015-12-30,80.459999,80.500000,80.000000,80.070000,74.602272,3793200
2015-12-31,79.910004,80.040001,79.309998,79.410004,73.987350,5077700
2016-01-04,78.360001,78.500000,77.540001,78.370003,73.018364,11529800
2016-01-05,78.440002,78.959999,78.209999,78.620003,73.251297,8133700
2016-01-06,77.669998,78.290001,77.120003,77.860001,72.543182,9551000
2016-01-07,76.849998,77.599998,76.070000,77.180000,71.909615,11973900
2016-01-08,77.360001,77.480003,75.669998,75.970001,70.782257,9676400
2016-01-11,76.169998,77.040001,75.599998,76.669998,71.434441,10191500
2016-01-12,77.000000,77.019997,75.750000,76.510002,71.285378,8774700
2016-01-13,76.970001,76.989998,75.790001,75.849998,70.670441,9310100
2016-01-14,76.099998,76.949997,75.879997,76.150002,70.949959,12835100
2016-01-15,74.500000,75.680000,74.470001,74.980003,69.859848,17023900
2016-01-19,75.800003,76.910004,75.720001,76.730003,71.490341,13457300
2016-01-20,75.290001,76.089996,74.459999,75.830002,71.267624,17795000
2016-01-21,76.019997,77.180000,75.410004,76.720001,72.104065,12712900
2016-01-22,77.400002,77.970001,76.550003,77.360001,72.705559,9465800
2016-01-25,77.199997,77.360001,76.559998,76.849998,72.226242,9870400
2016-01-26,78.000000,79.580002,77.540001,78.809998,74.068306,16253100
2016-01-27,78.529999,79.849998,78.150002,78.800003,74.058922,10816100
2016-01-28,79.400002,80.000000,78.610001,79.820000,75.017548,9895100
2016-01-29,79.980003,82.000000,79.830002,81.690002,76.775047,19895000
2016-02-01,81.209999,81.400002,80.529999,81.120003,76.239334,9657200
2016-02-02,80.089996,80.540001,79.809998,80.220001,75.393486,9116400
2016-02-03,80.480003,81.239998,80.019997,81.099998,76.220535,10149600
2016-02-04,80.849998,81.099998,80.330002,80.699997,75.844597,8111500
2016-02-05,80.580002,81.199997,80.570000,81.199997,76.314507,9957600
2016-02-08,80.290001,82.720001,80.290001,82.620003,77.649094,16530200
2016-02-09,81.830002,83.000000,81.019997,82.639999,77.667862,14092800
2016-02-10,82.910004,83.000000,81.459999,81.620003,76.709251,10585400
2016-02-11,80.389999,80.989998,79.629997,79.900002,75.092743,12343900
2016-02-12,80.360001,81.019997,79.790001,80.989998,76.117157,9306100
2016-02-16,81.989998,81.989998,80.839996,81.470001,76.568268,9352600
2016-02-17,81.650002,82.830002,81.510002,82.449997,77.489319,10892900
2016-02-18,82.230003,82.320000,81.209999,81.980003,77.047592,7702600
2016-02-19,81.959999,82.260002,81.400002,81.790001,76.869026,7709600
2016-02-22,81.790001,82.669998,81.709999,82.129997,77.188553,6916500
2016-02-23,82.000000,82.459999,81.610001,81.809998,76.887817,5840600
2016-02-24,81.260002,81.639999,80.660004,81.559998,76.652878,6759800
2016-02-25,81.699997,82.339996,81.470001,82.339996,77.385925,6588600
2016-02-26,82.519997,82.650002,80.949997,81.099998,76.220535,9281100
2016-02-29,81.099998,81.349998,80.209999,80.290001,75.459267,11065300
2016-03-01,80.540001,81.360001,80.529999,81.230003,76.342720,9483900
2016-03-02,81.580002,82.660004,80.849998,82.550003,77.583298,12096600
2016-03-03,82.540001,82.930000,82.180000,82.839996,77.855843,8735000
2016-03-04,82.620003,83.739998,82.260002,83.489998,78.466736,9406700
2016-03-07,83.180000,83.699997,83.000000,83.099998,78.100189,6792400
2016-03-08,82.970001,83.750000,82.669998,83.059998,78.062599,7788400
2016-03-09,83.300003,83.690002,82.680000,82.959999,77.968620,8954800
2016-03-10,83.129997,83.230003,81.750000,82.279999,77.329544,10384000
2016-03-11,82.750000,82.800003,81.440002,81.750000,76.831421,11109500
2016-03-14,81.570000,81.849998,80.680000,81.169998,76.286324,12389300
2016-03-15,81.000000,81.459999,80.760002,81.309998,76.417892,9297800
2016-03-16,81.309998,81.800003,80.480003,81.339996,76.446091,9490300
2016-03-17,81.290001,83.230003,81.279999,82.750000,77.771271,12061500
2016-03-18,82.860001,83.500000,82.440002,83.150002,78.147186,33635200
2016-03-21,83.120003,83.870003,82.910004,83.320000,78.306961,8625600
2016-03-22,83.279999,83.320000,82.489998,82.739998,77.761856,7205900
2016-03-23,82.720001,83.489998,82.580002,82.820000,77.837051,5594600
2016-03-24,82.459999,83.120003,82.430000,82.889999,77.902832,6645700
2016-03-28,82.989998,83.449997,82.519997,82.620003,77.649094,4988500
2016-03-29,82.660004,83.089996,82.160004,82.800003,77.818253,6696100
2016-03-30,83.089996,83.360001,82.650002,82.680000,77.705475,6925400
2016-03-31,82.750000,83.000000,82.150002,82.309998,77.357727,6819200
2016-04-01,82.000000,83.620003,81.930000,83.529999,78.504333,8028600
2016-04-04,83.650002,83.650002,83.029999,83.209999,78.203583,5593400
2016-04-05,83.160004,83.559998,82.989998,83.160004,78.156586,5259100
2016-04-06,83.139999,83.839996,83.080002,83.809998,78.767487,6244400
2016-04-07,83.239998,83.680000,82.870003,83.239998,78.231773,6655900
2016-04-08,83.440002,83.449997,82.769997,83.199997,78.194183,5453000
2016-04-11,83.029999,83.339996,82.660004,82.730003,77.752457,7081500
2016-04-12,82.709999,83.209999,82.449997,82.830002,77.846451,6994200
2016-04-13,83.050003,83.430000,81.839996,82.459999,77.498703,11738600
2016-04-14,81.949997,82.370003,81.540001,82.010002,77.707161,6892600
2016-04-15,82.050003,82.430000,81.849998,82.300003,77.981956,7299300
2016-04-18,82.300003,82.989998,82.019997,82.830002,78.484138,5545000
2016-04-19,82.910004,83.699997,82.849998,83.279999,78.910530,6606100
2016-04-20,83.290001,83.339996,81.480003,81.550003,77.271294,9124200
2016-04-21,81.040001,81.309998,80.550003,80.800003,76.560654,8802100
2016-04-22,80.400002,80.949997,79.910004,80.949997,76.702774,8027700
2016-04-25,80.919998,81.480003,80.419998,81.410004,77.138649,7672800
2016-04-26,81.500000,81.500000,79.209999,79.550003,75.376244,13742300
2016-04-27,79.470001,80.150002,79.099998,79.889999,75.698387,7689700
2016-04-28,79.480003,80.269997,79.389999,79.760002,75.575218,7615900
2016-04-29,79.669998,80.150002,79.370003,80.120003,75.916328,9391000
2016-05-02,80.019997,81.300003,80.019997,80.970001,76.721725,7862600
2016-05-03,80.800003,81.699997,80.690002,81.099998,76.844910,7617500
2016-05-04,80.870003,81.769997,80.870003,81.599998,77.318672,7365900
2016-05-05,81.599998,82.089996,80.919998,81.300003,77.034416,6399500
2016-05-06,81.419998,82.250000,81.169998,82.129997,77.820869,6297200
2016-05-09,82.209999,82.730003,81.970001,82.120003,77.811394,6718800
2016-05-10,82.150002,82.680000,82.120003,82.480003,78.152512,6222400
2016-05-11,82.500000,82.889999,82.129997,82.150002,77.839828,5975000
2016-05-12,82.480003,82.739998,82.110001,82.410004,78.086182,4925000
2016-05-13,82.419998,82.419998,81.000000,81.230003,76.968094,6579000
2016-05-16,81.010002,81.889999,80.750000,81.629997,77.347099,6497200
2016-05-17,81.639999,82.059998,80.330002,80.620003,76.390091,10188200
2016-05-18,80.589996,80.769997,79.410004,79.849998,75.660492,8344100
2016-05-19,79.639999,80.220001,79.449997,80.190002,75.982651,6242500
2016-05-20,80.440002,80.500000,79.790001,80.019997,75.821571,6526800
2016-05-23,80.050003,80.330002,79.849998,80.199997,75.992119,5617000
2016-05-24,80.300003,81.379997,80.300003,80.970001,76.721725,6293300
2016-05-25,81.080002,81.769997,81.010002,81.480003,77.204979,6049800
2016-05-26,81.480003,81.599998,81.089996,81.220001,76.958618,4560400
2016-05-27,81.269997,81.660004,81.160004,81.430000,77.157593,4322200
2016-05-31,81.580002,81.820000,80.739998,81.040001,76.788071,6705000
2016-06-01,80.949997,81.800003,80.860001,81.790001,77.498703,6184100
2016-06-02,81.529999,81.949997,81.330002,81.949997,77.650307,5184500
2016-06-03,81.930000,82.489998,81.779999,82.470001,78.143036,6306700
2016-06-06,82.400002,82.830002,82.230003,82.769997,78.427284,5292300
2016-06-07,82.760002,82.889999,82.250000,82.320000,78.000900,6327500
2016-06-08,82.370003,82.750000,82.019997,82.650002,78.313576,4712600
2016-06-09,82.580002,83.260002,82.430000,83.169998,78.806290,6144900
2016-06-10,82.769997,83.339996,82.610001,83.199997,78.834717,6840800
2016-06-13,82.959999,83.400002,82.529999,82.570000,78.237785,6167400
2016-06-14,82.550003,83.370003,82.269997,83.349998,78.976860,6868600
2016-06-15,83.400002,83.500000,82.820000,82.949997,78.597847,7082200
2016-06-16,82.669998,83.610001,82.660004,83.410004,79.033722,6630100
2016-06-17,83.309998,83.440002,82.349998,83.129997,78.768402,11741700
2016-06-20,83.519997,83.699997,83.029999,83.040001,78.683128,6164300
2016-06-21,83.089996,83.779999,83.089996,83.410004,79.033722,6594700
2016-06-22,83.500000,83.760002,83.290001,83.570000,79.185310,4940100
2016-06-23,83.809998,84.209999,83.570000,84.209999,79.791725,7361300
2016-06-24,82.610001,83.820000,81.989998,82.260002,77.944054,12401100
2016-06-27,81.830002,81.889999,81.000000,81.230003,76.968094,9601800
2016-06-28,81.440002,82.489998,80.949997,82.459999,78.133553,9257100
2016-06-29,82.959999,83.910004,82.910004,83.910004,79.507469,7927500
2016-06-30,83.910004,84.800003,83.820000,84.669998,80.227608,10969300
2016-07-01,84.519997,84.989998,84.510002,84.779999,80.331841,9531100
2016-07-05,84.480003,85.949997,84.449997,85.440002,80.957214,11403100
2016-07-06,85.370003,85.500000,84.739998,85.029999,80.568710,8356500
2016-07-07,85.230003,85.239998,84.529999,84.830002,80.379211,7905700
2016-07-08,84.980003,85.900002,84.769997,85.769997,81.269882,6827300
2016-07-11,85.610001,85.949997,84.910004,85.750000,81.250931,6156800
2016-07-12,85.489998,85.940002,85.190002,85.750000,81.250931,6649800
2016-07-13,85.809998,86.150002,85.410004,85.889999,81.383598,7572100
2016-07-14,86.440002,86.889999,85.849998,85.870003,81.364639,11342600
2016-07-15,86.250000,86.480003,85.790001,86.010002,81.497292,8491300
2016-07-18,86.019997,86.050003,85.699997,85.930000,81.421501,4781300
2016-07-19,85.669998,86.180000,85.559998,86.169998,81.648895,6078200
2016-07-20,85.379997,85.730003,85.129997,85.320000,81.477005,6289000
2016-07-21,85.019997,85.370003,84.879997,85.260002,81.419708,5407000
2016-07-22,85.500000,85.980003,85.449997,85.720001,81.858994,6165600
2016-07-25,85.529999,85.800003,85.150002,85.800003,81.935394,5605300
2016-07-26,85.680000,86.080002,85.169998,85.269997,81.429253,5379300
2016-07-27,85.239998,85.300003,84.320000,84.459999,80.655739,7734600
2016-07-28,84.419998,84.980003,84.400002,84.809998,80.989983,5911600
2016-07-29,84.889999,85.790001,84.800003,85.589996,81.734848,7520900
2016-08-01,85.440002,86.580002,85.419998,86.410004,82.517906,10420600
2016-08-02,87.019997,87.150002,86.239998,86.760002,82.852150,13083200
2016-08-03,86.510002,86.720001,85.459999,85.970001,82.097725,8192100
2016-08-04,86.120003,86.529999,85.800003,86.050003,82.174133,5557700
2016-08-05,86.080002,86.440002,85.529999,85.779999,81.916290,6729700
2016-08-08,85.610001,85.900002,85.129997,85.760002,81.897179,5388200
2016-08-09,85.860001,86.339996,85.680000,85.989998,82.116829,4158800
2016-08-10,86.260002,86.820000,86.000000,86.309998,82.422424,5981400
2016-08-11,86.699997,87.000000,86.400002,86.730003,82.823502,7350200
2016-08-12,86.919998,87.449997,86.779999,87.040001,83.119530,8063400
2016-08-15,87.519997,87.570000,86.989998,87.019997,83.100433,6871200
2016-08-16,86.980003,87.400002,86.470001,86.580002,82.680244,8071100
2016-08-17,86.449997,87.110001,85.970001,86.959999,83.043137,6762100
2016-08-18,86.940002,87.459999,86.940002,87.440002,83.501526,7082800
2016-08-19,87.199997,87.410004,87.050003,87.309998,83.377357,6199900
2016-08-22,87.139999,87.209999,86.580002,86.849998,82.938080,5921100
2016-08-23,87.129997,87.500000,87.040001,87.400002,83.463318,5420100
2016-08-24,87.320000,87.449997,86.559998,87.309998,83.377357,5713300
2016-08-25,87.300003,87.940002,87.040001,87.900002,83.940796,10595500
2016-08-26,87.870003,88.500000,87.169998,87.580002,83.635216,16408200
2016-08-29,87.389999,88.400002,87.320000,88.300003,84.322784,8875500
2016-08-30,87.720001,88.300003,87.459999,87.540001,83.597015,11619400
2016-08-31,87.750000,87.849998,87.029999,87.309998,83.377357,11407800
2016-09-01,87.360001,88.309998,86.980003,88.309998,84.332321,29793300
2016-09-02,88.480003,88.870003,88.040001,88.199997,84.227287,17470400
2016-09-06,88.250000,88.639999,87.879997,88.639999,84.647461,14472100
2016-09-07,88.309998,88.410004,87.709999,87.949997,83.988548,17556400
2016-09-08,87.949997,88.180000,87.629997,87.779999,83.826195,23437800
2016-09-09,87.099998,87.169998,86.239998,86.239998,82.355568,21955000
2016-09-12,86.040001,88.379997,85.959999,88.250000,84.275032,16105700
2016-09-13,87.550003,87.910004,87.010002,87.050003,83.129074,19682700
2016-09-14,87.120003,87.599998,86.870003,87.010002,83.090897,25397900
2016-09-15,86.750000,88.269997,86.750000,88.059998,84.093597,13833600
2016-09-16,87.620003,88.110001,87.300003,88.050003,84.084045,23518300
2016-09-19,87.919998,88.949997,87.250000,88.370003,84.389641,18986600
2016-09-20,88.500000,88.949997,88.180000,88.580002,84.590164,33986500
2016-09-21,88.540001,88.790001,86.440002,87.800003,83.845306,55409800
2016-09-22,87.769997,89.300003,87.769997,88.989998,84.981697,52692700
2016-09-23,88.629997,88.940002,87.489998,87.760002,83.807106,48281400
2016-09-26,87.419998,88.430000,86.610001,87.849998,83.893051,60276600
2016-09-27,88.059998,88.809998,87.660004,88.360001,84.380081,65150800
2016-09-28,88.980003,89.730003,88.470001,89.459999,85.430527,89806000
2016-09-29,89.160004,89.269997,87.540001,88.230003,84.255928,74587500
2016-09-30,88.300003,90.220001,88.290001,89.750000,85.707466,123735700
2016-10-03,89.349998,89.449997,88.410004,88.660004,84.666565,26789500
2016-10-04,88.290001,88.680000,87.949997,88.349998,84.370529,23317600
2016-10-05,88.480003,89.000000,88.209999,88.849998,84.848007,64580300
2016-10-06,88.610001,89.730003,88.470001,89.220001,85.201340,61462800
2016-10-07,89.010002,90.050003,88.300003,90.000000,85.946205,20518800
2016-10-10,90.190002,90.330002,88.779999,89.059998,85.048546,14155100
2016-10-11,88.830002,89.120003,88.199997,88.540001,84.551971,11723100
2016-10-12,88.739998,89.010002,88.330002,88.570000,84.580620,17118000
2016-10-13,88.050003,88.570000,87.599998,88.239998,84.265472,11158100
2016-10-14,88.500000,88.959999,88.220001,88.430000,84.446930,7369000
2016-10-17,88.430000,88.650002,87.709999,87.830002,83.873947,7610600
2016-10-18,88.209999,88.269997,87.440002,87.449997,83.511070,10649000
2016-10-19,86.650002,86.820000,85.440002,85.540001,82.317772,12788800
2016-10-20,85.379997,85.519997,84.790001,84.930000,81.730751,10175100
2016-10-21,84.410004,84.860001,84.239998,84.330002,81.153358,13974100
2016-10-24,84.389999,84.699997,84.059998,84.099998,80.932022,10573200
2016-10-25,87.489998,88.080002,86.970001,86.970001,83.693909,20761200
2016-10-26,86.910004,87.739998,86.779999,87.400002,84.107719,8464100
2016-10-27,87.510002,87.599998,86.449997,86.580002,83.318611,6598300
2016-10-28,86.870003,87.230003,86.449997,86.839996,83.568802,7021100
2016-10-31,87.010002,87.470001,86.690002,86.800003,83.530319,8207100
2016-11-01,86.580002,86.989998,86.480003,86.849998,83.578423,8564500
2016-11-02,86.769997,87.410004,86.559998,86.739998,83.472572,7773200
2016-11-03,86.800003,86.980003,86.470001,86.599998,83.337852,6899900
2016-11-04,86.690002,86.730003,85.070000,85.080002,81.875107,9378100
2016-11-07,86.019997,86.570000,85.599998,86.559998,83.299347,8878500
2016-11-08,86.769997,87.690002,86.589996,87.459999,84.165451,7657000
2016-11-09,85.260002,86.540001,84.309998,85.930000,82.693092,11972500
2016-11-10,85.510002,85.699997,82.180000,82.959999,79.834961,22095000
2016-11-11,82.669998,84.059998,82.650002,83.580002,80.431610,8905700
2016-11-14,83.559998,83.779999,82.760002,83.000000,79.873451,12294000
2016-11-15,84.580002,84.580002,82.879997,83.620003,80.470100,9464000
2016-11-16,83.980003,84.199997,83.169998,83.190002,80.056305,8532600
2016-11-17,83.269997,83.500000,82.930000,83.070000,79.940819,9083700
2016-11-18,82.919998,83.099998,81.989998,82.000000,78.911133,14565500
2016-11-21,82.000000,82.750000,81.709999,82.639999,79.527016,11482100
2016-11-22,83.010002,83.180000,82.660004,82.760002,79.642502,7426500
2016-11-23,82.589996,82.930000,82.519997,82.680000,79.565514,7693300
2016-11-25,82.989998,83.459999,82.949997,83.459999,80.316124,3882900
2016-11-28,83.129997,83.360001,82.760002,83.070000,79.940819,6990100
2016-11-29,83.419998,83.480003,82.690002,82.889999,79.767601,6183100
2016-11-30,82.519997,82.830002,82.260002,82.459999,79.353798,12115500
2016-12-01,82.209999,82.320000,81.180000,81.860001,78.776398,12516900
2016-12-02,82.349998,82.680000,82.070000,82.400002,79.296059,9079400
2016-12-05,82.559998,83.080002,82.480003,82.989998,79.863831,8597500
2016-12-06,83.239998,83.250000,82.610001,82.910004,79.786842,7327200
2016-12-07,82.739998,84.279999,82.709999,84.180000,81.009003,8567700
2016-12-08,83.790001,84.180000,83.500000,83.500000,80.354622,7522800
2016-12-09,83.519997,84.400002,83.470001,84.370003,81.191849,8004500
2016-12-12,84.209999,85.180000,84.209999,85.129997,81.923218,7494100
2016-12-13,84.669998,85.360001,84.529999,85.180000,81.971336,11795900
2016-12-14,85.290001,85.739998,84.169998,84.370003,81.191849,12292200
2016-12-15,84.150002,84.800003,83.610001,84.680000,81.490166,8768100
2016-12-16,84.900002,85.120003,84.150002,84.680000,81.490166,18095400
2016-12-19,84.750000,84.980003,84.320000,84.709999,81.519043,6431200
2016-12-20,84.570000,84.709999,84.190002,84.570000,81.384315,7485400
2016-12-21,84.190002,84.730003,84.120003,84.279999,81.105240,6099300
2016-12-22,84.000000,84.610001,83.870003,84.470001,81.288078,7864800
2016-12-23,84.680000,85.180000,84.550003,84.959999,81.759621,5271700
2016-12-27,84.900002,84.940002,84.419998,84.599998,81.413177,3782600
2016-12-28,84.400002,84.629997,83.949997,84.070000,80.903152,4298800
2016-12-29,84.239998,84.489998,84.099998,84.349998,81.172592,3684900
2016-12-30,84.169998,84.449997,83.919998,84.080002,80.912773,6209800
2017-01-03,83.879997,84.389999,83.500000,84.199997,81.028259,8792700
2017-01-04,84.449997,84.599998,84.239998,84.500000,81.316956,8096700
2017-01-05,84.410004,85.430000,84.379997,85.059998,81.855858,6852400
2017-01-06,84.940002,85.250000,84.620003,85.029999,81.826988,4799900
2017-01-09,84.059998,84.660004,83.750000,84.400002,81.220726,10981100
2017-01-10,84.339996,84.430000,83.239998,83.489998,80.344994,10918200
2017-01-11,83.389999,83.750000,83.279999,83.750000,80.595200,9572300
2017-01-12,83.709999,83.879997,83.370003,83.839996,80.681808,6545400
2017-01-13,83.849998,84.019997,83.440002,84.010002,80.845406,6762800
2017-01-17,83.900002,85.580002,83.879997,85.209999,82.000206,13097600
2017-01-18,84.800003,85.300003,84.589996,84.930000,82.378487,10520400
2017-01-19,84.629997,85.000000,84.279999,84.699997,82.155396,14074500
2017-01-20,86.889999,87.980003,86.419998,87.449997,84.822777,22944400
2017-01-23,87.089996,87.349998,86.849998,86.959999,84.347504,9408900
2017-01-24,87.220001,87.949997,87.220001,87.860001,85.220467,8704700
2017-01-25,87.839996,87.900002,87.059998,87.160004,84.541496,8082900
2017-01-26,87.120003,87.230003,86.589996,86.599998,83.998322,6542300
2017-01-27,86.449997,86.849998,86.019997,86.720001,84.114723,9332300
2017-01-30,86.779999,86.860001,86.500000,86.750000,84.143806,7350000
2017-01-31,86.629997,87.660004,86.529999,87.599998,84.968285,9712400
2017-02-01,87.029999,87.589996,86.750000,87.330002,84.706390,8291000
2017-02-02,87.610001,88.349998,87.250000,87.760002,85.123474,8997200
2017-02-03,88.120003,88.169998,87.389999,87.410004,84.783989,7161900
2017-02-06,87.500000,87.790001,87.129997,87.400002,84.774284,7483000
2017-02-07,87.639999,88.279999,87.480003,88.010002,85.365952,6646100
2017-02-08,88.070000,88.339996,87.809998,88.330002,85.676346,6815800
2017-02-09,88.330002,88.779999,88.029999,88.669998,86.006134,9914100
2017-02-10,88.559998,88.730003,87.970001,87.970001,85.327164,11057600
2017-02-13,88.040001,88.360001,87.639999,88.309998,85.656944,6905100
2017-02-14,88.000000,88.220001,87.230003,87.860001,85.220467,17199500
2017-02-15,89.809998,91.150002,89.809998,91.120003,88.382530,25847700
2017-02-16,90.919998,91.120003,90.540001,90.790001,88.062439,12408500
2017-02-17,90.610001,91.360001,90.449997,91.089996,88.353432,12152400
2017-02-21,90.580002,91.800003,90.580002,91.669998,88.916000,9018700
2017-02-22,91.449997,91.800003,91.250000,91.440002,88.692917,6749900
2017-02-23,91.610001,91.800003,90.910004,91.129997,88.392220,7611600
2017-02-24,90.970001,91.339996,90.669998,91.050003,88.314629,6643400
2017-02-27,90.529999,90.910004,90.059998,90.889999,88.159439,11840300
2017-02-28,90.900002,91.790001,90.650002,91.070000,88.334030,10535600
2017-03-01,91.050003,91.889999,90.709999,91.660004,88.906319,8792200
2017-03-02,91.400002,91.589996,90.879997,90.910004,88.178848,7031200
2017-03-03,90.910004,90.910004,89.889999,90.500000,87.781151,8334900
2017-03-06,89.889999,90.510002,89.589996,90.370003,87.655067,9533800
2017-03-07,90.139999,90.489998,90.059998,90.290001,87.577461,5363000
2017-03-08,90.019997,90.349998,89.760002,90.139999,87.431976,5503700
2017-03-09,90.139999,90.489998,90.099998,90.339996,87.625961,5587400
2017-03-10,90.800003,91.160004,90.650002,91.070000,88.334030,6797800
2017-03-13,91.059998,91.489998,90.849998,91.309998,88.566818,7397500
2017-03-14,91.260002,91.589996,90.820000,91.000000,88.266129,6686400
2017-03-15,91.000000,91.779999,90.730003,91.400002,88.654121,7855300
2017-03-16,91.440002,91.720001,91.099998,91.440002,88.692917,6601200
2017-03-17,91.449997,92.000000,90.919998,91.000000,88.266129,37010100
2017-03-20,90.959999,91.410004,90.940002,91.220001,88.479523,7772900
2017-03-21,91.300003,91.750000,91.029999,91.190002,88.450424,8211000
2017-03-22,91.309998,91.800003,90.750000,90.989998,88.256432,7798000
2017-03-23,90.910004,91.459999,90.599998,90.769997,88.043037,6831400
2017-03-24,90.769997,90.919998,90.209999,90.570000,87.849045,9252000
2017-03-27,90.449997,90.720001,90.180000,90.489998,87.771454,10072000
2017-03-28,90.169998,91.059998,90.129997,90.760002,88.033348,11855800
2017-03-29,90.559998,90.870003,90.389999,90.599998,87.878151,4252800
2017-03-30,90.500000,90.570000,90.099998,90.199997,87.490166,3691900
2017-03-31,90.029999,90.339996,89.839996,89.849998,87.150681,6942400
2017-04-03,89.860001,90.059998,89.449997,89.680000,86.985786,6967400
2017-04-04,89.750000,89.959999,89.419998,89.910004,87.208885,5680800
2017-04-05,90.000000,90.500000,89.760002,89.970001,87.267082,6320100
2017-04-06,89.769997,89.809998,89.309998,89.400002,86.714203,7231500
2017-04-07,89.459999,89.610001,89.180000,89.230003,86.549309,4739100
2017-04-10,89.129997,89.680000,88.750000,89.489998,86.801498,5956000
2017-04-11,89.660004,89.820000,89.290001,89.800003,87.102180,5186000
2017-04-12,89.699997,90.419998,89.559998,90.309998,87.596863,6286300
2017-04-13,90.050003,90.540001,89.790001,90.029999,87.325264,5040100
2017-04-17,90.230003,90.589996,90.129997,90.389999,87.674461,6931700
2017-04-18,90.400002,91.129997,90.339996,90.800003,88.072136,7087800
2017-04-19,90.099998,90.449997,89.500000,89.599998,87.573669,6919000
2017-04-20,89.699997,89.699997,89.309998,89.330002,87.309784,6983500
2017-04-21,89.169998,89.279999,88.610001,88.620003,86.615837,9061200
2017-04-24,89.120003,89.660004,89.010002,89.550003,87.524811,8338500
2017-04-25,89.580002,90.250000,89.470001,90.000000,87.964638,9088400
2017-04-26,89.849998,90.000000,87.610001,87.739998,85.755737,11951300
2017-04-27,87.580002,88.239998,87.230003,87.690002,85.706871,8517500
2017-04-28,87.519997,87.589996,87.150002,87.330002,85.355011,8245400
2017-05-01,87.379997,87.599998,87.080002,87.089996,85.120438,4546600
2017-05-02,87.290001,87.290001,86.019997,86.220001,84.270111,13197500
2017-05-03,86.300003,86.629997,85.900002,86.430000,84.475365,6122000
2017-05-04,86.849998,87.239998,86.300003,86.449997,84.494911,5986200
2017-05-05,86.540001,86.610001,86.129997,86.500000,84.543785,4506200
2017-05-08,86.330002,86.620003,86.239998,86.550003,84.592659,4634600
2017-05-09,86.800003,86.820000,86.220001,86.400002,84.446045,9577600
2017-05-10,86.480003,86.790001,86.389999,86.489998,84.534012,6178500
2017-05-11,86.610001,86.629997,85.879997,86.169998,84.221237,6064700
2017-05-12,86.239998,86.320000,85.919998,86.190002,84.240799,5892400
2017-05-15,86.650002,86.709999,86.250000,86.330002,84.377632,5820700
2017-05-16,86.879997,87.000000,86.190002,86.239998,84.289665,6554500
2017-05-17,86.239998,86.629997,85.930000,86.260002,84.309212,7805800
2017-05-18,86.180000,86.220001,85.519997,85.870003,83.928024,6985600
2017-05-19,86.000000,86.379997,85.669998,86.239998,84.289665,7320700
2017-05-22,86.250000,86.400002,86.029999,86.209999,84.260345,4260000
2017-05-23,86.279999,86.540001,85.980003,86.080002,84.133278,4394200
2017-05-24,86.449997,86.650002,86.209999,86.500000,84.543785,4878800
2017-05-25,86.580002,86.980003,86.550003,86.860001,84.895638,4368000
2017-05-26,86.930000,87.379997,86.820000,87.250000,85.276817,4337000
2017-05-30,87.250000,87.610001,87.099998,87.400002,85.423431,4594500
2017-05-31,87.669998,88.349998,87.449997,88.089996,86.097816,10146600
2017-06-01,88.019997,88.139999,87.370003,88.129997,86.136917,6251300
2017-06-02,88.400002,88.680000,88.010002,88.589996,86.586510,6136400
2017-06-05,88.300003,88.760002,88.000000,88.739998,86.733116,4115300
2017-06-06,88.760002,88.970001,88.449997,88.800003,86.791771,6503000
2017-06-07,88.680000,88.889999,88.400002,88.769997,86.762444,4781600
2017-06-08,88.769997,88.800003,87.360001,87.849998,85.863243,7611400
2017-06-09,87.849998,88.209999,87.550003,88.160004,86.166245,9696900
2017-06-12,88.160004,88.660004,88.089996,88.239998,86.244431,7867700
2017-06-13,88.360001,88.400002,87.769997,88.059998,86.068497,6419300
2017-06-14,88.489998,88.750000,88.059998,88.440002,86.439911,6183900
2017-06-15,88.230003,89.620003,88.230003,89.379997,87.358643,7047500
2017-06-16,89.720001,89.769997,88.809998,89.660004,87.632317,13855000
2017-06-19,89.599998,89.860001,89.199997,89.860001,87.827789,5246200
2017-06-20,89.769997,90.209999,89.610001,89.629997,87.602989,5674200
2017-06-21,89.620003,89.949997,89.290001,89.400002,87.378204,4164500
2017-06-22,89.269997,89.410004,88.900002,89.029999,87.016563,4536700
2017-06-23,89.029999,89.800003,88.900002,89.419998,87.397743,8782100
2017-06-26,89.629997,89.680000,89.269997,89.360001,87.339111,4373300
2017-06-27,89.360001,89.360001,88.610001,88.610001,86.606064,5180400
2017-06-28,89.080002,89.209999,88.260002,88.370003,86.371498,4875000
2017-06-29,88.019997,88.220001,86.930000,86.989998,85.022697,8123500
2017-06-30,87.050003,87.470001,87.000000,87.150002,85.179077,6070300
2017-07-03,87.400002,88.000000,87.180000,87.739998,85.755737,3607400
2017-07-05,87.860001,88.000000,87.489998,87.669998,85.687317,4974300
2017-07-06,87.650002,87.949997,87.360001,87.370003,85.394112,6038900
2017-07-07,87.690002,87.820000,87.279999,87.650002,85.667778,5142200
2017-07-10,87.629997,87.870003,86.889999,87.089996,85.120438,5356400
2017-07-11,87.230003,87.449997,86.309998,86.769997,84.807671,5838600
2017-07-12,87.239998,87.470001,86.830002,86.959999,84.993378,4374200
2017-07-13,86.769997,87.050003,86.500000,86.699997,84.739258,5448900
2017-07-14,86.959999,87.290001,86.730003,87.099998,85.130211,4577700
2017-07-17,87.070000,87.910004,86.739998,87.550003,85.570030,5227800
2017-07-18,87.610001,88.760002,87.459999,88.639999,86.635384,7492300
2017-07-19,87.870003,88.410004,87.599998,88.349998,87.029404,6008500
2017-07-20,88.320000,89.309998,88.309998,88.599998,87.275665,7285000
2017-07-21,88.160004,88.680000,87.809998,88.610001,87.285522,5714800
2017-07-24,88.550003,88.599998,87.970001,88.180000,86.861946,6202000
2017-07-25,88.669998,89.199997,88.540001,89.139999,87.807602,6766700
2017-07-26,89.000000,89.419998,88.870003,89.300003,87.965210,6987000
2017-07-27,90.290001,90.750000,89.000000,90.680000,89.324585,11089200
2017-07-28,90.559998,91.000000,89.959999,90.209999,88.861603,6137500
2017-07-31,90.209999,91.070000,90.209999,90.820000,89.462486,7835700
2017-08-01,91.029999,91.730003,90.720001,91.099998,89.738297,8662100
2017-08-02,90.970001,91.300003,90.529999,91.040001,89.679199,7167700
2017-08-03,90.860001,91.750000,90.820000,90.860001,89.501892,6413200
2017-08-04,90.690002,91.080002,90.529999,90.669998,89.314728,5824400
2017-08-07,90.669998,91.559998,90.519997,91.440002,90.073227,5011300
2017-08-08,91.400002,91.940002,91.230003,91.580002,90.211128,5623400
2017-08-09,91.519997,91.940002,91.519997,91.919998,90.546043,5572800
2017-08-10,91.860001,92.000000,91.690002,91.739998,90.368729,6338200
2017-08-11,91.940002,92.080002,91.290001,91.339996,89.974709,7094200
2017-08-14,91.540001,91.949997,91.250000,91.650002,90.280083,5339900
2017-08-15,91.910004,92.360001,91.879997,92.199997,90.821861,5293400
2017-08-16,92.290001,92.949997,92.190002,92.440002,91.058273,7965500
2017-08-17,92.400002,92.669998,92.070000,92.070000,90.693810,5711400
2017-08-18,91.980003,92.779999,91.849998,92.470001,91.087830,6815000
2017-08-21,92.379997,92.959999,92.360001,92.860001,91.471992,4334300
2017-08-22,92.910004,92.959999,92.589996,92.790001,91.403046,4731500
2017-08-23,92.500000,92.660004,92.279999,92.440002,91.058273,3631900
2017-08-24,92.440002,92.570000,92.040001,92.269997,90.890816,5173700
2017-08-25,92.650002,92.860001,92.410004,92.510002,91.127228,4933000
2017-08-28,92.519997,92.709999,91.980003,92.470001,91.087830,5386500
2017-08-29,92.480003,92.690002,92.239998,92.320000,90.940071,3676300
2017-08-30,92.080002,92.080002,91.660004,91.870003,90.496796,4709600
2017-08-31,91.889999,92.389999,91.839996,92.269997,90.890816,5864400
2017-09-01,92.419998,92.660004,92.260002,92.529999,91.146927,4960700
2017-09-05,92.180000,92.739998,92.040001,92.720001,91.334091,6532100
2017-09-06,92.790001,92.910004,92.360001,92.720001,91.334091,6747200
2017-09-07,92.739998,93.360001,92.330002,92.970001,91.580353,7735400
2017-09-08,92.760002,93.150002,92.510002,92.839996,91.452293,6070100
2017-09-11,93.089996,94.190002,92.900002,93.989998,92.585106,10177300
2017-09-12,93.720001,93.980003,93.209999,93.510002,92.112282,5804000
2017-09-13,93.500000,93.769997,93.449997,93.550003,92.151688,5369300
2017-09-14,93.230003,93.650002,93.180000,93.550003,92.151688,5492300
2017-09-15,93.820000,93.820000,92.820000,93.269997,91.875862,12428800
2017-09-18,93.169998,93.500000,92.860001,93.150002,91.757668,6177700
2017-09-19,93.339996,94.449997,93.339996,94.169998,92.762413,6587200
2017-09-20,94.169998,94.669998,93.830002,94.400002,92.988976,5941500
2017-09-21,94.150002,94.500000,92.449997,92.639999,91.255287,9376700
2017-09-22,92.550003,93.000000,92.080002,92.239998,90.861259,6837700
2017-09-25,92.430000,93.089996,92.330002,92.720001,91.334091,6436200
2017-09-26,92.820000,92.849998,92.199997,92.650002,91.265137,4885200
2017-09-27,92.519997,92.519997,90.339996,90.870003,89.511742,9631200
2017-09-28,90.860001,91.120003,90.629997,90.889999,89.531441,4999800
2017-09-29,90.970001,91.430000,90.699997,90.980003,89.620094,6634500
2017-10-02,91.260002,92.400002,91.239998,91.769997,90.398285,7302400
2017-10-03,91.959999,92.339996,91.559998,92.120003,90.743057,5909900
2017-10-04,92.120003,92.800003,92.019997,92.419998,91.038567,6140700
2017-10-05,92.489998,92.650002,91.940002,92.029999,90.654404,6912800
2017-10-06,92.000000,92.349998,91.879997,92.330002,90.949921,5241900
2017-10-09,92.400002,92.620003,91.930000,92.120003,90.743057,5149000
2017-10-10,92.370003,93.040001,89.860001,91.620003,90.250534,17125600
2017-10-11,91.089996,91.730003,91.070000,91.459999,90.092918,7115400
2017-10-12,91.410004,92.309998,91.389999,92.150002,90.772614,5984900
2017-10-13,92.699997,93.510002,92.589996,93.040001,91.649307,6956700
2017-10-16,92.970001,93.370003,92.709999,93.139999,91.747803,4159100
2017-10-17,93.040001,93.089996,92.400002,92.800003,91.412895,5316100
2017-10-18,92.779999,92.949997,92.010002,92.769997,91.383339,7399700
2017-10-19,91.699997,91.989998,91.139999,91.589996,90.897041,8585000
2017-10-20,89.720001,89.959999,87.589996,88.250000,87.582321,19997800
2017-10-23,88.629997,88.860001,86.870003,87.300003,86.639511,13358200
2017-10-24,87.370003,87.419998,86.779999,86.980003,86.321930,11519000
2017-10-25,86.900002,87.110001,86.279999,86.860001,86.202835,9024300
2017-10-26,87.190002,87.769997,87.099998,87.500000,86.837990,6233800
2017-10-27,87.529999,87.529999,86.449997,87.040001,86.381477,7433800
2017-10-30,86.910004,87.080002,86.160004,86.269997,85.617294,5387100
2017-10-31,86.489998,86.500000,85.720001,86.339996,85.686768,7119000
2017-11-01,86.330002,87.139999,86.110001,86.889999,86.232605,4884100
2017-11-02,86.779999,87.040001,86.230003,86.510002,85.855484,5021200
2017-11-03,86.779999,87.160004,86.459999,86.580002,85.924957,5106500
2017-11-06,86.550003,86.639999,86.029999,86.050003,85.398964,5186700
2017-11-07,86.040001,87.000000,85.419998,86.980003,86.321930,6875100
2017-11-08,86.989998,87.599998,86.800003,87.580002,86.917389,6910000
2017-11-09,87.349998,88.169998,87.300003,87.779999,87.115875,5280000
2017-11-10,87.989998,88.389999,87.779999,88.160004,87.493004,7227300
2017-11-13,88.669998,89.410004,88.629997,89.000000,88.326645,6873500
2017-11-14,88.739998,89.050003,88.470001,88.870003,88.197632,5035500
2017-11-15,88.730003,88.940002,88.000000,88.230003,87.562469,6688100
2017-11-16,89.839996,89.900002,88.769997,89.250000,88.574753,7205100
2017-11-17,88.949997,89.089996,88.080002,88.430000,87.760956,5941800
2017-11-20,88.430000,88.559998,87.709999,88.269997,87.602165,4926200
2017-11-21,88.180000,89.209999,88.019997,88.720001,88.048767,6196400
2017-11-22,88.500000,88.910004,88.059998,88.330002,87.661713,6006900
2017-11-24,88.589996,88.959999,88.419998,88.449997,87.780800,2196700
2017-11-27,88.330002,89.099998,88.150002,88.959999,88.286949,6199700
2017-11-28,89.480003,89.519997,88.910004,89.400002,88.723618,4841300
2017-11-29,89.400002,89.809998,89.029999,89.379997,88.703766,5158900
2017-11-30,89.349998,90.370003,89.209999,89.989998,89.309151,9789900
2017-12-01,90.180000,90.529999,89.120003,90.360001,89.676353,7953200
2017-12-04,91.760002,91.910004,89.830002,91.410004,90.718414,9003700
2017-12-05,91.519997,91.839996,91.070000,91.400002,90.708488,8683000
2017-12-06,91.389999,91.779999,91.070000,91.250000,90.559624,6737400
2017-12-07,91.050003,91.070000,89.889999,90.099998,89.418320,7273600
2017-12-08,90.019997,90.370003,89.580002,90.370003,89.686279,5883400
2017-12-11,90.230003,90.330002,89.750000,90.230003,89.547340,4856000
2017-12-12,90.449997,90.510002,89.820000,89.849998,89.170212,6558900
2017-12-13,90.019997,91.410004,89.970001,90.879997,90.192421,7141000
2017-12-14,90.940002,91.430000,90.900002,91.000000,90.311516,5853500
2017-12-15,91.570000,92.269997,91.480003,91.889999,91.194778,15924000
2017-12-18,91.980003,93.139999,91.809998,91.879997,91.184853,7405700
2017-12-19,92.000000,92.129997,91.580002,91.680000,90.986366,5644400
2017-12-20,91.800003,91.970001,91.349998,91.529999,90.837502,6938500
2017-12-21,91.660004,92.080002,91.529999,91.669998,90.976440,4860400
2017-12-22,91.879997,92.430000,91.720001,92.129997,91.432961,4919400
2017-12-26,92.349998,92.769997,92.150002,92.480003,91.780319,3431900
2017-12-27,92.489998,92.750000,91.930000,92.099998,91.403191,4276700
2017-12-28,92.300003,92.540001,91.910004,92.070000,91.373413,3005400
2017-12-29,92.239998,92.459999,91.879997,91.879997,91.184853,4346700
2018-01-02,91.919998,91.930000,90.550003,90.650002,89.964165,7558900
2018-01-03,90.730003,91.089996,90.519997,90.540001,89.854996,5863600
2018-01-04,90.830002,91.769997,90.610001,91.180000,90.490150,6322500
2018-01-05,91.269997,91.300003,90.570000,91.239998,90.549698,5949700
2018-01-08,90.930000,91.769997,90.930000,91.720001,91.026070,4860700
2018-01-09,91.470001,91.650002,91.010002,91.050003,90.361137,6630100
2018-01-10,90.910004,90.910004,90.010002,90.470001,89.785522,6564700
2018-01-11,90.400002,90.519997,89.919998,90.150002,89.467941,5469700
2018-01-12,90.050003,90.339996,89.349998,89.610001,88.932030,8111000
2018-01-16,90.139999,90.769997,89.639999,90.220001,89.537415,9465300
2018-01-17,90.559998,91.730003,90.430000,91.199997,90.509995,8345500
2018-01-18,90.239998,90.650002,89.669998,90.180000,90.180000,7699800
2018-01-19,90.279999,91.260002,90.239998,91.070000,91.070000,9364000
2018-01-22,90.879997,91.919998,90.769997,91.889999,91.889999,8658000
2018-01-23,89.820000,90.209999,88.599998,89.050003,89.050003,18756300
2018-01-24,89.059998,89.160004,87.699997,88.309998,88.309998,15141900
2018-01-25,88.680000,89.050003,88.010002,88.339996,88.339996,11264400
2018-01-26,88.169998,88.169998,87.230003,87.730003,87.730003,11503100
2018-01-29,87.690002,87.739998,86.690002,86.860001,86.860001,11685800
2018-01-30,86.820000,87.440002,86.629997,86.949997,86.949997,9662900
2018-01-31,86.809998,87.410004,86.080002,86.339996,86.339996,11798100
2018-02-01,86.150002,86.500000,85.559998,85.849998,85.849998,8606300
2018-02-02,85.559998,85.610001,84.209999,84.250000,84.250000,12846300
2018-02-05,83.989998,84.370003,80.099998,81.059998,81.059998,17462200
2018-02-06,80.529999,82.449997,80.120003,82.379997,82.379997,19955500
2018-02-07,82.300003,83.389999,81.820000,81.839996,81.839996,11851800
2018-02-08,82.029999,82.220001,80.150002,80.220001,80.220001,14596100
2018-02-09,80.980003,81.029999,78.589996,79.919998,79.919998,18838800
2018-02-12,80.610001,81.669998,80.580002,81.330002,81.330002,10769000
2018-02-13,81.150002,81.830002,80.910004,81.500000,81.500000,9278700
2018-02-14,81.059998,81.260002,80.269997,80.680000,80.680000,9412000
2018-02-15,80.970001,82.410004,80.500000,82.410004,82.410004,8910700
2018-02-16,82.209999,83.250000,82.129997,82.599998,82.599998,10371700
2018-02-20,82.190002,82.220001,81.070000,81.339996,81.339996,7087700
2018-02-21,81.309998,81.809998,80.190002,80.239998,80.239998,9134500
2018-02-22,80.470001,81.279999,80.169998,80.839996,80.839996,10277700
2018-02-23,81.010002,81.120003,80.480003,81.050003,81.050003,10321800
2018-02-26,81.449997,81.690002,81.050003,81.629997,81.629997,9422200
2018-02-27,81.889999,82.000000,80.510002,80.540001,80.540001,8919600
2018-02-28,80.680000,80.790001,78.500000,78.519997,78.519997,16862000
2018-03-01,78.400002,79.279999,77.900002,78.699997,78.699997,13504200
2018-03-02,78.480003,79.660004,78.419998,79.500000,79.500000,9317700
2018-03-05,79.279999,80.389999,79.150002,80.290001,80.290001,8177000
2018-03-06,80.410004,80.419998,79.370003,80.019997,80.019997,9085300
2018-03-07,79.529999,79.639999,78.900002,79.160004,79.160004,9089500
2018-03-08,79.169998,79.989998,79.019997,79.970001,79.970001,7951700
2018-03-09,80.180000,80.750000,79.900002,80.290001,80.290001,6973000
