Date,Open,High,Low,Close,Adj Close,Volume
2013-03-13,73.889999,74.199997,73.540001,73.650002,64.665520,5326100
2013-03-14,73.870003,74.000000,73.129997,73.220001,64.287971,6353200
2013-03-15,73.010002,73.500000,72.430000,72.500000,63.655804,17195100
2013-03-18,72.290001,72.730003,72.010002,72.250000,63.436291,5771000
2013-03-19,72.419998,72.870003,72.190002,72.449997,63.611889,5752800
2013-03-20,72.809998,73.379997,72.739998,72.989998,64.086021,6320300
2013-03-21,72.870003,73.470001,72.849998,73.129997,64.208931,5506700
2013-03-22,73.349998,74.290001,73.290001,74.279999,65.218651,7323800
2013-03-25,74.139999,75.110001,74.120003,74.849998,65.719116,10438700
2013-03-26,74.930000,75.089996,74.430000,74.769997,65.648872,6642400
2013-03-27,74.309998,74.959999,74.239998,74.779999,65.657654,5970300
2013-03-28,74.839996,74.970001,74.379997,74.830002,65.701553,7368300
2013-04-01,75.000000,75.930000,74.900002,75.430000,66.228355,8415400
2013-04-02,75.550003,76.050003,75.419998,76.019997,66.746384,6642800
2013-04-03,76.309998,76.680000,75.720001,76.000000,66.728828,7453900
2013-04-04,75.959999,76.580002,75.959999,76.199997,66.904427,7508200
2013-04-05,75.550003,76.410004,75.430000,76.389999,67.071259,5880300
2013-04-08,76.099998,77.449997,75.830002,77.290001,67.861473,8075100
2013-04-09,77.239998,78.459999,77.019997,78.120003,68.590225,8669900
2013-04-10,78.279999,78.379997,77.370003,77.370003,67.931732,8599000
2013-04-11,77.360001,78.370003,77.269997,77.790001,68.300468,7129100
2013-04-12,77.629997,78.849998,77.580002,78.559998,68.976540,6336800
2013-04-15,78.440002,79.279999,78.430000,78.470001,68.897530,8545500
2013-04-16,78.230003,78.860001,78.029999,78.680000,69.081909,6854400
2013-04-17,78.529999,79.070000,78.110001,78.510002,68.932632,7248600
2013-04-18,78.760002,79.050003,76.610001,77.160004,67.747337,14218900
2013-04-19,77.500000,78.440002,77.400002,78.290001,68.739471,7840500
2013-04-22,78.290001,78.440002,77.500000,77.970001,68.458527,5154900
2013-04-23,78.110001,79.220001,78.050003,79.089996,69.441895,6653600
2013-04-24,79.230003,79.500000,77.919998,78.029999,68.511177,8083600
2013-04-25,78.180000,78.830002,77.879997,78.650002,69.055580,5729100
2013-04-26,78.580002,79.150002,78.570000,79.040001,69.397980,5923600
2013-04-29,79.080002,79.250000,78.150002,78.389999,68.827278,6156800
2013-04-30,78.279999,78.300003,77.370003,77.720001,68.239021,7965800
2013-05-01,77.849998,78.660004,77.690002,78.059998,68.537537,6260300
2013-05-02,77.910004,78.489998,77.800003,78.459999,68.888725,4519600
2013-05-03,78.919998,79.339996,78.900002,79.250000,69.582367,5604100
2013-05-06,79.099998,79.160004,78.769997,78.830002,69.213608,4805700
2013-05-07,79.099998,79.139999,78.769997,78.830002,69.213608,6571100
2013-05-08,78.559998,78.660004,77.779999,78.250000,69.116455,8008500
2013-05-09,78.309998,78.959999,77.900002,78.400002,69.248947,6516800
2013-05-10,78.470001,78.910004,78.279999,78.889999,69.681747,5831200
2013-05-13,78.800003,78.940002,77.919998,78.500000,69.337273,7713900
2013-05-14,77.980003,78.860001,77.669998,78.779999,69.584587,10013700
2013-05-15,78.800003,79.959999,78.650002,79.860001,70.538536,8001100
2013-05-16,78.099998,78.860001,77.339996,78.500000,69.337273,12128600
2013-05-17,78.300003,78.589996,77.400002,77.870003,68.780807,10669300
2013-05-20,77.879997,77.900002,77.360001,77.400002,68.365669,5582600
2013-05-21,77.620003,78.180000,77.250000,77.389999,68.356812,7484300
2013-05-22,77.190002,77.800003,76.750000,77.029999,68.038849,9031300
2013-05-23,76.830002,76.940002,76.250000,76.330002,67.420555,8048200
2013-05-24,76.320000,77.410004,76.150002,77.309998,68.286156,7589600
2013-05-28,77.519997,78.040001,77.059998,77.320000,68.294998,6059200
2013-05-29,77.050003,77.050003,76.059998,76.230003,67.332230,5882300
2013-05-30,76.489998,76.540001,75.610001,75.629997,66.802246,6228000
2013-05-31,75.360001,75.629997,74.820000,74.839996,66.104462,9745700
2013-06-03,75.059998,75.800003,74.639999,75.690002,66.855263,8440500
2013-06-04,75.769997,76.379997,75.470001,75.940002,67.076065,9344000
2013-06-05,75.720001,75.949997,75.070000,75.250000,66.466621,6778600
2013-06-06,75.269997,75.739998,74.839996,75.629997,66.802246,9425100
2013-06-07,76.379997,76.870003,76.190002,76.330002,67.420555,8347200
2013-06-10,76.279999,76.650002,75.660004,75.750000,66.908257,6731500
2013-06-11,75.419998,75.830002,74.989998,75.250000,66.466621,6006400
2013-06-12,75.470001,75.709999,74.650002,74.839996,66.104462,4731100
2013-06-13,74.779999,75.330002,74.559998,75.000000,66.245796,7239500
2013-06-14,74.839996,75.269997,74.800003,74.870003,66.130981,6351500
2013-06-17,75.000000,75.449997,74.510002,74.949997,66.201630,6480600
2013-06-18,75.000000,75.879997,74.800003,75.730003,66.890602,6739700
2013-06-19,75.739998,75.959999,74.339996,74.459999,65.768822,8329100
2013-06-20,74.500000,74.660004,73.010002,73.029999,64.505722,9069700
2013-06-21,73.519997,74.199997,73.250000,73.510002,64.929718,14564500
2013-06-24,73.050003,74.790001,72.900002,74.199997,65.539177,9697300
2013-06-25,74.269997,74.750000,73.839996,74.370003,65.689331,7217800
2013-06-26,74.620003,75.180000,74.540001,75.010002,66.254616,5478400
2013-06-27,75.480003,76.110001,75.239998,75.260002,66.475441,7087800
2013-06-28,75.110001,75.660004,74.449997,74.489998,65.795319,14548300
2013-07-01,74.989998,75.279999,74.099998,74.589996,65.883652,6697700
2013-07-02,74.309998,75.680000,74.209999,74.709999,65.989655,6726400
2013-07-03,74.410004,75.120003,74.089996,74.760002,66.033813,2316400
2013-07-05,75.150002,75.260002,74.410004,75.209999,66.431290,5443900
2013-07-08,75.680000,76.769997,75.680000,76.709999,67.756187,6713400
2013-07-09,76.959999,77.440002,76.739998,77.029999,68.038849,5273100
2013-07-10,76.959999,77.500000,76.449997,76.769997,67.809196,5144300
2013-07-11,77.449997,77.750000,77.330002,77.629997,68.568794,4680700
2013-07-12,77.610001,77.669998,77.330002,77.629997,68.568794,4457700
2013-07-15,77.300003,77.300003,76.699997,77.029999,68.038849,4887200
2013-07-16,76.980003,77.449997,76.900002,77.370003,68.339157,4707600
2013-07-17,77.620003,77.790001,77.089996,77.199997,68.188995,5351300
2013-07-18,77.220001,77.550003,77.010002,77.339996,68.312653,4149900
2013-07-19,77.449997,78.169998,77.339996,78.080002,68.966301,6825900
2013-07-22,77.889999,78.250000,77.730003,77.870003,68.780807,4158200
2013-07-23,77.959999,78.629997,77.800003,78.550003,69.381424,5252900
2013-07-24,78.680000,78.690002,77.720001,78.230003,69.098801,4930000
2013-07-25,78.050003,78.459999,77.629997,78.010002,68.904465,5920200
2013-07-26,77.930000,78.029999,77.099998,78.000000,68.895630,5349100
2013-07-29,77.830002,78.250000,77.779999,77.989998,68.886795,3465000
2013-07-30,78.209999,78.360001,77.690002,77.889999,68.798470,4533700
2013-07-31,77.919998,78.480003,77.730003,77.940002,68.842628,6040800
2013-08-01,78.419998,78.669998,78.110001,78.220001,69.089935,5168700
2013-08-02,78.250000,78.750000,78.000000,78.750000,69.558090,6123900
2013-08-05,78.620003,79.000000,78.430000,78.769997,69.575722,3906100
2013-08-06,78.559998,78.570000,77.559998,77.870003,68.780807,6700900
2013-08-07,77.160004,77.629997,76.620003,77.370003,68.754143,5819700
2013-08-08,77.510002,77.889999,76.930000,77.250000,68.647514,4474700
2013-08-09,77.209999,77.320000,76.769997,76.900002,68.336472,5764600
2013-08-12,76.559998,77.389999,76.489998,77.080002,68.496429,5787000
2013-08-13,77.169998,77.250000,76.220001,76.860001,68.300934,6381000
2013-08-14,76.809998,77.220001,76.230003,76.400002,67.892159,6820100
2013-08-15,74.459999,75.080002,74.029999,74.410004,66.123764,13221500
2013-08-16,74.120003,74.500000,73.699997,74.110001,65.857162,7254500
2013-08-19,73.879997,73.930000,73.209999,73.580002,65.386200,5364900
2013-08-20,73.550003,73.620003,73.199997,73.230003,65.075165,6663100
2013-08-21,73.160004,74.129997,72.930000,73.550003,65.359535,8077900
2013-08-22,73.809998,74.029999,73.239998,73.459999,65.279564,3947400
2013-08-23,73.650002,73.750000,73.029999,73.440002,65.261795,5474100
2013-08-26,73.639999,73.750000,73.029999,73.029999,64.897438,5348200
2013-08-27,72.680000,73.110001,72.510002,72.860001,64.746376,5787600
2013-08-28,72.660004,72.860001,72.269997,72.379997,64.319809,5608600
2013-08-29,72.349998,72.879997,72.230003,72.430000,64.364258,4088200
2013-08-30,72.639999,73.070000,72.580002,72.980003,64.853004,6066200
2013-09-03,73.480003,73.580002,72.540001,72.680000,64.586411,7157000
2013-09-04,72.699997,73.120003,72.449997,72.910004,64.790817,4667500
2013-09-05,72.839996,73.480003,72.620003,72.669998,64.577507,4680500
2013-09-06,72.699997,73.160004,72.190002,72.589996,64.506439,5790200
2013-09-09,72.849998,73.650002,72.699997,73.510002,65.323982,5523000
2013-09-10,73.660004,74.209999,73.570000,73.959999,65.723869,6845300
2013-09-11,74.000000,74.239998,73.660004,74.050003,65.803856,5335800
2013-09-12,74.180000,74.519997,73.769997,73.910004,65.679443,5261800
2013-09-13,74.129997,74.400002,73.980003,74.360001,66.079338,4020400
2013-09-16,74.900002,75.190002,74.690002,74.779999,66.452560,4200600
2013-09-17,74.839996,75.470001,74.790001,75.150002,66.781342,4291800
2013-09-18,75.160004,76.529999,74.900002,76.419998,67.909920,6881700
2013-09-19,76.500000,76.529999,75.620003,76.209999,67.723328,7109500
2013-09-20,76.320000,76.449997,75.830002,75.830002,67.385628,8847600
2013-09-23,75.389999,76.430000,75.199997,76.419998,67.909920,5604700
2013-09-24,76.400002,76.730003,75.690002,75.750000,67.314522,6874800
2013-09-25,75.910004,75.940002,73.559998,74.650002,66.337036,14972300
2013-09-26,74.779999,74.980003,74.220001,74.620003,66.310379,5078100
2013-09-27,74.379997,74.459999,74.070000,74.360001,66.079338,4214600
2013-09-30,74.279999,74.599998,73.739998,73.959999,65.723869,6752500
2013-10-01,73.870003,73.889999,73.320000,73.589996,65.395073,5675500
2013-10-02,73.389999,73.720001,73.040001,73.720001,65.510612,7376100
2013-10-03,73.529999,73.529999,72.949997,73.160004,65.012962,7179600
2013-10-04,73.010002,73.379997,72.790001,72.800003,64.693054,5747700
2013-10-07,72.419998,72.419998,71.510002,71.870003,63.866623,6886400
2013-10-08,71.849998,73.190002,71.800003,72.900002,64.781929,9224200
2013-10-09,72.830002,73.339996,72.570000,73.000000,64.870773,6467400
2013-10-10,73.480003,74.870003,73.269997,74.790001,66.461449,7680200
2013-10-11,74.610001,74.830002,73.830002,74.820000,66.488098,6529200
2013-10-14,74.339996,74.709999,73.750000,74.680000,66.363693,5904000
2013-10-15,74.430000,75.370003,73.989998,74.370003,66.088234,8993300
2013-10-16,74.809998,75.620003,74.570000,75.599998,67.181229,5914500
2013-10-17,75.489998,76.120003,71.690002,75.779999,67.341202,6395100
2013-10-18,75.800003,75.930000,75.480003,75.709999,67.278992,6788500
2013-10-21,75.720001,75.820000,74.820000,75.150002,66.781342,5364100
2013-10-22,75.430000,76.489998,75.209999,76.320000,67.821068,6948500
2013-10-23,76.180000,76.349998,75.809998,75.900002,67.447845,5870100
2013-10-24,76.029999,76.510002,75.820000,76.419998,67.909920,5864300
2013-10-25,76.370003,76.760002,75.779999,76.080002,67.607773,6458800
2013-10-28,76.160004,77.209999,76.050003,77.139999,68.549759,7032400
2013-10-29,77.250000,77.629997,76.750000,77.059998,68.478653,7437600
2013-10-30,77.269997,77.529999,76.559998,76.910004,68.345367,4646000
2013-10-31,76.879997,77.150002,76.599998,76.750000,68.203178,4612400
2013-11-01,76.970001,77.400002,76.589996,77.070000,68.487541,5116100
2013-11-04,77.220001,77.650002,77.199997,77.330002,68.718582,4704100
2013-11-05,76.809998,77.610001,76.720001,77.419998,68.798561,5085500
2013-11-06,77.639999,78.279999,77.300003,78.160004,69.456177,4829200
2013-11-07,78.190002,78.220001,77.239998,77.510002,68.878555,8347600
2013-11-08,77.489998,77.959999,76.790001,77.959999,69.278435,5793800
2013-11-11,77.860001,79.070000,77.790001,79.010002,70.211517,7450500
2013-11-12,78.849998,78.970001,78.250000,78.709999,69.944923,5266100
2013-11-13,78.419998,78.989998,78.349998,78.900002,70.113770,8286700
2013-11-14,77.750000,79.529999,77.680000,79.080002,70.273720,9302100
2013-11-15,78.930000,79.290001,78.750000,79.220001,70.398125,5911100
2013-11-18,79.230003,79.320000,78.910004,79.220001,70.398125,5962700
2013-11-19,79.300003,79.349998,78.879997,79.250000,70.424782,4455000
2013-11-20,79.309998,79.389999,78.489998,78.900002,70.113770,4511300
2013-11-21,78.739998,79.199997,78.550003,78.860001,70.078224,3841000
2013-11-22,78.870003,79.870003,78.750000,79.809998,70.922424,4812100
2013-11-25,80.059998,80.570000,79.910004,80.430000,71.473389,5670400
2013-11-26,80.440002,80.680000,80.110001,80.680000,71.695549,5537800
2013-11-27,80.550003,81.000000,80.379997,80.930000,71.917709,4813300
2013-11-29,81.169998,81.349998,80.820000,81.010002,71.988792,3447200
2013-12-02,80.889999,81.279999,80.370003,81.110001,72.077652,6178400
2013-12-03,81.209999,81.330002,80.699997,81.209999,72.166527,7506400
2013-12-04,80.639999,81.370003,79.910004,80.220001,71.701736,7641200
2013-12-05,79.720001,79.769997,78.870003,79.440002,71.004570,6450000
2013-12-06,79.709999,80.230003,79.639999,79.940002,71.451469,5088100
2013-12-09,80.239998,80.430000,79.699997,79.949997,71.460403,4491600
2013-12-10,79.720001,79.800003,79.050003,79.080002,70.682793,6285700
2013-12-11,79.099998,79.720001,79.050003,79.089996,70.691727,5998800
2013-12-12,79.110001,79.260002,78.400002,78.500000,70.164352,5691600
2013-12-13,78.730003,78.769997,77.930000,78.080002,69.788986,4981200
2013-12-16,78.250000,78.500000,77.599998,77.739998,69.485085,6146900
2013-12-17,77.739998,77.889999,77.220001,77.250000,69.047104,5765400
2013-12-18,77.279999,77.980003,76.809998,77.940002,69.663841,10633700
2013-12-19,77.669998,77.830002,77.199997,77.239998,69.038170,5955400
2013-12-20,77.279999,77.879997,77.250000,77.430000,69.208000,9568800
2013-12-23,77.730003,77.989998,77.370003,77.870003,69.601280,4491900
2013-12-24,77.949997,78.239998,77.629997,78.010002,69.726410,2094900
2013-12-26,78.059998,78.519997,77.970001,78.389999,70.066032,2778200
2013-12-27,78.599998,78.930000,78.300003,78.470001,70.137550,3050000
2013-12-30,78.610001,78.879997,78.430000,78.629997,70.280579,3086500
2013-12-31,78.660004,78.870003,78.349998,78.690002,70.334198,3859100
2014-01-02,78.720001,79.470001,78.500000,78.910004,70.530853,6878000
2014-01-03,78.809998,79.129997,78.519997,78.650002,70.298470,4957400
2014-01-06,78.860001,78.910004,77.790001,78.209999,69.905174,7280200
2014-01-07,78.169998,78.849998,77.919998,78.449997,70.119682,5012300
2014-01-08,78.500000,78.510002,77.599998,77.830002,69.565521,5955200
2014-01-09,78.389999,78.400002,77.489998,78.089996,69.797905,5916300
2014-01-10,78.309998,78.720001,77.540001,78.040001,69.753235,5181300
2014-01-13,77.599998,77.970001,77.239998,77.489998,69.261620,6157900
2014-01-14,77.459999,78.000000,77.379997,77.959999,69.681732,4088200
2014-01-15,77.959999,78.099998,77.570000,77.660004,69.413574,4992400
2014-01-16,77.389999,77.470001,76.349998,76.760002,68.609138,7201500
2014-01-17,76.730003,76.820000,76.029999,76.190002,68.099670,11440700
2014-01-21,76.250000,76.389999,74.860001,75.839996,67.786827,8971100
2014-01-22,76.080002,76.080002,75.029999,75.349998,67.348854,5853700
2014-01-23,74.839996,75.120003,74.470001,74.959999,67.000282,6006300
2014-01-24,74.730003,75.120003,74.230003,74.419998,66.517609,9332800
2014-01-27,74.129997,74.370003,73.830002,74.150002,66.276283,9088700
2014-01-28,74.260002,75.400002,74.099998,74.669998,66.741058,6023400
2014-01-29,75.290001,75.370003,74.070000,74.099998,66.231598,8433700
2014-01-30,74.540001,75.089996,74.360001,74.750000,66.812569,6732900
2014-01-31,73.919998,75.190002,73.639999,74.680000,66.750015,10544800
2014-02-03,74.190002,74.500000,72.540001,72.660004,64.944519,10430700
2014-02-04,72.669998,73.099998,72.300003,72.730003,65.007095,7755500
2014-02-05,72.269997,73.160004,72.269997,72.870003,65.132210,4774300
2014-02-06,72.970001,73.209999,72.500000,72.820000,65.087517,7353100
2014-02-07,73.050003,73.800003,72.500000,73.750000,65.918762,7287600
2014-02-10,73.589996,73.760002,72.959999,73.760002,65.927696,6204100
2014-02-11,73.900002,74.849998,73.669998,74.800003,66.857277,6511200
2014-02-12,74.220001,75.180000,74.220001,74.959999,67.000282,5339800
2014-02-13,74.680000,75.489998,74.559998,75.360001,67.357796,5250200
2014-02-14,75.400002,75.989998,75.099998,75.790001,67.742142,4908900
2014-02-18,75.489998,75.650002,74.860001,75.330002,67.330994,5993800
2014-02-19,75.010002,75.320000,74.410004,74.849998,66.901962,8130300
2014-02-20,73.050003,74.000000,72.809998,73.519997,65.713196,13079100
2014-02-21,73.190002,73.400002,72.820000,73.120003,65.355667,8971000
2014-02-24,73.239998,73.820000,73.139999,73.349998,65.561241,7321500
2014-02-25,73.180000,73.739998,73.089996,73.349998,65.561241,9482700
2014-02-26,73.940002,75.099998,73.790001,74.779999,66.839401,9022200
2014-02-27,74.779999,74.779999,74.089996,74.559998,66.642746,5448200
2014-02-28,74.480003,75.190002,74.199997,74.699997,66.767883,7444600
2014-03-03,74.489998,74.669998,73.830002,74.120003,66.249466,5347600
2014-03-04,74.769997,75.489998,74.660004,75.129997,67.152229,7543800
2014-03-05,75.320000,75.330002,74.580002,74.800003,66.857277,5524800
2014-03-06,74.860001,75.110001,74.510002,74.879997,66.928780,5106600
2014-03-07,74.959999,74.959999,74.360001,74.580002,67.090698,5054600
2014-03-10,74.519997,74.599998,74.050003,74.430000,66.955780,4827000
2014-03-11,74.720001,74.970001,74.199997,74.919998,67.396553,9005600
2014-03-12,74.849998,75.750000,74.820000,75.529999,67.945305,8627600
2014-03-13,75.709999,76.180000,74.910004,74.930000,67.405548,5824500
2014-03-14,74.669998,75.070000,74.269997,74.279999,66.820808,6619000
2014-03-17,74.300003,74.849998,74.010002,74.680000,67.180649,5780400
2014-03-18,74.660004,74.989998,74.449997,74.769997,67.261627,3943800
2014-03-19,74.559998,75.110001,74.019997,74.379997,66.910774,5761100
2014-03-20,74.019997,75.680000,73.860001,75.379997,67.810356,8637500
2014-03-21,75.889999,77.019997,75.449997,76.099998,68.458061,17160200
2014-03-24,76.209999,76.800003,76.110001,76.760002,69.051781,7279500
2014-03-25,76.879997,77.139999,76.160004,76.870003,69.150742,7382200
2014-03-26,77.080002,77.529999,76.230003,76.230003,68.574997,7727800
2014-03-27,76.379997,76.820000,76.040001,76.139999,68.494041,5596600
2014-03-28,76.260002,76.599998,75.769997,76.010002,68.377113,5871100
2014-03-31,76.349998,76.779999,76.019997,76.430000,68.754929,4695600
2014-04-01,76.760002,77.250000,76.540001,76.769997,69.060783,5770000
2014-04-02,76.580002,77.190002,76.339996,77.180000,69.429604,6078100
2014-04-03,77.199997,77.550003,77.000000,77.459999,69.681496,6040500
2014-04-04,77.580002,77.900002,77.250000,77.309998,69.546547,6760200
2014-04-07,77.230003,77.720001,77.089996,77.309998,69.546547,7675700
2014-04-08,77.089996,78.309998,76.800003,78.180000,70.329201,7498700
2014-04-09,78.199997,78.220001,77.279999,77.970001,70.140274,6877800
2014-04-10,77.949997,78.139999,76.650002,76.889999,69.168732,7599600
2014-04-11,76.779999,77.230003,76.290001,76.500000,68.817902,7979000
2014-04-14,76.940002,77.550003,76.790001,77.379997,69.609535,5375900
2014-04-15,77.029999,77.309998,76.440002,76.879997,69.159721,6928600
2014-04-16,77.309998,77.470001,77.029999,77.220001,69.465599,5036800
2014-04-17,77.080002,77.750000,77.080002,77.660004,69.861404,6964700
2014-04-21,77.410004,77.730003,77.180000,77.599998,69.807419,4595100
2014-04-22,77.519997,77.830002,77.389999,77.559998,69.771439,6465500
2014-04-23,77.820000,78.279999,77.570000,78.040001,70.203247,5806200
2014-04-24,78.169998,78.470001,77.699997,78.309998,70.446121,4347500
2014-04-25,78.309998,78.779999,78.019997,78.620003,70.724998,5392600
2014-04-28,78.860001,79.989998,78.830002,79.760002,71.750534,9598700
2014-04-29,79.839996,79.870003,79.570000,79.669998,71.669556,4695700
2014-04-30,79.589996,79.930000,79.510002,79.709999,71.705528,6111700
2014-05-01,79.730003,79.730003,79.160004,79.699997,71.696556,5098000
2014-05-02,79.599998,79.760002,79.010002,79.120003,71.174789,5620000
2014-05-05,78.860001,78.949997,78.510002,78.620003,70.724998,4591000
2014-05-06,78.330002,78.389999,77.970001,78.010002,70.176254,5638900
2014-05-07,77.849998,78.099998,77.529999,77.959999,70.565475,6086200
2014-05-08,78.000000,78.830002,78.000000,78.690002,71.226227,4820600
2014-05-09,78.519997,79.279999,78.519997,79.199997,71.687859,4896400
2014-05-12,78.949997,79.230003,78.650002,79.150002,71.642593,5999800
2014-05-13,79.169998,79.370003,78.989998,79.139999,71.633537,4363700
2014-05-14,79.050003,79.050003,78.070000,78.739998,71.271484,5608300
2014-05-15,76.279999,77.440002,76.250000,76.830002,69.542648,13035800
2014-05-16,77.000000,77.379997,76.650002,77.010002,69.705582,7243800
2014-05-19,77.110001,77.129997,76.500000,76.610001,69.343513,6131300
2014-05-20,76.360001,76.370003,75.519997,75.690002,68.510796,7436700
2014-05-21,75.940002,75.959999,75.269997,75.660004,68.483635,5704100
2014-05-22,75.790001,75.919998,75.239998,75.389999,68.239243,5243700
2014-05-23,75.559998,75.750000,75.430000,75.610001,68.438362,3703600
2014-05-27,75.709999,75.809998,75.290001,75.589996,68.420258,5370800
2014-05-28,75.379997,75.940002,75.339996,75.529999,68.365967,5036900
2014-05-29,75.669998,76.190002,75.570000,75.980003,68.773270,4003500
2014-05-30,76.059998,76.809998,76.010002,76.769997,69.488342,5964800
2014-06-02,76.580002,77.110001,76.470001,76.760002,69.479294,4390400
2014-06-03,76.739998,76.970001,76.360001,76.709999,69.434029,7213600
2014-06-04,76.599998,77.300003,76.529999,77.129997,69.814194,6199900
2014-06-05,77.050003,77.440002,76.870003,77.320000,69.986191,4695800
2014-06-06,77.459999,77.589996,77.070000,77.209999,69.886612,4188900
2014-06-09,77.070000,77.760002,76.699997,77.010002,69.705582,5547600
2014-06-10,76.809998,76.940002,76.510002,76.620003,69.352562,3365700
2014-06-11,76.550003,76.739998,76.050003,76.160004,68.936203,4463300
2014-06-12,76.050003,76.190002,75.580002,75.730003,68.546989,5336600
2014-06-13,75.669998,75.760002,75.120003,75.279999,68.139671,4981500
2014-06-16,75.110001,75.480003,75.019997,75.339996,68.193962,3846900
2014-06-17,75.290001,75.419998,74.919998,74.989998,67.877159,6544200
2014-06-18,75.040001,75.959999,74.919998,75.699997,68.519844,6740700
2014-06-19,75.879997,76.279999,75.800003,75.870003,68.673714,5255300
2014-06-20,76.160004,76.169998,75.120003,75.680000,68.501740,11330700
2014-06-23,75.559998,75.940002,75.300003,75.790001,68.601288,4267400
2014-06-24,76.029999,76.209999,75.680000,75.970001,68.764221,5652300
2014-06-25,75.760002,75.839996,75.279999,75.620003,68.447433,4318200
2014-06-26,75.519997,75.610001,74.699997,74.910004,67.804779,6922100
2014-06-27,74.800003,75.379997,74.669998,75.339996,68.193962,13960800
2014-06-30,75.400002,75.690002,74.940002,75.070000,67.949600,6653800
2014-07-01,75.269997,75.419998,74.750000,75.279999,68.139671,6604500
2014-07-02,75.260002,75.900002,75.250000,75.620003,68.447433,4366800
2014-07-03,75.610001,76.050003,75.519997,75.750000,68.565086,2874000
2014-07-07,75.690002,76.209999,75.550003,76.070000,68.854736,5028000
2014-07-08,76.089996,76.980003,76.029999,76.650002,69.379730,7960500
2014-07-09,76.769997,77.330002,76.620003,77.209999,69.886612,6240100
2014-07-10,76.910004,77.570000,76.910004,77.059998,69.750832,5372500
2014-07-11,76.870003,76.970001,76.559998,76.820000,69.533600,4547500
2014-07-14,77.129997,77.250000,76.480003,76.550003,69.289215,4822900
2014-07-15,76.559998,76.930000,76.559998,76.839996,69.551712,4656900
2014-07-16,76.900002,77.050003,76.699997,76.860001,69.569809,3724200
2014-07-17,76.580002,77.050003,76.440002,76.610001,69.343513,4630300
2014-07-18,76.620003,77.099998,76.510002,77.089996,69.777977,4913300
2014-07-21,76.760002,76.910004,76.480003,76.769997,69.488342,3457600
2014-07-22,76.839996,76.889999,76.400002,76.639999,69.370674,4383200
2014-07-23,76.629997,77.059998,76.589996,76.989998,69.687462,3994300
2014-07-24,76.680000,76.790001,76.190002,76.349998,69.108170,7228300
2014-07-25,76.190002,76.360001,75.800003,75.970001,68.764221,3948400
2014-07-28,75.430000,75.930000,75.360001,75.709999,68.528893,5509900
2014-07-29,75.209999,76.010002,75.150002,75.440002,68.284500,6293500
2014-07-30,75.879997,75.919998,74.669998,74.779999,67.687096,9977200
2014-07-31,73.989998,74.250000,73.540001,73.580002,66.600891,9631600
2014-08-01,73.320000,73.879997,73.220001,73.540001,66.564705,8223900
2014-08-04,73.379997,73.629997,73.059998,73.540001,66.564705,5402100
2014-08-05,73.309998,73.519997,72.769997,73.339996,66.383667,10579900
2014-08-06,73.190002,74.290001,73.180000,74.199997,67.604576,7934800
2014-08-07,74.339996,74.809998,73.760002,73.949997,67.376793,7049000
2014-08-08,74.059998,74.730003,73.849998,74.669998,68.032791,4996300
2014-08-11,74.290001,74.599998,74.019997,74.360001,67.750351,4721400
2014-08-12,74.309998,74.440002,74.010002,74.220001,67.622795,3928200
2014-08-13,74.269997,74.410004,73.510002,74.029999,67.449677,6619100
2014-08-14,73.889999,74.430000,73.610001,74.389999,67.777679,6136300
2014-08-15,74.650002,74.650002,73.489998,73.900002,67.331238,6942700
2014-08-18,74.150002,74.680000,74.050003,74.489998,67.868782,4015700
2014-08-19,74.809998,74.940002,74.139999,74.879997,68.224144,5047900
2014-08-20,74.830002,75.050003,74.510002,74.959999,68.297020,4898300
2014-08-21,75.059998,75.910004,75.000000,75.550003,68.834587,5260600
2014-08-22,75.779999,76.199997,75.639999,75.730003,68.998566,4137800
2014-08-25,75.930000,76.019997,75.510002,75.690002,68.962135,3393600
2014-08-26,75.830002,76.150002,75.440002,75.519997,68.807243,4222900
2014-08-27,75.510002,75.860001,75.440002,75.849998,69.107918,3200400
2014-08-28,75.470001,75.940002,75.470001,75.900002,69.153458,2923700
2014-08-29,75.750000,75.879997,75.290001,75.500000,68.789009,5080500
2014-09-02,75.419998,75.940002,75.410004,75.750000,69.016792,4532400
2014-09-03,75.949997,76.330002,75.879997,76.010002,69.253700,4709400
2014-09-04,76.160004,76.599998,76.110001,76.559998,69.754799,5282300
2014-09-05,76.519997,77.730003,76.480003,77.510002,70.620354,7841800
2014-09-08,77.129997,77.320000,76.430000,76.529999,69.727463,5938900
2014-09-09,76.559998,77.000000,76.169998,76.739998,69.918785,5632000
2014-09-10,76.790001,77.080002,76.370003,76.510002,69.709229,6697100
2014-09-11,76.349998,76.440002,76.089996,76.099998,69.335678,4953300
2014-09-12,75.970001,76.050003,75.660004,75.769997,69.035034,5652300
2014-09-15,75.779999,75.889999,75.610001,75.809998,69.071472,3748500
2014-09-16,75.639999,76.570000,75.599998,76.320000,69.536118,4109500
2014-09-17,76.360001,76.470001,76.010002,76.239998,69.463234,4239000
2014-09-18,76.309998,76.580002,75.910004,76.220001,69.445030,4751700
2014-09-19,76.449997,77.070000,76.379997,76.839996,70.009903,13323500
2014-09-22,76.790001,76.860001,76.250000,76.309998,69.527023,4450700
2014-09-23,76.000000,76.220001,75.570000,75.599998,68.880127,6708000
2014-09-24,75.730003,77.309998,75.699997,77.080002,70.228584,8434600
2014-09-25,76.930000,77.050003,76.120003,76.120003,69.353905,4963500
2014-09-26,76.250000,76.570000,75.860001,76.489998,69.691025,3752900
2014-09-29,76.059998,76.250000,75.650002,76.080002,69.317467,4959300
2014-09-30,76.040001,76.720001,75.769997,76.470001,69.672791,5640700
2014-10-01,76.510002,76.860001,75.910004,76.120003,69.353905,6524900
2014-10-02,76.209999,76.910004,75.959999,76.230003,69.454147,4921200
2014-10-03,76.570000,77.480003,76.529999,77.320000,70.447243,5819700
2014-10-06,77.050003,77.919998,76.989998,77.349998,70.474571,5429700
2014-10-07,77.029999,77.690002,76.720001,77.300003,70.429024,7059900
2014-10-08,77.410004,78.489998,76.809998,78.239998,71.285469,8107100
2014-10-09,78.110001,78.830002,77.660004,77.860001,70.939240,7072700
2014-10-10,77.930000,79.370003,77.930000,78.290001,71.331024,10078000
2014-10-13,78.029999,78.580002,77.449997,77.559998,70.665909,8201200
2014-10-14,77.830002,78.629997,77.669998,77.980003,71.048584,7901100
2014-10-15,77.580002,77.690002,74.360001,75.199997,68.515686,21057700
2014-10-16,73.230003,74.070000,72.610001,73.820000,67.258354,14346600
2014-10-17,74.180000,74.500000,73.029999,74.099998,67.513474,11462300
2014-10-20,74.139999,75.220001,73.919998,75.139999,68.461029,7040700
2014-10-21,75.180000,76.199997,75.010002,76.019997,69.262794,8299700
2014-10-22,76.470001,76.660004,76.010002,76.029999,69.271889,5927600
2014-10-23,76.370003,76.650002,75.779999,76.250000,69.472336,6367100
2014-10-24,76.129997,76.500000,75.500000,76.379997,69.590805,4479600
2014-10-27,76.330002,76.980003,76.309998,76.589996,69.782112,4107400
2014-10-28,76.629997,76.800003,76.000000,76.349998,69.563454,4979600
2014-10-29,76.550003,76.639999,75.970001,76.389999,69.599915,5759700
2014-10-30,76.169998,76.599998,75.980003,76.449997,69.654572,4872400
2014-10-31,76.889999,77.400002,76.010002,76.269997,69.490570,7570700
2014-11-03,76.349998,76.379997,75.589996,76.279999,69.499680,6894400
2014-11-04,76.489998,77.370003,76.279999,77.260002,70.392578,6904900
2014-11-05,77.870003,78.230003,77.300003,77.699997,70.793457,5673800
2014-11-06,78.150002,78.180000,77.169998,77.809998,70.893677,4621900
2014-11-07,77.839996,79.080002,77.610001,78.769997,71.768356,9498800
2014-11-10,78.599998,80.129997,78.419998,79.440002,72.378799,12640500
2014-11-11,79.400002,79.419998,78.849998,79.010002,71.987030,5602400
2014-11-12,78.830002,79.440002,78.650002,79.199997,72.160118,6791200
2014-11-13,80.959999,83.059998,80.860001,82.940002,75.567688,22812400
2014-11-14,82.580002,83.150002,82.099998,82.959999,75.585915,10636600
2014-11-17,82.580002,83.720001,82.529999,83.570000,76.141701,7993400
2014-11-18,83.500000,83.919998,83.339996,83.790001,76.342140,6096400
2014-11-19,83.959999,85.639999,83.919998,84.989998,77.435486,12189800
2014-11-20,84.809998,85.290001,84.040001,84.580002,77.061928,7812700
2014-11-21,85.339996,85.440002,84.580002,84.650002,77.125702,6649600
2014-11-24,84.849998,85.610001,84.769997,85.400002,77.809036,7995500
2014-11-25,85.500000,85.510002,84.389999,84.949997,77.399033,6675500
2014-11-26,84.900002,85.110001,84.480003,84.980003,77.426369,3942800
2014-11-28,86.180000,88.089996,85.900002,87.540001,79.758812,7820600
2014-12-01,86.720001,87.070000,85.750000,86.220001,78.556152,9140900
2014-12-02,86.269997,86.699997,85.930000,86.400002,78.720161,6766300
2014-12-03,85.949997,86.000000,84.680000,84.940002,77.822281,6374300
2014-12-04,84.129997,84.820000,83.650002,84.760002,77.657349,6901400
2014-12-05,84.809998,84.820000,83.510002,84.120003,77.070992,6570100
2014-12-08,84.150002,84.669998,83.849998,84.230003,77.171783,6266000
2014-12-09,83.650002,84.209999,82.650002,83.559998,76.557915,6633600
2014-12-10,83.930000,84.309998,82.900002,82.980003,76.026505,6973600
2014-12-11,83.199997,84.500000,83.160004,83.830002,76.805283,8032800
2014-12-12,83.519997,85.000000,83.519997,83.809998,76.786949,7284100
2014-12-15,84.260002,84.699997,83.050003,83.940002,76.906075,6317700
2014-12-16,83.620003,84.760002,82.940002,82.959999,76.008186,7437400
2014-12-17,83.279999,84.260002,82.949997,84.230003,77.171783,6641000
2014-12-18,84.800003,85.949997,84.279999,85.940002,78.738472,8645900
2014-12-19,86.260002,86.339996,85.160004,85.160004,78.023842,12068800
2014-12-22,85.320000,86.400002,85.290001,86.379997,79.141617,4575800
2014-12-23,86.690002,87.080002,86.360001,86.660004,79.398148,5552600
2014-12-24,86.970001,87.070000,86.389999,86.430000,79.187401,2491800
2014-12-26,86.180000,87.139999,86.010002,86.910004,79.627190,3249300
2014-12-29,86.459999,87.070000,86.400002,86.639999,79.379807,3605600
2014-12-30,86.519997,87.129997,86.480003,86.790001,79.517258,3265400
2014-12-31,87.080002,87.440002,85.860001,85.879997,78.683502,4151400
2015-01-02,86.269997,86.720001,85.550003,85.900002,78.701820,4501800
2015-01-05,85.720001,86.320000,85.510002,85.650002,78.472771,6979000
2015-01-06,85.980003,86.750000,85.790001,86.309998,79.077454,8205100
2015-01-07,86.779999,88.680000,86.669998,88.599998,81.175575,8498400
2015-01-08,89.209999,90.669998,89.070000,90.470001,82.888885,12713600
2015-01-09,90.320000,90.389999,89.250000,89.349998,81.862724,8486300
2015-01-12,89.360001,90.309998,89.220001,90.019997,82.476570,7372500
2015-01-13,90.800003,90.970001,88.930000,89.309998,81.826080,8215400
2015-01-14,87.650002,88.519997,86.500000,86.610001,79.352341,11954300
2015-01-15,87.000000,87.779999,86.699997,87.379997,80.057800,9412700
2015-01-16,87.199997,87.459999,86.230003,86.769997,79.498924,8408900
2015-01-20,86.820000,87.699997,85.550003,86.690002,79.425629,7636600
2015-01-21,86.099998,86.910004,85.709999,86.639999,79.379807,8173800
2015-01-22,87.230003,88.400002,86.860001,88.300003,80.900711,7123800
2015-01-23,88.419998,89.260002,87.889999,88.510002,81.093117,7532300
2015-01-26,88.309998,89.160004,88.120003,88.629997,81.203049,4666700
2015-01-27,88.279999,88.459999,87.260002,87.529999,80.195236,6020500
2015-01-28,88.019997,88.230003,86.769997,86.820000,79.544739,5936800
2015-01-29,87.070000,87.720001,86.269997,87.720001,80.369324,6522800
2015-01-30,86.779999,87.360001,84.900002,84.980003,77.858925,10280200
2015-02-02,84.790001,85.870003,83.930000,85.709999,78.527748,6927200
2015-02-03,85.830002,86.529999,85.660004,86.190002,78.967529,8241500
2015-02-04,86.110001,87.040001,86.000000,86.650002,79.388969,8932300
2015-02-05,87.110001,87.360001,86.559998,87.279999,79.966187,5090800
2015-02-06,87.260002,88.000000,86.779999,87.330002,80.012001,5550700
2015-02-09,86.970001,87.190002,85.639999,85.910004,78.710991,5456200
2015-02-10,86.620003,87.410004,86.419998,87.290001,79.975342,5732100
2015-02-11,86.629997,87.120003,85.919998,86.339996,79.104958,5853100
2015-02-12,86.559998,86.680000,85.230003,85.889999,78.692657,6941600
2015-02-13,85.839996,86.160004,85.320000,85.809998,78.619362,5597000
2015-02-17,85.430000,85.970001,84.970001,85.959999,78.756790,5087200
2015-02-18,85.959999,86.300003,85.519997,86.290001,79.059135,5929200
2015-02-19,84.500000,84.800003,83.389999,83.519997,76.521263,18646800
2015-02-20,82.730003,84.379997,82.550003,84.300003,77.235909,13840400
2015-02-23,84.389999,84.860001,84.230003,84.599998,77.510750,6730400
2015-02-24,84.519997,84.820000,83.919998,84.570000,77.483269,5172300
2015-02-25,84.629997,84.720001,83.519997,83.570000,76.567070,6808400
2015-02-26,83.849998,83.860001,83.269997,83.800003,76.777802,5888100
2015-02-27,83.720001,84.160004,83.400002,83.930000,76.896912,5877400
2015-03-02,83.930000,84.000000,83.199997,83.959999,76.924393,6061500
2015-03-03,83.660004,83.820000,83.169998,83.370003,76.383812,6460800
2015-03-04,83.209999,83.209999,82.199997,82.580002,75.660019,6161600
2015-03-05,83.150002,83.870003,82.959999,83.570000,76.567070,5997500
2015-03-06,82.809998,83.099998,82.379997,82.589996,75.669197,5731000
2015-03-09,82.589996,83.339996,82.540001,82.879997,75.934891,4671500
2015-03-10,82.269997,82.500000,82.070000,82.070000,75.192757,6253600
2015-03-11,81.820000,81.970001,80.540001,80.690002,74.372452,6160900
2015-03-12,80.809998,82.120003,80.779999,81.900002,75.487717,5225800
2015-03-13,81.949997,82.250000,81.290001,81.900002,75.487717,4762200
2015-03-16,82.449997,83.370003,82.440002,83.290001,76.768890,6519100
2015-03-17,82.980003,83.010002,82.239998,82.620003,76.151352,4692800
2015-03-18,81.980003,82.959999,81.160004,82.529999,76.068398,9387100
2015-03-19,82.330002,82.440002,81.370003,81.519997,75.137466,7212900
2015-03-20,81.830002,83.489998,81.709999,83.239998,76.722801,12365300
2015-03-23,83.180000,83.900002,83.120003,83.309998,76.787323,6489500
2015-03-24,83.190002,83.709999,82.959999,83.050003,76.547676,5359100
2015-03-25,83.089996,83.250000,81.309998,81.320000,74.953117,6645900
2015-03-26,80.930000,82.309998,80.650002,81.889999,75.478500,8267200
2015-03-27,81.849998,82.180000,81.250000,81.349998,74.980789,5210300
2015-03-30,81.699997,82.800003,81.430000,82.529999,76.068398,5701700
2015-03-31,82.389999,83.040001,82.250000,82.250000,75.810310,5587700
2015-04-01,82.279999,82.279999,80.430000,80.709999,74.390884,8190900
2015-04-02,80.730003,81.320000,80.550003,80.730003,74.409317,5795700
2015-04-06,80.459999,81.330002,80.150002,80.989998,74.648956,6380700
2015-04-07,81.089996,81.290001,80.459999,80.500000,74.197319,6606100
2015-04-08,80.389999,81.230003,80.360001,81.029999,74.685837,6694700
2015-04-09,80.839996,81.389999,80.580002,80.839996,74.510719,3923600
2015-04-10,80.860001,81.000000,80.550003,80.650002,74.335579,5480300
2015-04-13,80.400002,80.919998,80.269997,80.290001,74.003769,4698100
2015-04-14,80.290001,80.419998,79.680000,80.150002,73.874725,5510400
2015-04-15,80.580002,80.980003,79.650002,79.739998,73.496826,6200400
2015-04-16,79.500000,79.889999,79.129997,79.239998,73.035973,8015100
2015-04-17,78.940002,79.150002,77.550003,77.879997,71.782440,11822800
2015-04-20,78.389999,78.830002,78.019997,78.139999,72.022102,8846000
2015-04-21,78.610001,78.839996,77.910004,78.029999,71.920723,6200200
2015-04-22,77.730003,78.639999,77.550003,78.430000,72.289391,7594700
2015-04-23,78.379997,79.540001,78.199997,79.180000,72.980675,7468900
2015-04-24,79.379997,80.930000,79.239998,79.839996,73.588997,6867800
2015-04-27,79.769997,79.860001,79.290001,79.370003,73.155800,6449800
2015-04-28,79.459999,79.480003,78.769997,79.099998,72.906929,4895900
2015-04-29,78.699997,78.790001,77.790001,77.879997,71.782440,7108400
2015-04-30,77.830002,78.480003,77.589996,78.050003,71.939156,8795900
2015-05-01,78.199997,78.760002,78.169998,78.599998,72.446083,4999700
2015-05-04,78.980003,79.550003,78.459999,79.180000,72.980675,6669200
2015-05-05,79.010002,79.010002,78.059998,78.129997,72.012894,5855400
2015-05-06,77.919998,78.120003,77.169998,77.650002,72.022163,5480100
2015-05-07,77.730003,78.339996,77.300003,78.029999,72.374626,5538100
2015-05-08,78.599998,79.250000,78.400002,78.529999,72.838379,5347400
2015-05-11,78.320000,78.610001,78.029999,78.099998,72.439552,3744900
2015-05-12,78.019997,79.480003,77.870003,78.959999,73.237206,8449000
2015-05-13,79.180000,79.430000,77.980003,78.160004,72.495193,8421200
2015-05-14,78.370003,78.769997,78.019997,78.720001,73.014603,6170200
2015-05-15,78.709999,79.250000,78.570000,79.239998,73.496925,6617200
2015-05-18,79.370003,79.940002,79.160004,79.919998,74.127632,8237900
2015-05-19,78.180000,78.360001,76.230003,76.430000,70.890572,22458600
2015-05-20,76.480003,76.500000,75.830002,75.900002,70.398987,10541900
2015-05-21,75.800003,76.419998,75.559998,76.110001,70.593773,6756200
2015-05-22,76.199997,76.379997,75.860001,75.860001,70.361893,6815000
2015-05-26,75.769997,75.830002,74.820000,74.900002,69.471474,10573600
2015-05-27,75.010002,75.510002,75.000000,75.190002,69.740463,6987100
2015-05-28,75.070000,75.160004,74.650002,74.839996,69.415817,5025500
2015-05-29,74.820000,74.879997,74.150002,74.269997,68.887138,6281600
2015-06-01,74.690002,75.080002,74.410004,74.730003,69.313805,5646000
2015-06-02,74.540001,75.000000,74.419998,74.529999,69.128281,5774700
2015-06-03,74.699997,75.199997,74.470001,74.889999,69.462189,6093800
2015-06-04,74.459999,74.980003,73.949997,74.150002,68.775841,8982800
2015-06-05,74.169998,74.269997,72.980003,73.059998,67.764816,10635100
2015-06-08,73.430000,73.489998,72.599998,72.610001,67.347443,9539000
2015-06-09,72.699997,72.849998,72.360001,72.470001,67.217590,8335600
2015-06-10,72.709999,73.330002,72.339996,72.930000,67.644249,11215800
2015-06-11,73.230003,73.669998,72.839996,72.940002,67.653534,7420000
2015-06-12,72.739998,72.900002,72.400002,72.430000,67.180489,7246600
2015-06-15,72.199997,72.400002,71.699997,71.930000,66.716736,7566800
2015-06-16,72.220001,72.580002,71.720001,72.349998,67.106277,6215600
2015-06-17,72.629997,72.900002,72.339996,72.730003,67.458755,5703900
2015-06-18,72.739998,73.480003,72.739998,72.980003,67.690636,8376600
2015-06-19,72.800003,73.220001,72.699997,72.739998,67.468010,14550700
2015-06-22,72.980003,73.190002,72.690002,72.790001,67.514404,6489500
2015-06-23,72.889999,72.940002,72.339996,72.570000,67.310341,7876300
2015-06-24,72.559998,72.650002,72.139999,72.379997,67.134109,7338400
2015-06-25,72.449997,72.629997,71.830002,71.860001,66.651802,5293200
2015-06-26,71.959999,72.459999,71.870003,72.120003,66.892960,6897800
2015-06-29,71.800003,72.000000,71.410004,71.419998,66.243698,8187800
2015-06-30,71.809998,71.809998,70.779999,70.930000,65.789207,11102600
2015-07-01,71.599998,71.949997,70.360001,71.879997,66.670341,10773900
2015-07-02,72.019997,72.559998,71.660004,71.860001,66.651802,6586100
2015-07-06,71.379997,72.690002,71.379997,72.529999,67.273247,10536500
2015-07-07,72.660004,73.860001,72.000000,73.790001,68.441917,12421300
2015-07-08,73.300003,73.589996,72.900002,73.059998,67.764816,7791000
2015-07-09,73.669998,73.730003,72.709999,72.779999,67.505127,8695800
2015-07-10,73.080002,73.550003,73.080002,73.120003,67.820488,5579300
2015-07-13,73.510002,74.110001,73.510002,73.879997,68.525398,6084500
2015-07-14,73.980003,74.089996,73.480003,73.790001,68.441917,5518200
2015-07-15,73.589996,73.900002,73.190002,73.650002,68.312073,4566700
2015-07-16,73.970001,74.139999,73.760002,73.830002,68.479019,5231700
2015-07-17,73.739998,74.070000,73.309998,73.389999,68.070915,5680600
2015-07-20,73.349998,73.440002,73.059998,73.099998,67.801926,5085600
2015-07-21,73.099998,73.290001,72.529999,72.739998,67.468010,6441100
2015-07-22,72.779999,73.820000,72.779999,73.160004,67.857597,6961600
2015-07-23,73.070000,73.220001,72.419998,72.510002,67.254692,4252900
2015-07-24,72.529999,72.559998,71.500000,71.580002,66.392082,5951100
2015-07-27,71.379997,71.650002,71.010002,71.379997,66.206581,6197600
2015-07-28,71.529999,72.389999,71.230003,72.099998,66.874397,8592300
2015-07-29,72.250000,72.629997,72.089996,72.230003,66.994987,4939700
2015-07-30,72.029999,72.529999,71.779999,72.160004,66.930084,4604500
2015-07-31,72.440002,72.489998,71.660004,71.980003,66.763100,7928400
2015-08-03,71.839996,72.379997,71.839996,72.180000,66.948608,5131800
2015-08-04,72.419998,72.800003,71.930000,72.250000,67.013542,5873400
2015-08-05,72.389999,73.690002,72.250000,73.510002,68.647789,8715800
2015-08-06,73.349998,73.379997,72.660004,72.790001,67.975410,6367700
2015-08-07,72.709999,72.830002,71.169998,71.250000,66.537270,7797500
2015-08-10,71.500000,71.750000,71.339996,71.480003,66.752052,6020100
2015-08-11,71.250000,72.370003,71.150002,71.930000,67.172287,6713100
2015-08-12,71.529999,72.660004,71.269997,72.580002,67.779305,8841400
2015-08-13,72.400002,72.769997,71.970001,72.110001,67.340370,7652400
2015-08-14,72.300003,72.599998,72.040001,72.379997,67.592514,5853300
2015-08-17,71.830002,72.230003,71.760002,71.910004,67.153618,7604400
2015-08-18,70.000000,70.500000,69.239998,69.480003,64.884361,21315000
2015-08-19,68.870003,69.389999,67.769997,68.570000,64.034531,16333400
2015-08-20,68.080002,69.300003,67.940002,68.430000,63.903801,9860100
2015-08-21,67.910004,68.309998,66.540001,66.540001,62.138802,15746500
2015-08-24,63.740002,66.160004,61.500000,63.950001,59.720112,22239600
2015-08-25,65.449997,65.709999,63.000000,63.099998,58.926342,14801000
2015-08-26,64.230003,64.849998,63.020000,64.830002,60.541908,13928300
2015-08-27,65.320000,66.180000,64.949997,66.080002,61.709240,13912800
2015-08-28,66.089996,66.120003,64.449997,64.940002,60.644642,14303000
2015-08-31,64.820000,65.000000,64.290001,64.730003,60.448524,8126000
2015-09-01,63.799999,64.320000,63.270000,63.820000,59.598717,13393900
2015-09-02,64.589996,64.940002,64.059998,64.440002,60.177708,9514600
2015-09-03,64.720001,65.010002,64.389999,64.860001,60.569923,8523800
2015-09-04,64.070000,64.300003,63.509998,63.889999,59.664085,9232400
2015-09-08,65.230003,66.500000,65.180000,66.379997,61.989380,17706800
2015-09-09,66.860001,67.010002,65.010002,65.120003,60.812737,9420500
2015-09-10,64.070000,64.650002,63.830002,64.120003,59.878880,14524800
2015-09-11,64.180000,64.680000,63.990002,64.650002,60.373814,8062400
2015-09-14,64.650002,64.669998,63.820000,64.279999,60.028282,6956700
2015-09-15,64.480003,64.699997,64.050003,64.320000,60.065639,6800200
2015-09-16,64.599998,64.769997,64.050003,64.690002,60.411175,5625400
2015-09-17,64.699997,65.290001,64.160004,64.470001,60.205727,7133100
2015-09-18,63.750000,64.230003,63.259998,63.340000,59.150463,12786000
2015-09-21,63.750000,64.000000,63.369999,63.720001,59.505337,7119600
2015-09-22,63.230000,63.820000,62.919998,63.590000,59.383930,8800800
2015-09-23,63.720001,63.930000,63.119999,63.720001,59.505337,5876600
2015-09-24,63.360001,63.980000,63.299999,63.830002,59.608051,6956200
2015-09-25,64.070000,64.459999,63.619999,63.779999,59.561356,7163000
2015-09-28,63.599998,63.950001,63.480000,63.660000,59.449295,9394400
2015-09-29,63.750000,64.040001,63.230000,63.779999,59.561356,7640100
2015-09-30,64.430000,64.940002,63.930000,64.839996,60.551239,7899600
2015-10-01,64.760002,64.940002,63.880001,64.269997,60.018944,7837200
2015-10-02,63.759998,64.980003,63.410000,64.980003,60.681988,7084000
2015-10-05,65.209999,65.919998,65.139999,65.870003,61.513126,6300300
2015-10-06,65.540001,65.949997,65.180000,65.680000,61.335690,7410900
2015-10-07,65.839996,66.360001,65.769997,66.360001,61.970718,7136000
2015-10-08,66.230003,66.989998,66.150002,66.879997,62.456318,5974500
2015-10-09,66.940002,67.019997,66.510002,66.690002,62.278881,6754000
2015-10-12,66.669998,67.000000,66.580002,66.930000,62.503002,5643900
2015-10-13,66.620003,66.940002,66.260002,66.730003,62.316238,8858400
2015-10-14,66.610001,67.949997,60.020000,60.029999,56.059395,80898100
2015-10-15,59.700001,60.470001,58.610001,59.330002,55.405701,46253500
2015-10-16,59.470001,59.490002,58.369999,58.889999,54.994801,26195100
2015-10-19,58.790001,59.299999,58.500000,58.849998,54.957451,17805800
2015-10-20,58.860001,59.000000,58.570000,58.750000,54.864063,10264200
2015-10-21,58.799999,59.040001,58.570000,58.639999,54.761337,13117600
2015-10-22,58.939999,59.959999,58.639999,58.900002,55.004147,14588500
2015-10-23,59.189999,59.279999,58.220001,58.299999,54.443821,13040600
2015-10-26,58.400002,58.450001,57.970001,58.020000,54.182343,10839800
2015-10-27,58.009998,58.040001,57.380001,57.480000,53.678062,10511400
2015-10-28,57.660000,57.720001,57.160000,57.639999,53.827484,11834700
2015-10-29,57.720001,58.119999,57.480000,57.959999,54.126316,12573100
2015-10-30,57.730000,58.119999,57.240002,57.240002,53.453938,15805500
2015-11-02,57.290001,57.610001,56.770000,57.610001,53.799461,10719200
2015-11-03,57.570000,58.330002,57.529999,58.110001,54.266388,10253900
2015-11-04,58.580002,58.759998,58.189999,58.369999,54.509197,10048900
2015-11-05,58.509998,58.980000,58.419998,58.610001,54.733326,8860500
2015-11-06,58.919998,59.200001,58.310001,58.779999,54.892078,9977300
2015-11-09,58.500000,58.779999,58.020000,58.490002,54.621265,8440400
2015-11-10,58.310001,58.709999,58.310001,58.680000,54.798691,7614900
2015-11-11,58.500000,58.730000,57.470001,57.580002,53.771458,8689900
2015-11-12,57.639999,57.770000,56.919998,56.950001,53.183128,9551500
2015-11-13,56.740002,57.060001,56.299999,56.419998,52.688175,12514900
2015-11-16,56.389999,58.029999,56.360001,57.869999,54.042267,13321600
2015-11-17,59.340000,60.900002,59.200001,59.919998,55.956673,24679300
2015-11-18,60.040001,61.070000,59.549999,60.930000,56.899868,14877700
2015-11-19,61.119999,61.360001,60.430000,60.700001,56.685081,11566100
2015-11-20,60.980000,61.470001,60.020000,60.070000,56.096752,12371100
2015-11-23,60.290001,60.740002,59.880001,60.259998,56.274189,10577000
2015-11-24,59.950001,60.419998,59.860001,59.919998,55.956673,12453900
2015-11-25,60.000000,60.709999,59.880001,60.240002,56.255508,7820200
2015-11-27,60.439999,60.689999,59.869999,59.889999,55.928665,5340900
2015-11-30,59.869999,60.060001,58.730000,58.840000,54.948112,14942600
2015-12-01,59.130001,59.290001,58.650002,58.990002,55.088188,12204100
2015-12-02,58.610001,59.290001,58.320000,58.349998,54.946934,13586900
2015-12-03,58.689999,59.660000,58.599998,59.040001,55.596699,15844100
2015-12-04,59.049999,59.849998,59.029999,59.660000,56.180538,10435300
2015-12-07,59.570000,60.730000,59.570000,60.500000,56.971546,11595900
2015-12-08,60.070000,60.490002,59.500000,59.610001,56.133453,10377600
2015-12-09,59.259998,60.110001,58.900002,59.130001,55.681446,8981700
2015-12-10,59.130001,60.090000,59.090000,59.560001,56.086369,11357200
2015-12-11,59.049999,59.529999,58.810001,59.360001,55.898033,9745000
2015-12-14,59.299999,60.439999,59.070000,60.389999,56.867958,14466900
2015-12-15,60.639999,60.840000,59.570000,59.639999,56.161709,14615400
2015-12-16,60.110001,60.650002,59.700001,60.299999,56.783211,9960500
2015-12-17,60.330002,60.330002,58.970001,58.980000,55.540192,12976100
2015-12-18,58.930000,59.400002,58.750000,58.849998,55.417778,16256700
2015-12-21,58.820000,59.580002,58.669998,59.549999,56.076950,9645500
2015-12-22,59.790001,60.700001,59.610001,60.540001,57.009212,9234100
2015-12-23,61.000000,61.119999,60.439999,61.090000,57.527138,7519800
2015-12-24,60.779999,61.099998,60.680000,60.830002,57.282303,2482800
2015-12-28,60.580002,60.970001,60.500000,60.750000,57.206966,5341600
2015-12-29,61.000000,61.750000,60.980000,61.610001,58.016815,7883600
2015-12-30,61.660000,61.869999,61.490002,61.680000,58.082726,5716700
2015-12-31,61.330002,61.720001,61.169998,61.299999,57.724880,6575100
2016-01-04,60.500000,61.490002,60.360001,61.459999,57.875553,11989200
2016-01-05,62.029999,63.049999,61.849998,62.919998,59.250408,13326000
2016-01-06,62.480000,63.950001,62.470001,63.549999,59.843666,16564600
2016-01-07,62.970001,65.230003,62.919998,65.029999,61.237347,26430000
2016-01-08,65.080002,65.410004,63.410000,63.540001,59.834251,17767900
2016-01-11,63.759998,64.470001,63.630001,64.220001,60.474590,12642600
2016-01-12,64.379997,64.730003,63.430000,63.619999,59.909580,12195900
2016-01-13,63.730000,63.730000,61.830002,61.919998,58.308731,13725700
2016-01-14,62.000000,63.619999,61.820000,63.060001,59.382244,12934900
2016-01-15,61.549999,62.470001,61.259998,61.930000,58.318146,15174400
2016-01-19,62.250000,62.799999,62.009998,62.560001,58.911404,13051300
2016-01-20,61.799999,62.330002,60.200001,60.840000,57.291714,17369100
2016-01-21,60.980000,62.790001,60.910000,61.880001,58.271065,12089200
2016-01-22,62.439999,63.259998,62.130001,62.689999,59.033825,9197500
2016-01-25,62.779999,63.820000,62.549999,63.450001,59.749496,12823400
2016-01-26,63.360001,64.470001,63.259998,64.000000,60.267422,9167600
2016-01-27,64.099998,65.180000,63.889999,63.950001,60.220333,10214300
2016-01-28,64.029999,64.510002,63.430000,64.220001,60.474590,11278300
2016-01-29,64.750000,66.529999,64.739998,66.360001,62.489780,16439100
2016-02-01,65.910004,67.930000,65.889999,67.500000,63.563293,14728400
2016-02-02,67.300003,67.839996,66.279999,66.860001,62.960629,13585900
2016-02-03,67.309998,67.500000,65.070000,66.269997,62.405029,12315600
2016-02-04,65.760002,66.550003,65.010002,66.419998,62.546280,12711700
2016-02-05,66.860001,67.529999,65.879997,67.000000,63.092461,14196500
2016-02-08,66.500000,67.150002,65.160004,66.900002,62.998283,20743600
2016-02-09,65.489998,66.410004,64.680000,65.809998,61.971863,14134200
2016-02-10,66.190002,66.589996,65.650002,65.790001,61.953022,9709300
2016-02-11,65.019997,65.760002,64.779999,65.320000,61.510429,11186700
2016-02-12,65.519997,66.250000,64.870003,66.180000,62.320286,9695500
2016-02-16,66.610001,66.800003,65.500000,65.900002,62.056606,11360500
2016-02-17,66.099998,66.610001,65.809998,66.110001,62.254356,12426700
2016-02-18,63.740002,64.779999,62.349998,64.120003,60.380424,27894600
2016-02-19,63.889999,64.769997,63.439999,64.660004,60.888931,15562300
2016-02-22,64.660004,66.139999,64.660004,65.629997,61.802353,10587300
2016-02-23,65.839996,66.599998,65.279999,66.480003,62.602791,11432000
2016-02-24,66.190002,67.330002,65.720001,67.120003,63.205460,10291200
2016-02-25,67.449997,68.129997,67.330002,68.040001,64.071800,9562300
2016-02-26,68.080002,68.199997,66.300003,66.510002,62.631039,10984300
2016-02-29,66.629997,66.949997,66.220001,66.339996,62.470947,9345200
2016-03-01,66.650002,66.889999,66.000000,66.459999,62.583946,10429500
2016-03-02,66.209999,66.669998,66.000000,66.209999,62.348530,9165600
2016-03-03,65.949997,66.199997,64.879997,66.139999,62.282612,11823600
2016-03-04,66.139999,67.279999,66.089996,66.779999,62.885292,10010500
2016-03-07,66.620003,68.480003,66.269997,67.889999,63.930557,12825400
2016-03-08,67.730003,68.470001,67.489998,68.040001,64.071800,10067900
2016-03-09,67.790001,67.989998,67.120003,67.529999,64.062309,7824800
2016-03-10,67.550003,68.040001,66.400002,67.410004,63.948479,9635600
2016-03-11,67.769997,67.940002,66.800003,67.169998,63.720802,8290900
2016-03-14,67.150002,67.669998,66.959999,67.360001,63.901039,6712500
2016-03-15,67.000000,68.349998,67.000000,68.089996,64.593552,7566900
2016-03-16,67.940002,68.339996,67.250000,67.989998,64.498688,8218000
2016-03-17,67.820000,68.919998,67.260002,67.449997,63.986420,11838100
2016-03-18,67.480003,68.029999,66.750000,66.949997,63.512089,23153100
2016-03-21,67.029999,68.379997,66.970001,67.970001,64.479729,9415800
2016-03-22,68.000000,68.680000,67.790001,67.870003,64.384857,7514500
2016-03-23,68.010002,68.099998,67.440002,67.459999,63.995903,6110600
2016-03-24,67.430000,68.040001,67.379997,68.000000,64.508171,6304700
2016-03-28,67.930000,68.580002,67.930000,68.120003,64.622017,5603500
2016-03-29,68.150002,68.209999,67.430000,68.029999,64.536636,6472100
2016-03-30,68.330002,69.000000,68.290001,68.800003,65.267097,7208500
2016-03-31,68.750000,69.190002,68.470001,68.489998,64.973015,6283500
2016-04-01,68.019997,69.199997,68.019997,69.059998,65.513763,6602400
2016-04-04,69.000000,69.370003,68.919998,69.099998,65.551689,6823400
2016-04-05,69.029999,69.250000,68.269997,68.639999,65.115311,5779000
2016-04-06,68.699997,69.059998,68.519997,69.040001,65.494781,5296700
2016-04-07,68.830002,68.930000,67.940002,68.220001,64.716873,6110500
2016-04-08,68.309998,68.389999,67.860001,68.059998,64.565102,6516000
2016-04-11,68.010002,68.370003,67.379997,67.400002,63.938984,7865400
2016-04-12,67.570000,68.870003,67.449997,68.800003,65.267097,7702700
2016-04-13,69.010002,69.419998,68.870003,69.150002,65.599129,6262700
2016-04-14,69.150002,69.239998,68.150002,68.800003,65.267097,6961100
2016-04-15,68.940002,69.410004,68.940002,69.059998,65.513763,7584500
2016-04-18,69.050003,69.900002,68.849998,69.860001,66.272667,6616100
2016-04-19,69.790001,70.080002,69.500000,69.769997,66.187286,8199400
2016-04-20,69.760002,69.989998,69.129997,69.209999,65.656044,5412500
2016-04-21,69.470001,69.680000,68.239998,68.470001,64.954041,6617600
2016-04-22,68.820000,68.940002,68.279999,68.720001,65.191216,6215100
2016-04-25,68.550003,69.500000,68.059998,69.470001,65.902702,5896200
2016-04-26,69.699997,69.889999,69.099998,69.300003,65.741432,6648400
2016-04-27,69.489998,69.779999,68.989998,69.419998,65.855255,5147300
2016-04-28,69.070000,69.620003,68.750000,68.910004,65.371452,4776900
2016-04-29,68.730003,68.820000,66.360001,66.870003,63.436207,12099000
2016-05-02,66.620003,67.699997,66.529999,67.589996,64.119225,7609700
2016-05-03,66.860001,67.500000,66.750000,67.000000,63.559528,5922600
2016-05-04,66.849998,67.489998,66.440002,67.190002,63.739769,6029500
2016-05-05,66.970001,67.250000,66.580002,67.209999,63.758736,8091000
2016-05-06,66.910004,68.260002,66.800003,68.250000,64.745346,9825400
2016-05-09,68.250000,69.099998,68.160004,68.949997,65.409401,8656200
2016-05-10,68.919998,69.129997,68.449997,68.790001,65.257607,6376400
2016-05-11,67.470001,67.500000,65.610001,66.410004,63.461094,14597500
2016-05-12,66.550003,67.050003,66.379997,66.849998,63.881561,9533500
2016-05-13,66.480003,66.550003,64.650002,64.940002,62.056377,13744700
2016-05-16,64.860001,66.349998,64.680000,66.019997,63.088409,10181800
2016-05-17,66.059998,66.269997,64.879997,65.099998,62.209263,9252700
2016-05-18,63.020000,63.779999,62.720001,63.150002,60.345852,22255900
2016-05-19,68.099998,69.330002,67.500000,69.199997,66.127190,35076700
2016-05-20,69.330002,70.139999,68.849998,69.860001,66.757889,16746600
2016-05-23,69.599998,70.059998,69.440002,69.500000,66.413872,10072900
2016-05-24,69.650002,70.419998,69.550003,70.239998,67.121033,8828000
2016-05-25,70.250000,71.000000,70.239998,70.480003,67.350365,7263900
2016-05-26,70.690002,71.379997,70.599998,70.849998,67.703934,8651000
2016-05-27,70.860001,70.889999,70.489998,70.750000,67.608376,5773700
2016-05-31,70.580002,71.000000,70.480003,70.779999,67.637039,8390200
2016-06-01,70.500000,70.910004,70.410004,70.500000,67.369476,7220900
2016-06-02,70.500000,71.000000,70.150002,70.949997,67.799500,6486100
2016-06-03,70.570000,71.050003,70.519997,70.870003,67.723053,6374500
2016-06-06,71.519997,71.550003,71.000000,71.050003,67.895058,9018000
2016-06-07,71.099998,71.309998,70.849998,71.029999,67.875938,7363400
2016-06-08,70.849998,71.449997,70.800003,71.279999,68.114845,6139000
2016-06-09,71.360001,71.589996,70.849998,71.089996,67.933273,6069900
2016-06-10,71.000000,71.410004,70.680000,71.139999,67.981064,7511400
2016-06-13,71.000000,71.180000,70.489998,70.529999,67.398140,7907600
2016-06-14,70.660004,71.169998,70.199997,70.949997,67.799500,9066400
2016-06-15,71.199997,71.610001,71.000000,71.120003,67.961960,8017000
2016-06-16,71.000000,71.459999,70.800003,71.300003,68.133957,6705200
2016-06-17,71.050003,71.309998,70.400002,70.949997,67.799500,18059300
2016-06-20,71.309998,71.779999,71.050003,71.099998,67.942833,7142500
2016-06-21,70.949997,71.720001,70.949997,71.459999,68.286858,6674800
2016-06-22,71.599998,72.250000,71.570000,71.750000,68.563972,8457500
2016-06-23,72.199997,72.239998,71.790001,72.099998,68.898438,6970200
2016-06-24,70.550003,72.720001,70.510002,71.959999,68.764641,15120400
2016-06-27,71.639999,71.769997,70.879997,71.500000,68.325073,11303400
2016-06-28,71.760002,71.870003,70.669998,71.510002,68.334641,8561200
2016-06-29,71.629997,72.489998,71.559998,72.459999,69.242447,7014700
2016-06-30,72.570000,73.190002,72.320000,73.019997,69.777580,8713600
2016-07-01,73.129997,73.169998,72.419998,72.809998,69.576897,7638800
2016-07-05,72.750000,73.620003,72.680000,73.139999,69.892250,10748600
2016-07-06,73.260002,73.980003,73.169998,73.820000,70.542061,11062700
2016-07-07,73.730003,73.930000,73.150002,73.529999,70.264938,7792800
2016-07-08,73.820000,73.849998,73.239998,73.839996,70.561150,9127600
2016-07-11,73.669998,74.349998,73.500000,74.059998,70.771393,9040100
2016-07-12,73.559998,73.730003,73.000000,73.269997,70.016479,12361200
2016-07-13,73.250000,73.629997,72.940002,73.620003,70.350937,6399000
2016-07-14,73.790001,74.110001,73.610001,73.699997,70.427376,6646400
2016-07-15,73.980003,74.010002,73.440002,73.669998,70.398712,5994800
2016-07-18,73.639999,74.180000,73.529999,73.839996,70.561150,5457300
2016-07-19,73.639999,73.959999,73.580002,73.660004,70.389168,4798100
2016-07-20,73.879997,74.110001,73.629997,73.790001,70.513390,5282000
2016-07-21,73.430000,73.660004,73.139999,73.519997,70.255371,4391900
2016-07-22,73.760002,73.910004,73.419998,73.550003,70.284058,4316600
2016-07-25,73.550003,73.830002,73.410004,73.750000,70.475166,4734000
2016-07-26,73.709999,74.070000,73.410004,73.730003,70.456047,5248300
2016-07-27,73.660004,73.820000,73.139999,73.320000,70.064262,5755200
2016-07-28,73.139999,73.320000,72.470001,73.239998,69.987801,4603200
2016-07-29,73.169998,73.250000,72.760002,72.970001,69.729805,6302200
2016-08-01,72.809998,73.989998,72.809998,73.779999,70.503830,5868400
2016-08-02,73.699997,73.720001,72.629997,73.129997,69.882690,6513100
2016-08-03,73.000000,73.400002,72.510002,72.940002,69.701126,6568100
2016-08-04,72.800003,73.489998,72.589996,73.300003,70.045158,4902100
2016-08-05,73.459999,73.949997,73.459999,73.760002,70.484718,5415400
2016-08-08,74.000000,74.070000,73.040001,73.339996,70.083366,6577200
2016-08-09,73.360001,73.879997,73.080002,73.540001,70.274490,6427900
2016-08-10,73.570000,74.510002,73.389999,73.949997,71.150032,8052300
2016-08-11,74.500000,74.800003,73.529999,73.800003,71.005714,6267800
2016-08-12,73.800003,74.120003,73.559998,73.889999,71.092300,9994200
2016-08-15,73.809998,74.010002,73.110001,73.320000,70.543884,9636100
2016-08-16,72.589996,73.309998,72.209999,72.889999,70.130173,9763300
2016-08-17,71.989998,72.949997,71.989998,72.930000,70.168655,14343300
2016-08-18,72.930000,75.190002,72.930000,74.300003,71.486778,26858300
2016-08-19,74.099998,74.290001,72.669998,72.809998,70.053192,15346400
2016-08-22,73.059998,73.139999,72.449997,72.699997,69.947350,10312100
2016-08-23,72.889999,73.070000,71.959999,71.970001,69.245003,9391400
2016-08-24,71.970001,72.750000,71.760002,72.230003,69.495155,10050700
2016-08-25,72.370003,72.580002,71.050003,71.220001,68.523399,10514200
2016-08-26,71.410004,71.690002,70.889999,71.139999,68.446434,10038500
2016-08-29,71.139999,71.660004,71.099998,71.400002,68.696579,7431800
2016-08-30,71.400002,71.760002,71.150002,71.309998,68.609985,5774200
2016-08-31,71.459999,71.639999,71.150002,71.440002,68.735062,6311600
2016-09-01,71.570000,72.860001,71.410004,72.839996,70.082054,11761400
2016-09-02,72.989998,73.190002,72.419998,72.500000,69.754936,8082900
2016-09-06,72.760002,73.080002,72.199997,73.000000,70.236008,9570900
2016-09-07,73.000000,73.050003,72.010002,72.059998,69.331596,9618300
2016-09-08,71.889999,72.320000,71.709999,71.830002,69.110313,9650800
2016-09-09,71.320000,71.510002,70.300003,70.300003,67.638237,12172600
2016-09-12,70.790001,72.239998,70.720001,71.940002,69.216133,10864000
2016-09-13,71.839996,71.910004,71.150002,71.459999,68.754303,7507900
2016-09-14,71.620003,72.059998,71.400002,71.519997,68.812042,6980500
2016-09-15,71.480003,72.559998,71.260002,72.400002,69.658722,7295600
2016-09-16,72.320000,72.959999,72.220001,72.870003,70.110924,13935700
2016-09-19,72.639999,72.870003,72.089996,72.089996,69.360466,6901100
2016-09-20,72.150002,72.550003,71.900002,71.970001,69.245003,5910600
2016-09-21,72.180000,72.540001,71.510002,72.190002,69.456680,6675900
2016-09-22,72.430000,72.540001,71.989998,72.269997,69.533638,5871900
2016-09-23,72.599998,72.769997,72.339996,72.349998,69.610611,7696400
2016-09-26,72.309998,72.330002,71.519997,71.620003,68.908257,5948700
2016-09-27,71.930000,72.489998,71.580002,72.330002,69.591370,6344400
2016-09-28,72.220001,72.320000,71.379997,71.790001,69.071815,6184900
2016-09-29,71.570000,71.709999,70.620003,70.730003,68.051956,7996800
2016-09-30,71.500000,72.459999,71.400002,72.120003,69.389328,9982600
2016-10-03,71.830002,72.150002,71.599998,72.010002,69.283493,5857700
2016-10-04,72.000000,72.570000,71.550003,71.750000,69.033325,6569300
2016-10-05,71.870003,72.269997,71.599998,71.669998,68.956360,6464400
2016-10-06,71.669998,71.669998,68.889999,69.360001,66.733826,20110300
2016-10-07,69.260002,69.470001,68.169998,68.699997,66.098808,12653800
2016-10-10,68.750000,68.959999,67.750000,67.980003,65.406090,8956400
2016-10-11,67.949997,67.959999,67.300003,67.389999,64.838409,8591500
2016-10-12,67.739998,67.910004,67.370003,67.459999,64.905762,8940700
2016-10-13,67.190002,68.540001,67.070000,68.230003,65.646606,9193800
2016-10-14,68.419998,68.809998,68.209999,68.449997,65.858269,6416000
2016-10-17,68.650002,68.650002,67.800003,68.220001,65.636986,7493400
2016-10-18,68.570000,68.980003,68.230003,68.870003,66.262390,7814900
2016-10-19,69.220001,69.339996,68.690002,68.889999,66.281616,7123300
2016-10-20,68.980003,69.080002,68.570000,68.730003,66.127678,6294000
2016-10-21,68.339996,68.629997,67.989998,68.339996,65.752449,7844600
2016-10-24,68.620003,69.370003,68.389999,69.190002,66.570267,7163600
2016-10-25,69.010002,69.870003,69.000000,69.360001,66.733826,7629700
2016-10-26,69.300003,69.809998,69.139999,69.589996,66.955109,5050500
2016-10-27,69.599998,70.000000,69.389999,69.830002,67.186043,7131600
2016-10-28,69.800003,70.209999,69.730003,69.989998,67.339981,6952900
2016-10-31,70.059998,70.169998,69.849998,70.019997,67.368835,6389000
2016-11-01,69.980003,70.059998,69.139999,69.300003,66.676094,8838600
2016-11-02,69.199997,69.970001,69.199997,69.449997,66.820419,7645300
2016-11-03,69.629997,70.080002,69.349998,69.629997,66.993599,6803900
2016-11-04,69.709999,69.940002,69.129997,69.160004,66.541412,7262100
2016-11-07,69.620003,69.839996,69.160004,69.779999,67.137917,9755400
2016-11-08,69.709999,70.040001,69.470001,69.790001,67.147545,7616500
2016-11-09,69.300003,71.500000,69.290001,71.099998,68.407944,16779500
2016-11-10,71.250000,72.089996,71.000000,71.389999,68.686966,14321300
2016-11-11,71.110001,71.279999,70.599998,71.230003,68.533035,8223900
2016-11-14,71.160004,71.309998,70.190002,70.489998,67.821037,12856200
2016-11-15,70.790001,71.419998,70.349998,71.419998,68.715828,9725100
2016-11-16,71.750000,72.059998,71.330002,71.389999,68.686966,11132400
2016-11-17,69.080002,69.519997,68.120003,69.190002,66.570267,23440300
2016-11-18,68.930000,69.400002,68.440002,68.540001,65.944870,11135300
2016-11-21,68.540001,69.400002,68.419998,69.370003,66.743454,8356000
2016-11-22,69.730003,70.419998,69.730003,70.120003,67.465057,10984000
2016-11-23,70.220001,70.889999,70.180000,70.830002,68.148163,7398900
2016-11-25,71.110001,71.650002,70.980003,71.230003,68.533035,4234400
2016-11-28,70.930000,71.519997,70.800003,71.190002,68.494537,7099200
2016-11-29,71.379997,71.790001,71.199997,71.370003,68.667725,7310100
2016-11-30,70.919998,71.160004,70.169998,70.430000,67.763321,9326100
2016-12-01,70.250000,70.730003,70.050003,70.669998,67.994225,6849800
2016-12-02,70.580002,70.949997,70.449997,70.879997,68.196266,6674200
2016-12-05,70.900002,70.989998,69.809998,69.940002,67.291862,10527900
2016-12-06,70.010002,70.389999,69.500000,70.360001,67.695953,7778000
2016-12-07,69.930000,70.650002,69.900002,70.599998,68.413040,6966200
2016-12-08,70.480003,70.900002,70.320000,70.339996,68.161095,6844200
2016-12-09,70.269997,70.430000,69.739998,70.080002,67.909157,10756700
2016-12-12,70.070000,71.779999,70.019997,71.669998,69.449890,9084100
2016-12-13,71.669998,72.230003,71.610001,71.800003,69.575867,8887500
2016-12-14,71.900002,72.480003,71.180000,71.339996,69.130119,8669400
2016-12-15,71.220001,71.800003,71.029999,71.080002,68.878181,7136300
2016-12-16,71.070000,71.639999,70.599998,70.980003,68.781273,17642900
2016-12-19,70.839996,71.750000,70.839996,71.580002,69.362686,5889300
2016-12-20,71.730003,71.930000,71.510002,71.820000,69.595253,6108100
2016-12-21,71.660004,72.000000,71.239998,71.239998,69.033203,5101000
2016-12-22,71.239998,71.239998,69.209999,69.589996,67.434319,12106800
2016-12-23,69.430000,69.750000,69.360001,69.540001,67.385880,4795400
2016-12-27,69.300003,69.820000,69.250000,69.699997,67.540916,4435700
2016-12-28,69.940002,70.000000,69.260002,69.309998,67.163002,4875700
2016-12-29,69.209999,69.519997,69.120003,69.260002,67.114548,4289800
2016-12-30,69.120003,69.430000,68.830002,69.120003,66.978889,6889500
2017-01-03,69.239998,69.239998,68.050003,68.660004,66.533134,10473200
2017-01-04,68.660004,69.629997,68.599998,69.059998,66.920738,7918000
2017-01-05,68.430000,69.330002,68.120003,69.209999,67.066101,7099200
2017-01-06,68.410004,68.500000,68.010002,68.260002,66.145531,9491100
2017-01-09,68.330002,68.800003,68.320000,68.709999,66.581581,8660600
2017-01-10,68.639999,69.269997,68.220001,68.230003,66.116463,10256500
2017-01-11,68.199997,68.620003,68.190002,68.529999,66.407166,6697600
2017-01-12,68.360001,68.559998,67.919998,67.970001,65.864510,6544900
2017-01-13,67.980003,68.019997,67.080002,67.129997,65.050529,10012500
2017-01-17,68.099998,69.290001,68.059998,68.419998,66.300568,13140200
2017-01-18,67.879997,68.110001,67.540001,68.110001,66.000175,7321500
2017-01-19,68.129997,68.190002,67.480003,67.620003,65.525352,6821100
2017-01-20,67.739998,67.830002,67.019997,67.180000,65.098984,12054700
2017-01-23,67.010002,67.180000,66.559998,66.650002,64.585396,7951400
2017-01-24,66.889999,67.410004,66.660004,67.400002,65.312172,10710600
2017-01-25,67.519997,67.730003,66.790001,66.889999,64.817963,8722900
2017-01-26,67.129997,67.220001,66.620003,66.730003,64.662926,6504100
2017-01-27,66.860001,66.970001,65.279999,65.660004,63.626068,13433600
2017-01-30,65.629997,66.480003,65.629997,66.419998,64.362518,8641500
2017-01-31,66.209999,66.889999,65.879997,66.739998,64.672607,9320900
2017-02-01,66.459999,66.709999,66.040001,66.230003,64.178413,9050000
2017-02-02,66.339996,67.139999,66.339996,66.699997,64.633835,8998700
2017-02-03,66.820000,66.930000,66.440002,66.500000,64.440048,7625300
2017-02-06,66.370003,66.860001,66.370003,66.400002,64.343140,9097200
2017-02-07,66.559998,67.000000,66.510002,66.889999,64.817963,5805700
2017-02-08,66.889999,67.820000,66.889999,67.809998,65.709465,7660800
2017-02-09,67.809998,69.139999,67.750000,69.080002,66.940132,11080500
2017-02-10,68.250000,68.599998,67.760002,68.019997,65.912949,12445600
2017-02-13,68.320000,68.650002,67.559998,67.769997,65.670708,8374300
2017-02-14,67.879997,68.680000,67.709999,68.660004,66.533134,8336400
2017-02-15,67.800003,68.709999,67.760002,68.690002,66.562202,8563300
2017-02-16,68.669998,69.239998,68.610001,68.870003,66.736626,8413800
2017-02-17,68.830002,69.790001,68.690002,69.370003,67.221138,12837400
2017-02-21,71.209999,72.279999,70.699997,71.449997,69.236710,22412900
2017-02-22,72.250000,72.370003,71.480003,71.709999,69.488663,15242700
2017-02-23,72.000000,72.500000,71.160004,71.309998,69.101044,12799700
2017-02-24,71.339996,72.800003,71.300003,72.389999,70.147598,13889900
2017-02-27,72.279999,72.419998,71.529999,71.739998,69.517723,9254700
2017-02-28,70.870003,71.000000,70.000000,70.930000,68.732811,15952600
2017-03-01,70.970001,71.080002,70.150002,70.449997,68.267693,13522700
2017-03-02,70.419998,70.900002,70.169998,70.760002,68.568085,8916300
2017-03-03,70.760002,71.019997,69.879997,70.029999,67.860695,9297900
2017-03-06,70.000000,70.440002,69.779999,69.879997,67.715340,9182600
2017-03-07,69.900002,70.209999,69.860001,69.870003,67.705658,7282900
2017-03-08,69.690002,70.029999,69.540001,69.800003,68.135155,7979800
2017-03-09,69.750000,70.040001,69.559998,69.860001,68.193718,7564500
2017-03-10,70.000000,70.360001,69.800003,70.099998,68.428001,7098800
2017-03-13,69.989998,70.449997,69.709999,69.949997,68.281570,6802500
2017-03-14,70.820000,71.209999,70.720001,70.720001,69.033203,9958400
2017-03-15,70.500000,70.699997,70.019997,70.580002,68.896545,8813800
2017-03-16,70.110001,70.699997,70.070000,70.440002,68.759888,7061000
2017-03-17,70.580002,70.750000,69.809998,69.889999,68.223015,14078400
2017-03-20,70.139999,70.449997,69.709999,69.980003,68.310867,7466200
2017-03-21,70.169998,70.400002,69.690002,69.900002,68.232773,8746800
2017-03-22,70.029999,70.339996,69.720001,70.250000,68.574425,6455600
2017-03-23,70.199997,70.309998,69.750000,69.860001,68.193718,6898800
2017-03-24,69.989998,70.169998,69.529999,69.610001,67.949684,5859000
2017-03-27,69.519997,70.070000,69.360001,69.660004,67.998497,5792600
2017-03-28,69.330002,70.370003,69.330002,70.320000,68.642754,7252200
2017-03-29,70.349998,71.180000,70.309998,70.739998,69.052734,6991000
2017-03-30,70.690002,71.720001,70.639999,71.589996,69.882454,8141500
2017-03-31,71.320000,72.559998,71.230003,72.080002,70.360779,9939800
2017-04-03,72.080002,72.529999,71.779999,71.830002,70.116737,8291300
2017-04-04,71.739998,72.059998,71.529999,72.010002,70.292442,5567300
2017-04-05,71.639999,72.309998,71.559998,71.650002,69.941032,6354500
2017-04-06,71.699997,72.099998,71.379997,71.430000,69.726280,5941100
2017-04-07,72.099998,72.989998,71.800003,72.900002,71.161217,10768000
2017-04-10,72.989998,73.480003,72.730003,73.059998,71.317390,7495900
2017-04-11,73.000000,73.449997,72.930000,73.430000,71.678574,5810500
2017-04-12,73.550003,73.830002,73.250000,73.440002,71.688339,6627300
2017-04-13,73.370003,73.660004,73.150002,73.150002,71.405258,5336400
2017-04-17,73.160004,73.580002,73.150002,73.489998,71.737137,5465400
2017-04-18,73.540001,74.099998,73.480003,73.889999,72.127602,6627900
2017-04-19,74.099998,74.379997,73.860001,74.070000,72.303307,5940600
2017-04-20,74.139999,75.110001,74.110001,74.800003,73.015900,7681300
2017-04-21,74.739998,75.110001,74.599998,74.940002,73.152557,5755700
2017-04-24,75.080002,75.400002,74.419998,74.779999,72.996368,7812500
2017-04-25,74.970001,75.169998,74.860001,75.050003,73.259941,5720400
2017-04-26,75.269997,75.769997,75.169998,75.430000,73.630867,6948500
2017-04-27,75.540001,75.699997,75.019997,75.440002,73.640633,6052200
2017-04-28,75.239998,75.440002,74.930000,75.180000,73.386833,7217400
2017-05-01,75.089996,75.720001,75.089996,75.230003,73.435646,6165900
2017-05-02,75.300003,75.709999,75.250000,75.519997,73.718719,7318400
2017-05-03,75.400002,75.879997,75.180000,75.760002,73.953003,5523600
2017-05-04,75.930000,76.400002,75.830002,76.339996,74.519165,5500800
2017-05-05,76.419998,76.599998,76.180000,76.500000,74.675339,5597800
2017-05-08,76.500000,76.519997,76.070000,76.120003,74.304413,6512200
2017-05-09,76.440002,77.050003,76.330002,76.720001,74.890106,8255300
2017-05-10,76.330002,76.779999,76.190002,76.699997,75.371613,7511900
2017-05-11,76.349998,76.720001,75.930000,76.129997,74.811485,8349400
2017-05-12,75.949997,76.250000,75.370003,75.709999,74.398766,5892900
2017-05-15,75.800003,76.470001,75.800003,76.290001,74.968719,8843900
2017-05-16,76.190002,76.269997,75.080002,75.110001,73.809151,8371800
2017-05-17,75.110001,75.730003,74.959999,75.120003,73.818977,10971000
2017-05-18,76.889999,77.660004,76.129997,77.540001,76.197067,19166800
2017-05-19,77.970001,79.440002,77.769997,78.769997,77.405762,18581700
2017-05-22,78.650002,79.000000,78.300003,78.550003,77.189575,8897600
2017-05-23,78.580002,78.970001,78.440002,78.489998,77.130608,7584900
2017-05-24,78.559998,78.610001,78.139999,78.150002,76.796501,7427000
2017-05-25,78.360001,78.849998,78.150002,78.309998,76.953728,6135000
2017-05-26,78.370003,78.540001,77.790001,78.129997,76.776840,6125800
2017-05-30,78.000000,78.400002,77.930000,78.150002,76.796501,5410400
2017-05-31,78.349998,78.919998,78.220001,78.599998,77.238701,8201700
2017-06-01,78.639999,79.809998,78.599998,79.809998,78.427750,8153100
2017-06-02,79.800003,79.930000,79.220001,79.620003,78.241051,7996500
2017-06-05,79.599998,80.470001,79.480003,80.260002,78.869965,10145700
2017-06-06,79.430000,79.559998,78.260002,78.930000,77.562996,11525900
2017-06-07,79.080002,79.500000,78.730003,79.150002,77.779190,8511200
2017-06-08,79.150002,80.129997,78.230003,78.930000,77.562996,10907600
2017-06-09,79.029999,79.559998,78.720001,79.419998,78.044502,9405100
2017-06-12,79.400002,80.370003,78.839996,79.239998,77.867622,10410600
2017-06-13,79.209999,79.570000,78.889999,79.519997,78.142776,5528000
2017-06-14,79.519997,80.040001,79.260002,79.900002,78.516190,5006500
2017-06-15,79.180000,79.300003,77.760002,78.910004,77.543335,11297200
2017-06-16,73.949997,75.500000,73.290001,75.239998,73.936897,56233000
2017-06-19,75.379997,76.010002,74.519997,75.500000,74.192398,16095100
2017-06-20,75.879997,75.919998,75.320000,75.540001,74.231705,10019200
2017-06-21,75.599998,76.610001,75.580002,76.239998,74.919586,9011400
2017-06-22,76.029999,76.059998,75.300003,75.519997,74.212044,8111300
2017-06-23,75.599998,75.779999,74.550003,74.839996,73.543831,13080300
2017-06-26,74.949997,75.930000,74.919998,75.500000,74.192398,8587500
2017-06-27,75.500000,76.370003,75.449997,76.010002,74.693565,6454400
2017-06-28,76.250000,76.800003,76.139999,76.510002,75.184906,6988900
2017-06-29,76.250000,76.320000,75.489998,75.930000,74.614952,7063500
2017-06-30,76.080002,76.269997,75.669998,75.680000,74.369286,6963300
2017-07-03,75.839996,76.339996,75.080002,75.360001,74.054825,4848600
2017-07-05,75.550003,75.949997,75.169998,75.320000,74.015518,6036900
2017-07-06,75.349998,75.970001,75.239998,75.470001,74.162918,6161800
2017-07-07,75.650002,75.820000,75.050003,75.330002,74.025337,5307100
2017-07-10,75.150002,75.309998,73.129997,73.230003,71.961716,15066700
2017-07-11,73.379997,74.050003,73.330002,73.470001,72.197556,7532600
2017-07-12,73.660004,74.209999,73.660004,73.940002,72.659416,5700200
2017-07-13,74.669998,75.250000,74.510002,75.050003,73.750191,8160500
2017-07-14,76.269997,76.559998,75.910004,76.339996,75.017845,9151900
2017-07-17,76.290001,76.870003,76.190002,76.370003,75.047333,8835600
2017-07-18,76.250000,76.540001,76.000000,76.199997,74.880272,4314900
2017-07-19,76.080002,76.220001,75.599998,75.870003,74.555992,5313600
2017-07-20,75.980003,76.250000,75.699997,76.019997,74.703384,4965400
2017-07-21,75.839996,76.230003,75.550003,76.150002,74.831146,7153300
2017-07-24,76.029999,77.160004,76.029999,76.889999,75.558319,7388000
2017-07-25,77.610001,78.860001,77.389999,78.519997,77.160095,11504000
2017-07-26,78.550003,79.169998,77.940002,78.900002,77.533508,6716100
2017-07-27,78.720001,79.860001,78.480003,79.779999,78.398262,8052500
2017-07-28,79.800003,79.959999,79.540001,79.809998,78.427750,4975200
2017-07-31,79.820000,80.339996,79.690002,79.989998,78.604630,6263200
2017-08-01,80.250000,80.730003,80.000000,80.500000,79.105804,5726500
2017-08-02,80.339996,81.110001,80.300003,80.529999,79.135277,8673000
2017-08-03,81.339996,81.760002,80.669998,80.870003,79.469391,9946900
2017-08-04,81.059998,81.400002,80.209999,80.480003,79.086151,7141800
2017-08-07,80.570000,81.449997,80.540001,81.279999,79.872292,5484500
2017-08-08,81.169998,81.860001,80.900002,81.589996,80.176918,7381400
2017-08-09,81.110001,81.989998,80.900002,81.610001,80.701019,6606500
2017-08-10,81.070000,81.400002,80.550003,80.660004,79.761604,8045000
2017-08-11,80.730003,81.250000,80.360001,80.400002,79.504501,7905500
2017-08-14,80.589996,81.239998,80.500000,80.699997,79.801147,7760500
2017-08-15,80.830002,81.400002,80.540001,80.769997,79.870369,7066100
2017-08-16,81.269997,81.440002,80.540001,80.980003,80.078041,11536000
2017-08-17,78.849998,79.809998,78.330002,79.699997,78.812294,17293700
2017-08-18,79.620003,80.349998,79.279999,79.309998,78.426636,9753000
2017-08-21,79.120003,80.070000,78.790001,79.709999,78.822182,9613900
2017-08-22,79.800003,80.160004,79.709999,80.019997,79.128723,6546100
2017-08-23,80.349998,80.559998,79.879997,79.959999,79.069397,7799300
2017-08-24,80.610001,80.879997,77.849998,78.339996,77.467438,19128000
2017-08-25,78.500000,79.089996,78.480003,78.629997,77.754204,9902200
2017-08-28,78.410004,78.459999,77.860001,78.029999,77.160889,8621500
2017-08-29,77.669998,78.980003,77.500000,78.769997,77.892647,7665200
2017-08-30,78.820000,79.099998,78.519997,78.540001,77.665215,5829800
2017-08-31,78.599998,78.750000,78.059998,78.070000,77.200447,8194800
2017-09-01,78.309998,78.500000,78.209999,78.370003,77.497108,6474400
2017-09-05,77.949997,79.889999,77.900002,79.800003,78.911179,12068500
2017-09-06,79.879997,80.400002,79.720001,80.080002,79.188065,8426100
2017-09-07,80.320000,80.760002,80.000000,80.120003,79.227615,6820800
2017-09-08,79.739998,79.879997,77.730003,78.879997,78.001419,9999600
2017-09-11,79.150002,79.349998,78.660004,79.080002,78.199203,7000200
2017-09-12,79.300003,79.910004,79.169998,79.610001,78.723289,6005000
2017-09-13,79.610001,80.680000,79.589996,79.860001,78.970512,8823700
2017-09-14,79.790001,79.820000,79.220001,79.680000,78.792511,6939300
2017-09-15,79.809998,80.750000,79.269997,80.379997,79.484711,13317800
2017-09-18,80.209999,81.120003,79.949997,80.000000,79.108955,8176100
2017-09-19,80.180000,80.459999,79.699997,80.050003,79.158394,6174400
2017-09-20,80.169998,80.559998,79.870003,80.500000,79.603378,5318200
2017-09-21,80.570000,80.570000,79.720001,80.010002,79.118843,6430300
2017-09-22,79.889999,80.080002,79.250000,79.529999,78.644180,5755300
2017-09-25,78.919998,80.099998,78.860001,79.150002,78.268425,8547800
2017-09-26,79.040001,79.540001,78.919998,79.389999,78.505745,5835300
2017-09-27,79.419998,79.570000,78.669998,79.290001,78.406853,6314600
2017-09-28,79.000000,79.080002,78.120003,78.949997,78.070641,12372800
2017-09-29,78.849998,79.000000,77.980003,78.139999,77.269669,10353400
2017-10-02,77.900002,78.830002,77.500000,78.449997,77.576218,7709200
2017-10-03,78.830002,79.660004,78.750000,79.220001,78.337639,7936700
2017-10-04,79.269997,79.779999,79.070000,79.089996,78.209084,6173400
2017-10-05,79.169998,79.809998,79.080002,79.410004,78.525528,5138700
2017-10-06,78.779999,79.169998,78.250000,79.000000,78.120094,6246700
2017-10-09,79.500000,81.379997,79.400002,80.529999,79.633041,13493000
2017-10-10,82.680000,84.879997,82.610001,84.129997,83.192947,25124000
2017-10-11,84.580002,86.290001,84.099998,85.730003,84.775131,18561000
2017-10-12,85.699997,86.370003,85.059998,86.099998,85.141006,12877000
2017-10-13,86.239998,86.949997,86.239998,86.620003,85.655220,9389000
2017-10-16,86.580002,86.620003,85.019997,85.739998,84.785011,9300300
2017-10-17,85.500000,86.360001,85.320000,85.980003,85.022346,5851500
2017-10-18,86.150002,86.370003,86.010002,86.220001,85.259666,5472100
2017-10-19,86.150002,86.660004,85.769997,86.400002,85.437668,7029000
2017-10-20,86.599998,87.449997,86.279999,87.440002,86.466087,7617800
2017-10-23,87.339996,88.919998,87.260002,88.650002,87.662613,10586000
2017-10-24,88.690002,88.800003,87.910004,87.980003,87.000069,7700900
2017-10-25,87.849998,88.599998,87.430000,88.480003,87.494499,6408000
2017-10-26,88.660004,89.110001,88.019997,88.620003,87.632942,6484900
2017-10-27,88.139999,88.389999,87.150002,88.169998,87.187950,6617000
2017-10-30,87.940002,87.949997,86.389999,86.949997,85.981537,7052000
2017-10-31,86.860001,87.459999,86.599998,87.309998,86.337524,6006900
2017-11-01,87.070000,88.400002,87.000000,87.940002,86.960510,6176100
2017-11-02,88.279999,89.169998,87.800003,88.800003,87.810944,5183100
2017-11-03,89.019997,89.879997,88.760002,89.680000,88.681137,6512100
2017-11-06,89.419998,89.680000,88.680000,88.699997,87.712044,5257400
2017-11-07,88.870003,89.059998,88.309998,88.949997,87.959259,5349300
2017-11-08,89.110001,90.419998,89.099998,90.260002,89.254669,6767500
2017-11-09,89.940002,90.570000,89.349998,90.300003,89.294235,6904500
2017-11-10,90.239998,91.690002,90.199997,90.919998,89.907318,7647800
2017-11-13,91.040001,91.980003,90.870003,90.989998,89.976540,8491600
2017-11-14,90.699997,91.199997,90.180000,91.089996,90.075424,9834100
2017-11-15,90.339996,90.849998,89.650002,89.830002,88.829468,8433400
2017-11-16,95.120003,99.680000,94.720001,99.620003,98.510422,38122400
2017-11-17,99.239998,100.129997,96.580002,97.470001,96.384369,23575500
2017-11-20,96.440002,97.639999,95.760002,97.480003,96.394257,16394300
2017-11-21,97.739998,97.919998,96.320000,96.519997,95.444946,12746500
2017-11-22,96.650002,96.809998,96.110001,96.410004,95.336174,8918200
2017-11-24,96.870003,97.230003,96.529999,96.620003,95.543839,4496100
2017-11-27,96.849998,97.650002,96.300003,96.620003,95.543839,8904900
2017-11-28,96.589996,96.889999,95.820000,96.769997,95.692162,8709600
2017-11-29,97.220001,98.260002,96.879997,97.559998,96.473358,11424000
2017-11-30,98.089996,98.440002,96.510002,97.230003,96.147041,12854700
2017-12-01,97.610001,97.709999,96.230003,97.349998,96.265701,8296200
2017-12-04,97.730003,97.959999,96.680000,97.010002,95.929489,8956500
2017-12-05,97.000000,97.940002,96.919998,97.830002,96.740364,9010100
2017-12-06,97.989998,98.139999,97.239998,97.279999,96.196480,7141000
2017-12-07,97.059998,97.580002,96.650002,96.779999,96.206421,7502600
2017-12-08,96.300003,96.699997,96.139999,96.550003,95.977791,5821100
2017-12-11,96.959999,97.269997,96.290001,96.930000,96.355537,8928900
2017-12-12,96.849998,97.239998,96.599998,96.699997,96.126892,7810600
2017-12-13,96.660004,97.910004,96.550003,97.760002,97.180618,7879400
2017-12-14,98.000000,98.570000,97.099998,97.129997,96.554344,9385800
2017-12-15,97.709999,98.489998,96.910004,97.110001,96.534470,16142800
2017-12-18,97.379997,98.169998,97.360001,97.900002,97.319786,7964400
2017-12-19,99.910004,99.910004,98.290001,98.800003,98.214455,12012200
2017-12-20,99.449997,99.650002,98.449997,98.750000,98.164749,10729800
2017-12-21,99.000000,99.330002,97.980003,98.059998,97.478836,7369100
2017-12-22,98.290001,98.419998,97.680000,98.209999,97.627945,5478700
2017-12-26,98.349998,99.440002,98.349998,99.160004,98.572319,4295900
2017-12-27,99.559998,99.599998,98.830002,99.260002,98.671730,5140800
2017-12-28,99.519997,99.620003,99.120003,99.400002,98.810898,9763900
2017-12-29,99.400002,99.690002,98.750000,98.750000,98.164749,7144300
2018-01-02,99.300003,99.790001,98.519997,98.589996,98.005692,10150500
2018-01-03,98.849998,100.000000,98.769997,99.449997,98.860596,8903600
2018-01-04,99.540001,99.779999,98.910004,99.540001,98.950066,6830400
2018-01-05,99.639999,100.379997,99.610001,100.129997,99.536568,7284000
2018-01-08,100.250000,101.750000,100.209999,101.610001,101.007797,8843900
2018-01-09,102.029999,102.349998,100.309998,100.389999,99.795029,7312700
2018-01-10,99.750000,99.889999,98.529999,99.669998,99.079292,7930400
2018-01-11,99.699997,100.449997,98.779999,100.019997,99.427216,6537700
2018-01-12,100.389999,101.440002,100.300003,100.870003,100.272186,6951200
2018-01-16,101.339996,101.910004,100.339996,100.690002,100.093254,7170700
2018-01-17,101.150002,102.940002,100.699997,102.699997,102.091331,8681900
2018-01-18,104.739998,104.940002,103.620003,104.300003,103.681854,12307900
2018-01-19,104.639999,104.930000,103.660004,104.589996,103.970131,8378600
2018-01-22,104.500000,105.449997,104.040001,105.449997,104.825035,7308300
2018-01-23,105.290001,106.150002,104.570000,105.900002,105.272377,8287800
2018-01-24,106.349998,106.440002,104.820000,105.790001,105.163025,6823100
2018-01-25,105.849998,106.809998,105.849998,106.599998,105.968224,5857100
2018-01-26,107.000000,108.410004,106.680000,108.389999,107.747612,6786300
2018-01-29,108.110001,109.980003,107.989998,109.550003,108.900742,8355200
2018-01-30,109.139999,109.360001,107.150002,107.730003,107.091530,9180500
2018-01-31,107.769997,108.180000,106.070000,106.599998,105.968224,9812800
2018-02-01,105.959999,106.559998,105.180000,105.519997,104.894623,6386800
2018-02-02,105.150002,106.470001,104.150002,104.480003,103.860794,9253100
2018-02-05,103.400002,104.610001,97.089996,100.089996,99.496803,12561600
2018-02-06,97.639999,101.080002,97.250000,100.900002,100.302010,16413800
2018-02-07,100.500000,104.589996,100.010002,102.849998,102.240448,11165200
2018-02-08,103.230003,103.480003,100.000000,100.019997,99.427216,13975100
2018-02-09,100.529999,101.099998,96.430000,99.370003,98.781075,14184600
2018-02-12,100.129997,100.449997,98.800003,99.550003,98.960007,9135100
2018-02-13,99.330002,101.220001,99.330002,100.980003,100.381531,6622800
2018-02-14,100.860001,102.250000,100.209999,101.699997,101.097260,7307600
2018-02-15,102.550003,103.639999,101.830002,103.230003,102.618202,7494900
2018-02-16,103.089996,104.940002,101.980003,104.779999,104.159012,16064300
2018-02-20,96.989998,97.940002,94.099998,94.110001,93.552246,52088500
2018-02-21,95.110001,95.339996,91.239998,91.519997,90.977592,49503700
2018-02-22,91.430000,93.389999,91.309998,92.769997,92.220184,20365000
2018-02-23,92.879997,93.489998,91.760002,92.889999,92.339478,12791500
2018-02-26,92.900002,93.800003,92.220001,93.120003,92.568115,14699300
2018-02-27,93.629997,93.720001,91.510002,91.519997,90.977592,13376100
2018-02-28,92.000000,92.099998,90.000000,90.010002,89.476547,14143700
2018-03-01,90.169998,90.180000,87.709999,89.080002,88.552063,18909600
2018-03-02,87.269997,88.900002,87.239998,88.769997,88.243889,19043400
2018-03-05,88.139999,90.500000,88.070000,89.980003,89.446724,13383200
2018-03-06,90.349998,90.500000,88.629997,89.059998,88.532173,11054700
2018-03-07,87.980003,88.529999,87.339996,87.739998,87.219994,11453000
2018-03-08,87.769997,88.129997,87.339996,87.919998,87.919998,9588700
2018-03-09,88.239998,88.720001,87.529999,88.720001,88.720001,9754400
2018-03-12,88.699997,89.440002,87.879997,88.070000,88.070000,8212500
