Date,Open,High,Low,Close,Adj Close,Volume
2013-03-11,81.010002,83.029999,80.959999,82.940002,73.039047,5087300
2013-03-12,83.099998,84.620003,83.000000,84.160004,74.113419,6600800
2013-03-13,84.379997,84.849998,83.519997,84.750000,74.632973,7750900
2013-03-14,84.620003,85.099998,84.129997,84.620003,74.518501,5027800
2013-03-15,84.750000,86.489998,84.500000,86.430000,76.112434,8205400
2013-03-18,85.070000,85.769997,85.040001,85.180000,75.011665,4803900
2013-03-19,85.529999,86.000000,85.239998,85.510002,75.302269,5381200
2013-03-20,85.849998,86.139999,85.180000,85.370003,75.178978,3783500
2013-03-21,85.199997,85.830002,84.180000,84.330002,74.263123,3672400
2013-03-22,84.519997,85.099998,84.519997,84.820000,74.694633,2841600
2013-03-25,85.029999,85.480003,84.339996,84.849998,74.721039,3528400
2013-03-26,85.430000,86.839996,85.410004,86.620003,76.279747,5083400
2013-03-27,85.750000,86.419998,85.050003,86.199997,75.909904,3185700
2013-03-28,86.410004,86.500000,85.419998,85.849998,75.601685,4884300
2013-04-01,85.599998,86.190002,85.029999,85.250000,75.073303,2867200
2013-04-02,85.389999,85.500000,83.800003,84.089996,74.051773,4764900
2013-04-03,84.300003,85.349998,84.070000,84.360001,74.289551,3885000
2013-04-04,84.790001,85.019997,84.209999,84.949997,74.809113,3352500
2013-04-05,84.070000,86.300003,83.910004,86.169998,75.883469,6109500
2013-04-08,86.040001,86.809998,85.379997,86.750000,76.394241,5003600
2013-04-09,87.120003,87.489998,86.190002,87.209999,76.799339,6058400
2013-04-10,87.339996,88.559998,87.059998,87.820000,77.336487,4635200
2013-04-11,87.959999,89.459999,87.839996,88.529999,77.961731,5394200
2013-04-12,88.290001,88.930000,88.000000,88.889999,78.278770,2588300
2013-04-15,88.440002,88.769997,86.769997,86.769997,76.411858,4324000
2013-04-16,87.449997,88.349998,86.430000,86.889999,76.517509,5233900
2013-04-17,86.470001,87.000000,85.779999,86.690002,76.341385,3781100
2013-04-18,87.059998,87.160004,85.750000,86.120003,75.839447,2792800
2013-04-19,87.570000,88.080002,86.570000,87.959999,77.459785,6322200
2013-04-22,88.080002,88.080002,86.440002,86.940002,76.561569,4248700
2013-04-23,87.349998,88.510002,87.199997,88.180000,77.653511,3130700
2013-04-24,91.949997,92.650002,90.419998,90.830002,79.987183,9231700
2013-04-25,91.349998,92.620003,90.070000,91.669998,80.726906,5766100
2013-04-26,91.889999,93.379997,91.669998,92.849998,81.766052,5910600
2013-04-29,91.400002,92.410004,91.190002,91.900002,80.929451,6265900
2013-04-30,91.349998,91.989998,90.820000,91.410004,80.497955,4714300
2013-05-01,91.080002,91.750000,90.720001,91.180000,80.295403,4567300
2013-05-02,91.239998,92.820000,91.199997,92.209999,81.202438,4514800
2013-05-03,92.849998,93.949997,92.669998,93.739998,82.549805,4700100
2013-05-06,93.440002,94.790001,93.360001,94.190002,82.946098,5504800
2013-05-07,94.309998,95.040001,94.059998,94.790001,83.474464,3858400
2013-05-08,94.309998,94.440002,93.769997,94.040001,83.239914,3204300
2013-05-09,94.070000,95.150002,94.040001,94.610001,83.744423,3677500
2013-05-10,94.750000,94.989998,93.820000,94.239998,83.416931,3918600
2013-05-13,94.120003,95.160004,94.099998,94.760002,83.877197,3492000
2013-05-14,94.919998,96.190002,94.699997,96.110001,85.072151,4646500
2013-05-15,95.690002,97.470001,95.599998,97.019997,85.877655,4875100
2013-05-16,96.889999,97.199997,96.300003,96.580002,85.488190,5036700
2013-05-17,97.019997,99.040001,97.000000,98.919998,87.559441,7408900
2013-05-20,99.120003,99.330002,98.519997,98.720001,87.382416,6535200
2013-05-21,98.589996,99.050003,97.900002,98.750000,87.408974,4415400
2013-05-22,98.860001,99.480003,97.860001,97.930000,86.683151,8399700
2013-05-23,97.180000,99.989998,97.059998,99.750000,88.294144,6975700
2013-05-24,99.750000,100.580002,98.849998,100.000000,88.515411,6746300
2013-05-28,100.849998,101.470001,100.110001,100.110001,88.612793,5736000
2013-05-29,99.559998,100.029999,98.900002,99.089996,87.709915,4405800
2013-05-30,99.290001,100.989998,99.059998,100.540001,88.993393,4784400
2013-05-31,100.209999,100.949997,99.019997,99.019997,87.647972,4218700
2013-06-03,99.360001,100.900002,99.300003,100.739998,89.170418,6472900
2013-06-04,100.480003,100.919998,99.080002,99.610001,88.170219,3769800
2013-06-05,99.339996,99.709999,98.050003,98.489998,87.178833,5151000
2013-06-06,98.650002,99.809998,98.419998,99.760002,88.302994,4131700
2013-06-07,100.250000,102.589996,100.059998,102.489998,90.719437,5732900
2013-06-10,102.510002,102.949997,101.510002,102.239998,90.498161,4047500
2013-06-11,101.610001,102.779999,100.900002,101.750000,90.064430,3144100
2013-06-12,102.190002,102.419998,100.610001,100.879997,89.294342,2936500
2013-06-13,100.959999,102.339996,100.849998,102.160004,90.427330,4076500
2013-06-14,102.160004,103.220001,101.500000,101.830002,90.135246,3944400
2013-06-17,102.690002,103.519997,102.519997,103.029999,91.197426,4217400
2013-06-18,103.220001,104.150002,102.650002,104.080002,92.126846,4035700
2013-06-19,103.830002,104.150002,102.239998,102.250000,90.507027,4186900
2013-06-20,101.459999,101.860001,99.379997,99.639999,88.196762,7114800
2013-06-21,100.080002,100.139999,97.419998,99.980003,88.497719,10328800
2013-06-24,99.059998,99.459999,96.309998,97.849998,86.612335,5585200
2013-06-25,99.199997,99.660004,98.180000,98.669998,87.338158,3557900
2013-06-26,99.650002,101.389999,99.570000,100.750000,89.179298,5267300
2013-06-27,102.410004,103.519997,102.010002,103.150002,91.303658,6577700
2013-06-28,102.860001,103.489998,102.320000,102.440002,90.675186,5432500
2013-07-01,102.930000,104.019997,102.930000,103.239998,91.383316,4091200
2013-07-02,103.220001,103.250000,100.820000,101.470001,89.816582,4147000
2013-07-03,101.010002,103.040001,100.779999,102.889999,91.073502,2891700
2013-07-05,103.699997,104.199997,102.750000,104.199997,92.233070,3671700
2013-07-08,104.000000,105.099998,103.440002,104.370003,92.383545,4222700
2013-07-09,105.269997,105.750000,104.459999,104.680000,92.657936,3991800
2013-07-10,104.500000,105.599998,104.410004,105.500000,93.383774,3872700
2013-07-11,106.430000,107.459999,106.290001,106.879997,94.605263,4529800
2013-07-12,106.860001,108.150002,98.989998,101.870003,90.170654,44391800
2013-07-15,103.830002,105.870003,103.099998,105.660004,93.525398,13169900
2013-07-16,105.690002,105.800003,103.779999,104.230003,92.259628,5839100
2013-07-17,104.449997,105.430000,104.419998,104.790001,92.755310,3931800
2013-07-18,104.959999,107.980003,104.800003,107.629997,95.269142,8046400
2013-07-19,107.129997,107.129997,105.610001,106.959999,94.676086,5992000
2013-07-22,107.269997,107.320000,106.449997,106.860001,94.587578,4168800
2013-07-23,107.180000,107.980003,106.339996,107.790001,95.410774,5081600
2013-07-24,109.239998,109.489998,106.260002,106.949997,94.667236,7723500
2013-07-25,106.360001,107.120003,105.849998,106.699997,94.445953,5267100
2013-07-26,106.220001,106.220001,105.309998,105.599998,93.472260,4216100
2013-07-29,103.519997,105.120003,103.500000,104.809998,92.773010,4041800
2013-07-30,104.940002,106.010002,104.800003,105.730003,93.587357,5022700
2013-07-31,105.919998,106.279999,104.989998,105.099998,93.029686,4487800
2013-08-01,105.989998,107.000000,105.779999,106.699997,94.445953,4910800
2013-08-02,106.000000,107.949997,106.000000,107.900002,95.508141,4226200
2013-08-05,107.139999,107.800003,107.139999,107.500000,95.154068,3559200
2013-08-06,107.349998,107.709999,106.620003,107.040001,94.746895,5199900
2013-08-07,106.209999,106.680000,105.529999,106.419998,94.626869,3158600
2013-08-08,106.680000,107.239998,105.830002,105.839996,94.111130,3741400
2013-08-09,105.370003,106.150002,104.879997,105.330002,93.657631,3326500
2013-08-12,104.860001,105.070000,104.050003,104.239998,92.688438,3830800
2013-08-13,104.309998,106.550003,104.269997,106.230003,94.457916,3578300
2013-08-14,106.160004,106.160004,104.070000,104.160004,92.617317,4481100
2013-08-15,103.190002,103.290001,101.769997,102.730003,91.345795,4359400
2013-08-16,102.820000,103.940002,102.699997,103.470001,92.003769,3469100
2013-08-19,103.000000,105.199997,102.879997,104.720001,93.115257,3512200
2013-08-20,104.690002,105.080002,104.550003,104.629997,93.035233,3448900
2013-08-21,104.470001,104.760002,103.599998,103.910004,92.395012,3645600
2013-08-22,103.879997,105.500000,103.879997,105.139999,93.488708,2857800
2013-08-23,105.500000,105.500000,104.800003,105.480003,93.791031,3016100
2013-08-26,105.750000,106.519997,105.209999,105.529999,93.835480,2480400
2013-08-27,104.400002,105.139999,103.059998,103.209999,91.772575,4376900
2013-08-28,103.099998,103.820000,102.570000,103.269997,91.825928,2816300
2013-08-29,103.279999,105.440002,103.000000,104.930000,93.301987,3095400
2013-08-30,104.919998,104.959999,103.599998,103.919998,92.403893,2723800
2013-09-03,105.129997,105.830002,104.660004,105.010002,93.373123,3659800
2013-09-04,105.050003,107.120003,104.620003,106.370003,94.582413,3837500
2013-09-05,106.160004,106.980003,105.669998,106.650002,94.831352,2590500
2013-09-06,107.000000,107.379997,105.110001,106.070000,94.315651,3265200
2013-09-09,106.580002,107.379997,106.559998,107.190002,95.311546,2907600
2013-09-10,107.639999,108.449997,107.400002,108.169998,96.182938,3848000
2013-09-11,108.250000,109.230003,107.800003,109.230003,97.125458,3313700
2013-09-12,109.190002,110.220001,109.139999,109.800003,97.632324,4766800
2013-09-13,109.930000,111.330002,109.559998,111.330002,98.992737,3503400
2013-09-16,113.730003,115.889999,113.260002,115.669998,102.851784,7711200
2013-09-17,115.779999,117.480003,115.589996,117.110001,104.132233,5308300
2013-09-18,117.279999,119.519997,116.550003,118.400002,105.279274,6330600
2013-09-19,119.220001,120.379997,118.809998,119.040001,105.848358,5766700
2013-09-20,119.150002,119.220001,116.629997,116.629997,103.705414,8745400
2013-09-23,117.150002,118.370003,115.800003,117.510002,104.487907,5450200
2013-09-24,117.190002,119.889999,116.800003,119.000000,105.812805,5020000
2013-09-25,119.320000,119.610001,118.160004,118.510002,105.377106,3566600
2013-09-26,118.709999,119.500000,118.510002,119.379997,106.150665,2820400
2013-09-27,118.510002,119.169998,117.790001,118.739998,105.581596,2848900
2013-09-30,117.349998,117.889999,116.370003,117.500000,104.479004,4032900
2013-10-01,117.970001,118.300003,117.080002,117.750000,104.701294,2880700
2013-10-02,117.379997,117.839996,116.279999,117.839996,104.781326,2871900
2013-10-03,117.349998,117.489998,114.730003,115.239998,102.469460,4455100
2013-10-04,115.269997,117.260002,115.250000,117.199997,104.212250,3998000
2013-10-07,115.510002,117.169998,115.400002,116.690002,103.758774,3822000
2013-10-08,116.669998,117.320000,115.419998,115.440002,102.647293,4574000
2013-10-09,115.400002,115.400002,113.339996,114.470001,101.784790,4722200
2013-10-10,116.099998,119.000000,115.910004,118.900002,105.723862,5635400
2013-10-11,118.599998,119.400002,117.830002,117.980003,104.905830,4505500
2013-10-14,117.419998,119.550003,116.690002,119.459999,106.221809,3617800
2013-10-15,119.419998,119.589996,118.139999,118.180000,105.083649,2749700
2013-10-16,118.779999,120.660004,118.750000,120.339996,107.004295,4036900
2013-10-17,119.809998,122.389999,119.809998,122.290001,108.738205,4114200
2013-10-18,122.500000,122.860001,121.250000,122.519997,108.942703,3924200
2013-10-21,122.690002,122.739998,121.059998,121.470001,108.009087,3207900
2013-10-22,122.000000,123.800003,121.879997,122.480003,108.907143,4431200
2013-10-23,126.000000,129.990005,125.900002,129.020004,114.722389,10766300
2013-10-24,129.009995,129.570007,127.940002,128.979996,114.686829,4976200
2013-10-25,129.250000,131.429993,128.220001,131.190002,116.651909,5467600
2013-10-28,128.750000,130.470001,128.639999,129.880005,115.487106,4655800
2013-10-29,129.350006,129.880005,128.759995,129.660004,115.291466,3608700
2013-10-30,129.559998,131.429993,129.020004,129.679993,115.309265,4122100
2013-10-31,129.839996,131.880005,129.550003,130.500000,116.038391,4931800
2013-11-01,130.899994,133.500000,130.899994,133.029999,118.288025,4582400
2013-11-04,133.750000,133.990005,132.460007,132.789993,118.074615,3915800
2013-11-05,132.029999,133.740005,130.589996,133.570007,118.768173,4069200
2013-11-06,134.020004,134.580002,132.679993,133.089996,118.772621,3747700
2013-11-07,133.440002,133.929993,131.350006,131.509995,117.362625,3826800
2013-11-08,131.279999,133.899994,130.949997,133.490005,119.129631,4790900
2013-11-11,133.139999,133.330002,132.119995,132.529999,118.272865,2962200
2013-11-12,132.399994,133.080002,131.970001,132.330002,118.094414,2851000
2013-11-13,131.919998,133.490005,131.100006,133.169998,118.844040,3577100
2013-11-14,133.699997,135.380005,133.169998,135.089996,120.557503,3279600
2013-11-15,135.360001,136.570007,134.539993,136.080002,121.440994,4495100
2013-11-18,140.250000,142.000000,137.770004,138.360001,123.475716,8158800
2013-11-19,138.500000,138.789993,136.699997,136.979996,122.244171,3954000
2013-11-20,135.800003,135.889999,132.289993,132.449997,118.201492,8634900
2013-11-21,132.449997,133.289993,131.199997,132.929993,118.629852,4700600
2013-11-22,133.490005,136.119995,133.429993,135.970001,121.342812,4290200
2013-11-25,134.009995,134.860001,130.580002,133.000000,118.692322,7181700
2013-11-26,133.000000,135.440002,132.559998,134.779999,120.280846,4200800
2013-11-27,135.050003,136.300003,134.169998,134.720001,120.227272,3350900
2013-11-29,134.820007,135.229996,134.179993,134.250000,119.807861,1680900
2013-12-02,134.990005,135.460007,133.619995,134.160004,119.727539,3378100
2013-12-03,133.929993,133.929993,131.919998,132.000000,117.799889,5171900
2013-12-04,131.729996,132.149994,130.550003,131.500000,117.353683,5137100
2013-12-05,131.259995,133.100006,131.250000,132.729996,118.451370,3665100
2013-12-06,134.580002,135.750000,134.000000,135.179993,120.637810,5341800
2013-12-09,135.490005,135.949997,134.570007,134.679993,120.191605,3799000
2013-12-10,133.649994,135.039993,132.179993,133.699997,119.317009,4061300
2013-12-11,133.699997,133.809998,132.440002,132.559998,118.299644,3358300
2013-12-12,132.110001,133.649994,131.899994,132.960007,118.656624,3617700
2013-12-13,133.449997,134.250000,133.139999,133.830002,119.433060,3139400
2013-12-16,134.270004,135.199997,133.940002,134.720001,120.227272,3979500
2013-12-17,137.919998,138.100006,135.360001,135.880005,121.262512,6753000
2013-12-18,135.860001,136.440002,132.839996,135.490005,120.914444,5632400
2013-12-19,135.000000,136.229996,133.940002,135.169998,120.628876,3177100
2013-12-20,135.490005,137.850006,135.490005,136.669998,121.967514,5454600
2013-12-23,137.690002,138.089996,136.320007,136.399994,121.726547,2945100
2013-12-24,136.399994,136.979996,136.139999,136.830002,122.110306,1203200
2013-12-26,137.179993,138.589996,137.169998,138.270004,123.395416,2161300
2013-12-27,138.690002,138.880005,136.789993,136.899994,122.172760,2204600
2013-12-30,137.160004,137.369995,135.539993,135.919998,121.298195,2403500
2013-12-31,136.160004,137.050003,135.740005,136.490005,121.806923,2096000
2014-01-02,136.009995,137.250000,135.509995,136.669998,121.967514,3366700
2014-01-03,137.059998,138.500000,137.050003,137.619995,122.815308,3177400
2014-01-06,139.399994,139.759995,137.800003,138.410004,123.520348,4196500
2014-01-07,138.580002,141.100006,138.500000,140.509995,125.394417,4238500
2014-01-08,140.690002,141.399994,139.360001,140.820007,125.671066,4236100
2014-01-09,141.509995,142.520004,140.539993,142.130005,126.840141,4052500
2014-01-10,142.789993,142.800003,140.899994,141.899994,126.634872,4549500
2014-01-13,141.550003,142.139999,140.380005,140.699997,125.563988,4462400
2014-01-14,140.850006,141.699997,137.800003,140.009995,124.948204,8441600
2014-01-15,140.300003,141.080002,140.139999,140.619995,125.492592,3030800
2014-01-16,140.330002,141.449997,140.070007,140.210007,125.126694,3062900
2014-01-17,140.080002,141.000000,139.750000,140.460007,125.349800,3382700
2014-01-21,141.460007,142.460007,140.809998,141.669998,126.429626,3240600
2014-01-22,142.309998,144.570007,141.869995,144.369995,128.839172,4388700
2014-01-23,143.100006,143.889999,141.100006,141.309998,126.108368,4491400
2014-01-24,140.399994,140.470001,136.320007,136.649994,121.949684,5856800
2014-01-27,136.699997,138.460007,135.649994,137.360001,122.583290,5057800
2014-01-28,137.610001,138.089996,136.440002,137.089996,122.342331,4606200
2014-01-29,131.699997,131.759995,128.070007,129.779999,115.818718,15993400
2014-01-30,131.699997,131.699997,125.199997,126.529999,112.918350,10406200
2014-01-31,124.459999,126.870003,123.080002,125.260002,111.784966,9732700
2014-02-03,124.239998,126.519997,122.750000,123.080002,109.839478,9309600
2014-02-04,123.070000,123.800003,120.529999,122.040001,108.911362,9304100
2014-02-05,121.000000,121.940002,118.769997,121.400002,108.340218,9689100
2014-02-06,121.790001,122.720001,121.510002,122.669998,109.473587,6738800
2014-02-07,123.750000,127.209999,123.650002,127.019997,113.355621,8906300
2014-02-10,128.960007,128.970001,126.349998,127.160004,113.480568,8173500
2014-02-11,127.650002,130.690002,127.459999,130.160004,116.157867,7874000
2014-02-12,130.289993,130.550003,128.000000,128.130005,114.991165,5798800
2014-02-13,127.059998,129.940002,127.059998,129.500000,116.220650,4203400
2014-02-14,129.089996,130.410004,128.020004,130.160004,116.812996,4807700
2014-02-18,130.130005,130.940002,129.600006,130.630005,117.234787,4645300
2014-02-19,130.110001,130.500000,128.369995,128.389999,115.224495,5146600
2014-02-20,128.479996,129.990005,127.510002,129.559998,116.274498,4466400
2014-02-21,129.800003,129.800003,128.110001,128.279999,115.125763,5164000
2014-02-24,128.380005,130.800003,128.360001,129.589996,116.301422,4635700
2014-02-25,129.300003,129.750000,126.209999,126.779999,113.779579,7308800
2014-02-26,127.239998,127.940002,126.360001,126.610001,113.627022,4803600
2014-02-27,126.470001,128.559998,126.260002,128.559998,115.377052,4649700
2014-02-28,128.750000,129.949997,128.059998,128.919998,115.700134,4361400
2014-03-03,127.180000,128.440002,126.519997,128.220001,115.071930,4847100
2014-03-04,129.380005,131.000000,129.330002,130.229996,116.875809,5422800
2014-03-05,130.399994,130.800003,128.690002,128.789993,115.583481,4095200
2014-03-06,129.009995,129.369995,128.029999,128.860001,115.646294,3595900
2014-03-07,129.750000,130.160004,128.070007,128.539993,115.359100,4297800
2014-03-10,126.510002,127.279999,124.760002,126.889999,113.878296,7039200
2014-03-11,127.029999,127.269997,125.620003,125.669998,112.783417,4190000
2014-03-12,125.000000,125.199997,123.809998,124.430000,111.670578,5040100
2014-03-13,124.650002,125.610001,121.629997,121.889999,109.391006,6071200
2014-03-14,122.120003,124.279999,121.949997,123.110001,110.485916,5698400
2014-03-17,123.970001,125.820000,123.919998,125.419998,112.559044,4380500
2014-03-18,125.589996,125.820000,123.660004,124.040001,111.320541,4151600
2014-03-19,124.320000,125.199997,121.370003,122.239998,109.705139,6673000
2014-03-20,122.589996,123.900002,121.379997,123.730003,111.042336,4601700
2014-03-21,124.059998,124.449997,122.500000,122.580002,110.010262,7973600
2014-03-24,123.529999,123.949997,122.080002,123.419998,110.764137,4472500
2014-03-25,124.459999,125.000000,123.559998,124.019997,111.302605,3225100
2014-03-26,124.610001,125.320000,123.320000,123.529999,110.862839,3091200
2014-03-27,123.010002,124.300003,121.800003,123.209999,110.575676,3106000
2014-03-28,123.779999,125.190002,123.519997,124.459999,111.697479,2863500
2014-03-31,125.360001,126.040001,124.800003,125.489998,112.621857,2962000
2014-04-01,126.239998,128.399994,126.169998,128.210007,115.062950,3952800
2014-04-02,128.630005,128.770004,127.400002,128.309998,115.152710,2935200
2014-04-03,129.169998,129.169998,128.279999,128.779999,115.574493,3303500
2014-04-04,129.330002,129.919998,127.230003,127.379997,114.318069,4156600
2014-04-07,127.190002,128.179993,124.949997,125.589996,112.711609,3753600
2014-04-08,125.279999,125.730003,124.059998,124.150002,111.419266,4122200
2014-04-09,124.989998,127.019997,124.050003,126.879997,113.869316,3689900
2014-04-10,126.820000,126.860001,123.639999,123.639999,110.961555,3956900
2014-04-11,123.050003,123.449997,121.919998,122.070000,109.552551,3854600
2014-04-14,123.080002,123.769997,122.180000,123.250000,110.611557,3086300
2014-04-15,123.349998,124.550003,122.129997,124.269997,111.526962,2746900
2014-04-16,125.000000,126.040001,124.730003,126.040001,113.115463,2826100
2014-04-17,126.440002,128.369995,125.830002,127.919998,114.802681,3449400
2014-04-21,128.050003,128.440002,127.370003,127.820000,114.712936,2368500
2014-04-22,128.250000,129.130005,127.480003,127.550003,114.470627,5015600
2014-04-23,130.669998,131.500000,129.330002,130.630005,117.234787,7121600
2014-04-24,130.410004,130.619995,128.429993,129.860001,116.543762,4177000
2014-04-25,129.839996,130.000000,128.369995,128.660004,115.466805,2978500
2014-04-28,128.199997,128.869995,125.800003,127.040001,114.012924,4354600
2014-04-29,127.199997,128.570007,126.529999,128.369995,115.206535,3344100
2014-04-30,128.050003,129.500000,127.800003,129.020004,115.789886,2773000
2014-05-01,128.740005,129.600006,128.270004,128.460007,115.287315,2804100
2014-05-02,128.699997,130.399994,128.610001,129.940002,116.615555,3762900
2014-05-05,129.000000,132.380005,128.949997,131.960007,118.428406,4026500
2014-05-06,131.750000,131.919998,130.699997,130.830002,117.414291,4032000
2014-05-07,130.770004,131.100006,129.199997,130.350006,117.639900,2900600
2014-05-08,130.169998,131.270004,130.169998,130.570007,117.838455,2988700
2014-05-09,130.259995,131.330002,129.880005,131.100006,118.316788,2543800
2014-05-12,131.820007,132.990005,131.639999,132.600006,119.670517,3288500
2014-05-13,133.009995,133.830002,132.860001,133.449997,120.437637,3132200
2014-05-14,133.800003,133.970001,132.690002,132.990005,120.022491,2883900
2014-05-15,132.699997,132.860001,130.559998,131.210007,118.416046,3596800
2014-05-16,131.309998,131.710007,130.029999,130.809998,118.055061,2963300
2014-05-19,130.419998,132.070007,130.350006,131.350006,118.542397,2103100
2014-05-20,130.940002,131.600006,129.070007,129.580002,116.944984,2995800
2014-05-21,130.429993,131.429993,130.039993,130.960007,118.190445,2476100
2014-05-22,131.660004,132.479996,131.270004,131.839996,118.984634,2370700
2014-05-23,132.000000,132.580002,131.929993,132.410004,119.499062,1956200
2014-05-27,133.089996,134.210007,132.869995,134.169998,121.087425,3085500
2014-05-28,134.169998,135.149994,134.169998,134.330002,121.231827,2609400
2014-05-29,134.710007,135.199997,134.429993,135.139999,121.962845,2234100
2014-05-30,134.669998,135.440002,134.039993,135.250000,122.062119,2760300
2014-06-02,135.500000,136.029999,134.770004,135.899994,122.648735,2629900
2014-06-03,135.800003,136.529999,135.619995,135.880005,122.630692,2468800
2014-06-04,135.539993,135.550003,134.589996,135.330002,122.134315,2601900
2014-06-05,135.649994,137.380005,135.649994,136.820007,123.479050,3489900
2014-06-06,137.389999,138.250000,137.119995,138.250000,124.769608,2710900
2014-06-09,138.250000,138.389999,137.500000,137.960007,124.507874,2585000
2014-06-10,137.589996,137.750000,136.289993,137.250000,123.867096,2370200
2014-06-11,135.250000,135.529999,133.820007,134.100006,121.024246,5558000
2014-06-12,133.860001,134.169998,131.639999,132.190002,119.300491,3826100
2014-06-13,132.529999,132.949997,131.550003,132.289993,119.390717,2376600
2014-06-16,132.199997,133.130005,131.649994,132.539993,119.616371,2163800
2014-06-17,132.100006,133.050003,131.720001,132.449997,119.535141,2223200
2014-06-18,132.610001,132.669998,131.029999,132.479996,119.562210,2859000
2014-06-19,132.479996,132.929993,131.800003,132.820007,119.869057,2794900
2014-06-20,133.479996,134.080002,132.089996,132.100006,119.219276,8083500
2014-06-23,132.320007,132.529999,130.649994,130.850006,118.091164,4433000
2014-06-24,130.500000,131.240005,129.000000,129.149994,116.556908,4319800
2014-06-25,129.039993,129.139999,126.279999,127.059998,114.670708,7929700
2014-06-26,127.410004,128.440002,126.360001,128.020004,115.537102,3929100
2014-06-27,128.070007,128.779999,127.559998,128.539993,116.006393,3687900
2014-06-30,127.910004,127.910004,126.199997,127.230003,114.824135,5712900
2014-07-01,127.660004,128.330002,127.360001,128.149994,115.654419,3772500
2014-07-02,128.149994,128.500000,127.339996,127.620003,115.176102,2859000
2014-07-03,127.989998,128.619995,127.699997,128.509995,115.979317,1997500
2014-07-07,128.100006,129.500000,127.769997,129.089996,116.502762,3157000
2014-07-08,128.889999,128.970001,125.919998,126.790001,114.427032,5724300
2014-07-09,128.309998,128.320007,125.910004,126.790001,114.427032,8023900
2014-07-10,125.540001,127.629997,125.120003,126.790001,114.427032,3936900
2014-07-11,127.180000,128.240005,126.360001,128.089996,115.600273,3193100
2014-07-14,128.910004,130.580002,128.759995,129.520004,116.890846,5267500
2014-07-15,130.309998,130.309998,128.339996,129.100006,116.511803,4916100
2014-07-16,129.559998,129.559998,127.139999,127.419998,114.995613,5260800
2014-07-17,127.209999,128.179993,125.790001,125.879997,113.605759,5292900
2014-07-18,126.379997,127.820000,126.250000,127.639999,115.194153,3103300
2014-07-21,127.300003,128.419998,126.769997,128.300003,115.789803,2738700
2014-07-22,128.990005,130.009995,128.580002,129.740005,117.089386,5102200
2014-07-23,127.790001,128.399994,126.019997,126.709999,114.354843,12326300
2014-07-24,125.919998,126.050003,124.000000,124.400002,112.270081,10307200
2014-07-25,124.480003,124.529999,122.410004,123.199997,111.187080,6121400
2014-07-28,123.440002,124.559998,122.160004,123.059998,111.060730,4982400
2014-07-29,123.309998,123.629997,122.199997,122.320000,110.392891,4101900
2014-07-30,123.199997,123.800003,121.760002,122.290001,110.365822,4042900
2014-07-31,121.470001,122.050003,120.410004,120.480003,108.732315,5588800
2014-08-01,120.449997,121.709999,119.639999,120.379997,108.642044,5852700
2014-08-04,120.800003,121.190002,119.769997,119.930000,108.235939,4671100
2014-08-05,119.669998,121.980003,119.660004,121.269997,109.445274,6097900
2014-08-06,119.320000,119.360001,117.870003,118.339996,107.447762,6239700
2014-08-07,119.000000,120.220001,118.870003,119.839996,108.809692,4641800
2014-08-08,119.800003,120.650002,119.279999,120.629997,109.526985,4348900
2014-08-11,121.150002,121.760002,120.750000,120.800003,109.681358,2807900
2014-08-12,120.510002,120.940002,120.010002,120.470001,109.381714,2303500
2014-08-13,120.669998,122.230003,120.629997,121.980003,110.752747,2641100
2014-08-14,122.199997,124.690002,122.160004,124.110001,112.686699,4825100
2014-08-15,124.500000,124.500000,122.150002,123.160004,111.824135,4570000
2014-08-18,123.580002,125.239998,123.570000,124.980003,113.476601,4196900
2014-08-19,125.220001,125.790001,125.110001,125.580002,114.021400,2988300
2014-08-20,125.889999,127.709999,125.580002,127.349998,115.628479,4331300
2014-08-21,127.540001,127.779999,126.739998,127.500000,115.764671,2522300
2014-08-22,127.330002,127.800003,126.959999,127.459999,115.728355,2394700
2014-08-25,128.080002,128.490005,127.779999,128.330002,116.518265,2307100
2014-08-26,128.690002,129.130005,128.309998,128.600006,116.763428,2329000
2014-08-27,128.770004,128.990005,127.949997,128.199997,116.400230,3075200
2014-08-28,127.339996,127.750000,126.720001,127.110001,115.410576,3070300
2014-08-29,127.349998,127.349998,126.050003,126.800003,115.129089,3032700
2014-09-02,125.620003,126.260002,124.570000,125.480003,113.930595,4576000
2014-09-03,125.459999,126.239998,125.199997,125.940002,114.348236,3966500
2014-09-04,126.379997,126.750000,125.260002,125.459999,113.912415,2975300
2014-09-05,125.430000,125.550003,124.099998,124.690002,113.213310,4913800
2014-09-08,125.900002,128.250000,125.900002,127.980003,116.200485,6103500
2014-09-09,127.809998,128.679993,127.620003,128.210007,116.409317,4866400
2014-09-10,128.470001,128.470001,127.480003,128.220001,116.418411,3068200
2014-09-11,127.820000,127.989998,127.199997,127.639999,115.891769,1988200
2014-09-12,127.489998,127.559998,126.610001,126.949997,115.265289,3107300
2014-09-15,126.919998,126.949997,125.690002,126.309998,114.684189,3261700
2014-09-16,126.199997,127.699997,125.720001,127.320000,115.601219,3377500
2014-09-17,128.250000,128.380005,127.199997,127.760002,116.000748,3135300
2014-09-18,128.000000,128.899994,128.000000,128.580002,116.745262,2721800
2014-09-19,129.270004,129.699997,128.919998,129.350006,117.444389,5635700
2014-09-22,129.369995,129.869995,128.460007,128.610001,116.772522,2890300
2014-09-23,128.279999,128.539993,127.029999,127.379997,115.655701,2963100
2014-09-24,127.459999,128.800003,127.230003,128.580002,116.745262,2891400
2014-09-25,128.309998,128.490005,127.010002,127.139999,115.437805,2913100
2014-09-26,127.190002,129.000000,126.959999,128.690002,116.845139,2524100
2014-09-29,127.209999,129.529999,127.000000,128.770004,116.917778,3484900
2014-09-30,128.570007,129.389999,127.309998,127.379997,115.655701,4000200
2014-10-01,127.370003,127.370003,124.309998,124.669998,113.195152,5265200
2014-10-02,124.400002,125.550003,123.839996,124.169998,112.741158,3204500
2014-10-03,124.660004,126.870003,124.660004,126.360001,114.729591,3075900
2014-10-06,127.089996,127.190002,125.379997,126.260002,114.638802,2681000
2014-10-07,125.519997,125.519997,123.290001,123.320000,111.969398,3554900
2014-10-08,123.470001,125.089996,122.150002,124.980003,113.476601,3610300
2014-10-09,124.720001,124.750000,122.309998,122.760002,111.460945,4874700
2014-10-10,122.870003,123.360001,121.500000,121.500000,110.316917,4214200
2014-10-13,122.050003,123.190002,120.260002,120.449997,109.363556,3878600
2014-10-14,121.839996,123.370003,120.720001,122.290001,111.034203,3768200
2014-10-15,121.059998,121.120003,116.320000,120.190002,109.127480,7819000
2014-10-16,118.910004,121.300003,118.389999,120.290001,109.218292,4492500
2014-10-17,122.050003,123.870003,121.779999,123.239998,111.896759,4872400
2014-10-20,123.389999,124.720001,123.000000,124.309998,112.868294,3676300
2014-10-21,125.209999,127.239998,124.930000,127.120003,115.419640,5204500
2014-10-22,127.989998,128.000000,121.339996,121.449997,110.271523,13844400
2014-10-23,121.269997,122.879997,121.059998,122.029999,110.798119,7799700
2014-10-24,122.199997,122.839996,121.260002,122.239998,110.988808,4013300
2014-10-27,122.129997,122.230003,121.260002,122.120003,110.879845,2940300
2014-10-28,122.500000,123.790001,121.959999,123.610001,112.232712,4159000
2014-10-29,124.480003,124.480003,122.559998,123.080002,111.751488,3241700
2014-10-30,122.519997,124.120003,122.010002,123.820000,112.423378,2569900
2014-10-31,125.029999,125.889999,124.730003,124.910004,113.413063,4665300
2014-11-03,125.349998,126.250000,124.889999,126.029999,114.429947,3902700
2014-11-04,125.940002,126.709999,125.260002,125.839996,114.257454,3684600
2014-11-05,126.010002,126.250000,124.199997,124.220001,113.444672,3334000
2014-11-06,124.480003,124.800003,123.370003,124.580002,113.773430,2341900
2014-11-07,124.930000,124.940002,124.169998,124.449997,113.654694,2366700
2014-11-10,124.870003,124.989998,123.800003,124.639999,113.828232,2622700
2014-11-11,124.580002,125.730003,124.449997,125.360001,114.485771,3053500
2014-11-12,124.510002,126.190002,124.470001,125.870003,114.951530,3075000
2014-11-13,125.739998,128.960007,125.739998,128.529999,117.380798,5813900
2014-11-14,128.529999,129.779999,127.849998,128.860001,117.682167,6235600
2014-11-17,128.699997,129.169998,127.550003,128.419998,117.280334,3752900
2014-11-18,128.550003,131.330002,128.039993,130.660004,119.326019,5701200
2014-11-19,130.589996,132.740005,130.250000,131.610001,120.193634,5037600
2014-11-20,130.940002,132.399994,130.710007,131.699997,120.275803,4052800
2014-11-21,132.720001,133.360001,132.509995,132.779999,121.262123,4227100
2014-11-24,133.449997,134.740005,133.440002,134.610001,122.933380,4161500
2014-11-25,134.740005,135.600006,134.740005,134.809998,123.116035,4301600
2014-11-26,134.949997,135.300003,134.389999,134.779999,123.088638,2660100
2014-11-28,135.509995,135.779999,134.039993,134.360001,122.705063,2090000
2014-12-01,134.309998,134.399994,132.199997,132.389999,120.905960,3473700
2014-12-02,132.500000,132.960007,131.750000,132.279999,120.805504,2904900
2014-12-03,132.649994,133.279999,131.429993,131.970001,120.522377,4627500
2014-12-04,131.970001,132.520004,130.919998,131.320007,119.928772,2785500
2014-12-05,131.720001,132.619995,131.529999,132.210007,120.741585,2580200
2014-12-08,132.020004,132.070007,129.869995,130.279999,118.978981,2862400
2014-12-09,128.559998,129.720001,127.739998,129.660004,118.412773,3084600
2014-12-10,128.809998,128.979996,124.540001,124.639999,113.828232,6651700
2014-12-11,125.220001,125.650002,123.000000,123.370003,112.668396,6702100
2014-12-12,122.239998,122.269997,120.580002,120.769997,110.293922,6661100
2014-12-15,121.400002,122.879997,120.599998,122.080002,111.490295,6238800
2014-12-16,125.040001,125.540001,123.910004,124.250000,113.472046,7919900
2014-12-17,124.279999,125.379997,123.419998,125.059998,114.211784,6726500
2014-12-18,127.129997,127.349998,124.769997,125.669998,114.768875,6485900
2014-12-19,125.629997,127.419998,125.500000,126.230003,115.280296,7680800
2014-12-22,126.730003,128.539993,126.730003,128.220001,117.097679,3189300
2014-12-23,129.039993,130.649994,128.649994,130.029999,118.750679,4028900
2014-12-24,130.300003,132.330002,130.169998,131.240005,119.855713,2116900
2014-12-26,131.289993,131.929993,130.229996,131.630005,120.211891,2242900
2014-12-29,131.720001,132.729996,131.169998,132.289993,120.814613,2718400
2014-12-30,132.000000,132.279999,131.520004,131.830002,120.394547,2447700
2014-12-31,132.250000,132.300003,129.860001,129.979996,118.705017,2712400
2015-01-02,131.070007,131.839996,129.089996,129.949997,118.677612,4294200
2015-01-05,129.660004,129.919998,128.610001,129.050003,117.855705,5024800
2015-01-06,129.050003,129.619995,126.180000,127.529999,116.467552,4992800
2015-01-07,128.740005,129.970001,128.720001,129.509995,118.275772,3573200
2015-01-08,130.600006,131.990005,130.399994,131.800003,120.367149,4503400
2015-01-09,131.589996,132.259995,130.929993,131.539993,120.129669,3047300
2015-01-12,132.240005,132.259995,129.949997,130.869995,119.517815,3552700
2015-01-13,132.000000,133.910004,130.169998,131.169998,119.791779,3441700
2015-01-14,129.029999,131.289993,128.949997,130.380005,119.070343,3559500
2015-01-15,130.380005,131.830002,129.699997,130.139999,118.851135,3902000
2015-01-16,129.750000,131.020004,129.110001,130.779999,119.435631,4425600
2015-01-20,131.449997,132.000000,129.449997,131.220001,119.837433,3018600
2015-01-21,130.869995,132.869995,130.570007,132.410004,120.924240,2898000
2015-01-22,133.380005,136.210007,133.050003,135.639999,123.874031,4971300
2015-01-23,135.570007,135.779999,134.600006,134.619995,122.942513,3815600
2015-01-26,135.000000,135.250000,133.529999,134.070007,122.440231,3900500
2015-01-27,132.399994,132.990005,130.740005,132.479996,120.988152,5243900
2015-01-28,136.300003,141.889999,135.919998,139.639999,127.527084,14355100
2015-01-29,139.690002,148.250000,139.630005,147.779999,134.960968,15161700
2015-01-30,146.220001,146.850006,144.369995,145.369995,132.760010,11271100
2015-02-02,143.720001,146.589996,143.050003,146.259995,133.572800,6790900
2015-02-03,146.369995,148.000000,146.179993,147.339996,134.559143,5976100
2015-02-04,145.970001,148.389999,145.929993,147.220001,134.449554,4766200
2015-02-05,147.259995,148.869995,146.460007,148.600006,135.709839,4252600
2015-02-06,148.619995,148.889999,147.699997,148.000000,135.161911,4374100
2015-02-09,146.160004,148.160004,145.630005,147.580002,134.778305,4202900
2015-02-10,148.199997,148.710007,147.500000,148.039993,135.198395,4034900
2015-02-11,147.509995,148.380005,147.089996,147.919998,135.924377,3272700
2015-02-12,148.259995,148.570007,147.679993,148.089996,136.080566,2998900
2015-02-13,147.979996,149.839996,147.639999,149.729996,137.587570,3418600
2015-02-17,148.720001,149.960007,148.520004,149.919998,137.762177,3622400
2015-02-18,149.699997,151.619995,149.369995,151.169998,138.910782,3719600
2015-02-19,151.050003,154.240005,151.000000,153.750000,141.281555,4384000
2015-02-20,153.800003,158.830002,153.800003,158.309998,145.471786,9366000
2015-02-23,155.000000,155.919998,153.360001,154.740005,142.191299,8653700
2015-02-24,153.500000,154.779999,153.210007,154.380005,141.860458,4387700
2015-02-25,154.309998,154.740005,152.139999,153.009995,140.601578,4800500
2015-02-26,152.309998,152.380005,150.809998,151.729996,139.425354,5149300
2015-02-27,151.000000,151.889999,150.449997,150.850006,138.616730,4330700
2015-03-02,150.850006,154.149994,150.750000,153.800003,141.327530,4622800
2015-03-03,154.710007,156.910004,154.169998,155.570007,142.953949,8656600
2015-03-04,154.619995,155.220001,154.000000,154.350006,141.832901,4458500
2015-03-05,154.860001,155.979996,154.309998,154.470001,141.943192,3327200
2015-03-06,153.919998,155.029999,152.809998,153.119995,140.702652,3556200
2015-03-09,153.300003,155.610001,153.149994,154.750000,142.200470,3433000
2015-03-10,153.300003,154.130005,152.419998,152.419998,140.059433,3825600
2015-03-11,152.509995,152.690002,151.169998,151.169998,138.910782,3395400
2015-03-12,151.279999,152.919998,151.279999,152.039993,139.710220,2965100
2015-03-13,151.889999,152.389999,149.789993,151.570007,139.278366,3569600
2015-03-16,152.389999,154.190002,152.270004,153.669998,141.208023,2742900
2015-03-17,152.880005,155.000000,152.729996,154.509995,141.979919,2923700
2015-03-18,154.039993,155.990005,152.110001,155.729996,143.100983,4044700
2015-03-19,154.910004,155.330002,153.660004,154.110001,141.612381,2539000
2015-03-20,155.039993,155.490005,154.479996,154.500000,141.970749,4464300
2015-03-23,154.979996,154.979996,152.809998,152.809998,140.417801,3026900
2015-03-24,151.960007,152.619995,151.350006,151.649994,139.351868,3319300
2015-03-25,151.399994,152.039993,148.130005,148.229996,136.209198,3747900
2015-03-26,147.830002,148.850006,145.960007,148.169998,136.154068,3627400
2015-03-27,148.589996,149.309998,147.490005,148.850006,136.778915,2456700
2015-03-30,150.080002,153.169998,149.979996,152.699997,140.316711,3738700
2015-03-31,152.229996,152.250000,149.940002,150.080002,137.909164,2975600
2015-04-01,149.970001,150.020004,146.820007,148.639999,136.585938,4157900
2015-04-02,149.139999,150.500000,148.309998,149.279999,137.174057,2934200
2015-04-06,148.149994,151.449997,148.000000,150.929993,138.690247,3371500
2015-04-07,151.270004,153.500000,151.139999,152.320007,139.967514,4299500
2015-04-08,152.190002,153.500000,152.190002,153.360001,140.923187,2763400
2015-04-09,152.619995,153.669998,151.630005,153.419998,140.978333,3966800
2015-04-10,153.550003,154.960007,153.250000,154.380005,141.860458,3183000
2015-04-13,153.789993,155.500000,152.960007,153.240005,140.812943,3034000
2015-04-14,152.929993,153.539993,151.589996,153.210007,140.785355,2845800
2015-04-15,154.369995,154.369995,152.210007,152.429993,140.068619,3687400
2015-04-16,151.660004,152.529999,151.050003,151.970001,139.645920,2559900
2015-04-17,150.880005,151.429993,149.440002,149.600006,137.468109,4671600
2015-04-20,151.059998,153.550003,151.009995,152.669998,140.289124,3164000
2015-04-21,153.509995,154.089996,152.000000,153.330002,140.895645,3772900
2015-04-22,152.360001,153.000000,148.850006,151.190002,138.929169,8468900
2015-04-23,150.830002,150.830002,149.729996,149.869995,137.716202,4080800
2015-04-24,149.539993,149.860001,148.020004,148.399994,136.365417,4889200
2015-04-27,148.589996,149.000000,147.710007,147.800003,135.814072,4603500
2015-04-28,147.899994,148.369995,146.009995,147.509995,135.547577,4352900
2015-04-29,147.070007,147.460007,145.899994,146.149994,134.297913,4761700
2015-04-30,145.250000,145.940002,142.750000,143.339996,131.715775,4925300
2015-05-01,144.410004,145.070007,143.839996,144.669998,132.937912,3556800
2015-05-04,143.850006,144.789993,143.179993,144.020004,132.340622,8977500
2015-05-05,143.759995,144.699997,142.270004,142.910004,131.320633,3670400
2015-05-06,143.009995,143.149994,140.429993,141.039993,130.432816,5313500
2015-05-07,140.559998,142.179993,140.479996,141.490005,130.848999,4868700
2015-05-08,143.000000,145.940002,142.979996,145.460007,134.520432,7068000
2015-05-11,145.550003,146.789993,145.130005,145.889999,134.918076,3969000
2015-05-12,144.940002,146.080002,144.009995,145.429993,134.492661,3543900
2015-05-13,145.410004,146.529999,145.100006,145.619995,134.668365,2679400
2015-05-14,146.880005,148.250000,146.649994,147.960007,136.832397,3495800
2015-05-15,148.050003,148.300003,146.339996,146.880005,135.833618,3368900
2015-05-18,146.880005,147.240005,146.300003,146.710007,135.676407,2149600
2015-05-19,147.179993,147.770004,146.729996,147.050003,135.990829,2366400
2015-05-20,147.139999,147.339996,146.100006,146.419998,135.408188,2104000
2015-05-21,146.559998,147.710007,146.100006,147.350006,136.268295,2676400
2015-05-22,147.259995,147.270004,144.800003,144.809998,133.919296,3878000
2015-05-26,144.339996,144.429993,142.160004,142.800003,132.060486,3476800
2015-05-27,143.419998,143.750000,142.580002,143.000000,132.245453,2837100
2015-05-28,142.509995,145.289993,141.580002,142.330002,131.625809,3103200
2015-05-29,142.259995,142.259995,140.320007,140.520004,129.951920,6178000
2015-06-01,141.449997,142.050003,140.270004,141.250000,130.627045,3897000
2015-06-02,141.440002,144.460007,140.630005,143.250000,132.476608,4977400
2015-06-03,143.779999,145.059998,142.889999,143.809998,132.994492,3755800
2015-06-04,143.220001,143.229996,140.949997,141.190002,130.571564,3239500
2015-06-05,141.039993,141.369995,140.050003,140.729996,130.146149,3215600
2015-06-08,140.240005,141.350006,140.199997,140.639999,130.062912,2728700
2015-06-09,140.500000,140.990005,139.899994,140.100006,129.563522,2647600
2015-06-10,140.679993,142.600006,140.289993,141.619995,130.969208,2784400
2015-06-11,142.009995,143.979996,141.750000,142.960007,132.208435,2924500
2015-06-12,142.619995,142.860001,141.089996,142.800003,132.060486,2395200
2015-06-15,142.039993,142.589996,141.279999,142.289993,131.588837,2631400
2015-06-16,141.419998,143.580002,141.419998,142.339996,131.635056,2450600
2015-06-17,142.869995,144.000000,141.899994,143.429993,132.643066,2775400
2015-06-18,143.910004,146.529999,143.910004,145.380005,134.446442,3728900
2015-06-19,145.190002,146.100006,144.949997,145.130005,134.215240,4837300
2015-06-22,146.070007,146.210007,145.089996,145.699997,134.742355,2086100
2015-06-23,146.330002,146.449997,143.800003,144.429993,133.567886,2864400
2015-06-24,143.759995,144.800003,142.509995,143.000000,132.245453,3989100
2015-06-25,143.270004,143.759995,142.339996,142.449997,131.736755,2153800
2015-06-26,143.029999,143.039993,141.889999,142.479996,131.764511,3153300
2015-06-29,140.960007,141.320007,138.580002,138.729996,128.296555,3755500
2015-06-30,140.059998,140.059998,138.440002,138.720001,128.287308,3434800
2015-07-01,140.479996,141.139999,140.020004,140.729996,130.146149,3260900
2015-07-02,141.289993,141.520004,139.880005,140.210007,129.665237,2116500
2015-07-06,139.020004,140.729996,139.000000,140.520004,129.951920,2093400
2015-07-07,140.800003,143.440002,140.139999,143.149994,132.384155,3712000
2015-07-08,142.500000,143.149994,141.520004,141.919998,131.246643,3386500
2015-07-09,143.889999,144.199997,142.729996,142.800003,132.060486,2486800
2015-07-10,144.139999,145.190002,143.869995,144.479996,133.614136,2192100
2015-07-13,145.960007,146.750000,145.600006,146.619995,135.593155,2194200
2015-07-14,146.759995,148.300003,146.449997,147.750000,136.638214,3388800
2015-07-15,147.750000,147.750000,146.479996,146.889999,135.842880,2653900
2015-07-16,147.789993,148.800003,147.770004,148.490005,137.322540,2509600
2015-07-17,147.250000,147.440002,146.020004,146.839996,135.796616,3127100
2015-07-20,147.110001,147.199997,145.910004,146.720001,135.685669,3016100
2015-07-21,146.589996,146.589996,144.220001,145.000000,134.095016,4452600
2015-07-22,148.899994,149.179993,145.110001,146.470001,135.454453,6238400
2015-07-23,147.000000,147.949997,145.789993,146.110001,135.121536,4116000
2015-07-24,145.809998,146.470001,143.979996,144.059998,133.225708,2455000
2015-07-27,143.220001,143.350006,140.800003,141.029999,130.423599,3532100
2015-07-28,141.610001,142.169998,139.509995,141.809998,131.144928,4138200
2015-07-29,142.479996,144.610001,142.369995,144.139999,133.299698,3260400
2015-07-30,143.350006,143.919998,142.210007,143.009995,132.254684,2644000
2015-07-31,143.759995,144.919998,143.289993,144.169998,133.327438,3163500
2015-08-03,144.440002,144.750000,142.589996,143.690002,132.883530,3088000
2015-08-04,143.550003,144.869995,143.039993,143.539993,132.744781,1973000
2015-08-05,143.899994,145.600006,143.770004,144.949997,134.904037,2926100
2015-08-06,144.699997,145.250000,143.419998,143.820007,133.852341,2457000
2015-08-07,143.220001,143.839996,141.699997,142.419998,132.549347,2953200
2015-08-10,143.789993,146.770004,143.779999,145.860001,135.750946,3432600
2015-08-11,144.139999,144.929993,143.279999,144.050003,134.066391,2811200
2015-08-12,142.550003,143.009995,139.860001,142.429993,132.558670,4355800
2015-08-13,142.029999,145.449997,141.529999,144.809998,134.773727,5129500
2015-08-14,144.610001,145.470001,143.759995,145.089996,135.034317,2924000
2015-08-17,144.600006,144.860001,142.929993,144.440002,134.429352,3746000
2015-08-18,144.389999,145.210007,143.820007,144.600006,134.578278,1955500
2015-08-19,143.419998,144.479996,142.320007,142.720001,132.828583,2967700
2015-08-20,141.619995,141.899994,136.899994,137.020004,127.523621,6601400
2015-08-21,134.880005,135.089996,131.460007,131.710007,122.581642,7957600
2015-08-24,123.639999,135.500000,115.139999,127.190002,118.374908,9425800
2015-08-25,130.000000,130.720001,125.430000,125.489998,116.792725,7159100
2015-08-26,129.339996,129.759995,125.230003,129.339996,120.375893,6428400
2015-08-27,131.080002,132.360001,129.460007,131.869995,122.730545,5754600
2015-08-28,131.429993,133.720001,130.860001,133.240005,124.005600,4508800
2015-08-31,132.369995,132.699997,130.389999,130.679993,121.623016,4150800
2015-09-01,128.160004,128.990005,126.940002,127.440002,118.607582,5772700
2015-09-02,128.710007,130.669998,127.739998,130.630005,121.576485,4809300
2015-09-03,132.309998,132.350006,130.479996,131.020004,121.939468,3379500
2015-09-04,129.550003,130.490005,128.660004,129.759995,120.766785,3746700
2015-09-08,132.270004,133.990005,132.000000,133.820007,124.545425,3505800
2015-09-09,135.589996,136.250000,132.210007,132.649994,123.456490,4695100
2015-09-10,132.339996,134.570007,132.270004,133.550003,124.294128,2932200
2015-09-11,133.160004,134.860001,132.889999,134.669998,125.336494,2628200
2015-09-14,134.720001,135.130005,133.729996,134.429993,125.113121,2389600
2015-09-15,134.520004,137.000000,134.520004,136.300003,126.853531,3737200
2015-09-16,136.259995,137.429993,136.009995,137.199997,127.691147,2505000
2015-09-17,137.360001,139.910004,136.940002,137.449997,127.923820,3405600
2015-09-18,135.750000,137.690002,134.399994,136.089996,126.658073,7240000
2015-09-21,136.419998,137.449997,134.940002,136.020004,126.592941,2460900
2015-09-22,134.490005,134.490005,132.520004,133.990005,124.703621,3465000
2015-09-23,134.660004,135.000000,131.610001,131.669998,122.544411,4907500
2015-09-24,130.720001,130.770004,127.180000,129.750000,120.757492,5297800
2015-09-25,131.570007,131.729996,129.279999,131.009995,121.930145,4149900
2015-09-28,130.440002,130.479996,128.029999,128.130005,119.249756,4160000
2015-09-29,128.110001,129.149994,127.470001,128.750000,119.826782,2935100
2015-09-30,130.270004,131.410004,129.619995,130.949997,121.874298,3025400
2015-10-01,131.320007,131.789993,128.979996,130.610001,121.557846,2878400
2015-10-02,129.000000,132.589996,128.559998,132.559998,123.372734,3020500
2015-10-05,132.279999,134.149994,131.350006,134.020004,124.731544,4587500
2015-10-06,134.100006,135.539993,133.669998,134.630005,125.299286,3059600
2015-10-07,135.690002,137.729996,135.259995,137.020004,127.523621,3263800
2015-10-08,136.660004,139.350006,136.070007,139.039993,129.403610,2835700
2015-10-09,139.039993,140.240005,138.360001,139.699997,130.017883,3065700
2015-10-12,139.929993,141.070007,139.320007,140.679993,130.929962,1942200
2015-10-13,139.440002,140.500000,139.429993,140.289993,130.566986,2339700
2015-10-14,139.750000,140.889999,133.580002,134.220001,124.917694,8752300
2015-10-15,135.160004,137.669998,135.000000,137.389999,127.867966,6368300
2015-10-16,137.429993,138.729996,136.520004,137.600006,128.063431,3173700
2015-10-19,137.600006,138.610001,136.389999,138.419998,128.826614,4022000
2015-10-20,137.940002,139.929993,137.580002,138.880005,129.254715,4192900
2015-10-21,141.699997,142.149994,136.610001,141.190002,131.404633,8927200
2015-10-22,142.000000,147.360001,141.929993,146.309998,136.169769,6976300
2015-10-23,147.369995,147.750000,144.910004,146.699997,136.532715,4691200
2015-10-26,146.210007,147.229996,145.550003,146.699997,136.532715,3143400
2015-10-27,146.220001,148.990005,146.009995,148.460007,138.170731,3411300
2015-10-28,147.990005,148.809998,145.139999,147.880005,137.630951,4408300
2015-10-29,147.539993,147.869995,145.830002,147.179993,136.979477,3058900
2015-10-30,147.399994,149.600006,147.089996,148.070007,137.807785,3938000
2015-11-02,148.380005,149.470001,147.559998,148.399994,138.114899,2516700
2015-11-03,148.029999,148.460007,147.139999,148.089996,137.826385,2470000
2015-11-04,147.259995,148.759995,147.179993,148.190002,138.772217,2755100
2015-11-05,148.190002,148.839996,146.490005,147.970001,138.566193,2545400
2015-11-06,146.580002,148.169998,146.009995,147.940002,138.538101,2294100
2015-11-09,146.899994,147.479996,145.179993,145.979996,136.702652,2980800
2015-11-10,145.279999,146.139999,144.029999,145.149994,135.925400,2524100
2015-11-11,145.199997,145.830002,144.520004,144.990005,135.775589,1579600
2015-11-12,143.000000,144.399994,141.589996,142.539993,133.481262,3796800
2015-11-13,142.330002,143.889999,141.860001,142.589996,133.528107,3063800
2015-11-16,142.580002,144.500000,142.330002,144.419998,135.241806,2378300
2015-11-17,145.289993,146.589996,144.639999,146.080002,136.796280,3038300
2015-11-18,146.240005,148.389999,146.229996,148.279999,138.856522,3101100
2015-11-19,148.789993,149.479996,148.259995,149.240005,139.755478,2492600
2015-11-20,149.839996,150.589996,149.119995,149.399994,139.905304,3210200
2015-11-23,149.389999,149.699997,147.710007,148.339996,138.912674,3183700
2015-11-24,147.490005,149.589996,147.220001,148.649994,139.202988,2626600
2015-11-25,149.039993,149.149994,147.380005,147.429993,138.060501,1852200
2015-11-27,147.500000,147.970001,146.679993,146.949997,137.611023,1282100
2015-11-30,146.970001,147.259995,145.360001,145.449997,136.206345,3176700
2015-12-01,146.539993,149.399994,146.470001,147.740005,138.350830,3444300
2015-12-02,147.550003,148.029999,146.380005,146.960007,137.620392,2648800
2015-12-03,147.050003,147.630005,144.279999,145.559998,136.309357,3008700
2015-12-04,146.350006,148.779999,146.089996,148.500000,139.062515,3892900
2015-12-07,148.300003,149.500000,147.320007,148.449997,139.015686,3417700
2015-12-08,146.820007,147.229996,144.649994,144.990005,135.775589,5021100
2015-12-09,144.600006,145.690002,142.270004,144.240005,135.073257,5124600
2015-12-10,144.619995,147.460007,144.160004,146.410004,137.105331,3273400
2015-12-11,145.000000,145.699997,143.720001,144.619995,135.429092,3684700
2015-12-14,144.500000,144.500000,141.460007,143.000000,133.912064,4795300
2015-12-15,145.660004,147.100006,144.119995,146.529999,137.217712,4705300
2015-12-16,147.979996,148.610001,146.229996,148.110001,138.697311,3316000
2015-12-17,148.850006,149.800003,145.500000,145.559998,136.309357,3448800
2015-12-18,144.410004,144.410004,138.889999,139.580002,130.709396,9952000
2015-12-21,140.210007,141.940002,139.699997,140.899994,131.945511,3746400
2015-12-22,141.720001,142.789993,140.500000,142.380005,133.331467,2778900
2015-12-23,143.080002,144.070007,142.809998,144.059998,134.904678,3353900
2015-12-24,143.600006,143.929993,143.360001,143.529999,134.408356,1185000
2015-12-28,143.259995,144.669998,142.850006,144.539993,135.354202,1930000
2015-12-29,145.059998,147.559998,145.000000,147.350006,137.985626,3133600
2015-12-30,147.220001,148.000000,146.009995,146.410004,137.105331,1619000
2015-12-31,145.960007,145.960007,144.500000,144.589996,135.401001,2105200
2016-01-04,141.380005,141.699997,139.429993,140.500000,131.570923,5719500
2016-01-05,140.990005,141.699997,139.770004,141.070007,132.104721,3357000
2016-01-06,138.830002,139.350006,137.259995,138.830002,130.007050,4254100
2016-01-07,136.380005,136.669998,132.509995,133.009995,124.556938,7013700
2016-01-08,133.699997,135.100006,129.800003,129.990005,121.728874,5776900
2016-01-11,130.850006,131.000000,128.919998,130.210007,121.934891,5543900
2016-01-12,131.580002,132.169998,129.639999,131.919998,123.536201,4171500
2016-01-13,132.699997,132.880005,127.750000,128.119995,119.977715,5073100
2016-01-14,129.589996,130.070007,125.809998,129.199997,120.989059,6517800
2016-01-15,125.800003,127.139999,124.510002,125.629997,117.645943,6678400
2016-01-19,127.059998,127.220001,125.110001,126.059998,118.048615,5478900
2016-01-20,124.000000,124.940002,119.820000,122.139999,114.377747,7636600
2016-01-21,122.769997,125.980003,121.540001,123.400002,115.557686,5546200
2016-01-22,124.419998,125.680000,123.320000,124.610001,116.690773,5259900
2016-01-25,124.599998,125.239998,123.400002,124.010002,116.128899,4551600
2016-01-26,124.980003,128.149994,124.500000,128.009995,119.874687,5411700
2016-01-27,119.900002,120.110001,115.019997,116.580002,109.171097,27945900
2016-01-28,117.099998,118.029999,115.059998,118.010002,110.510223,10708400
2016-01-29,118.139999,120.180000,118.019997,120.129997,112.495483,9195700
2016-02-01,119.639999,122.290001,118.650002,121.559998,113.834610,6812800
2016-02-02,119.690002,120.279999,117.370003,117.519997,110.051369,8646700
2016-02-03,118.800003,122.129997,117.150002,121.870003,114.124908,7361900
2016-02-04,121.120003,124.910004,121.120003,123.610001,115.754326,5784100
2016-02-05,123.629997,124.169998,121.029999,122.559998,114.771065,6186700
2016-02-08,120.669998,121.330002,117.250000,119.470001,111.877434,6453600
2016-02-09,117.980003,119.980003,117.430000,118.879997,111.324928,4106400
2016-02-10,118.160004,119.459999,116.269997,116.360001,109.973427,4888600
2016-02-11,113.180000,113.400002,102.099998,108.440002,102.488121,33735600
2016-02-12,105.120003,109.839996,105.000000,108.629997,102.667702,12973400
2016-02-16,109.730003,112.760002,109.000000,112.599998,106.419777,7587700
2016-02-17,114.029999,116.830002,113.989998,116.339996,109.954506,6619600
2016-02-18,116.910004,118.230003,116.680000,117.570000,111.117004,6489000
2016-02-19,117.309998,117.330002,114.419998,115.160004,108.839279,6920600
2016-02-22,115.160004,118.970001,115.160004,117.389999,110.946892,4930300
2016-02-23,116.970001,118.500000,115.930000,116.900002,110.483772,3762300
2016-02-24,115.370003,115.959999,112.510002,115.589996,109.245674,6859300
2016-02-25,116.349998,117.599998,115.779999,116.820000,110.408165,4660100
2016-02-26,117.750000,119.449997,117.500000,118.160004,111.674622,3757800
2016-02-29,118.120003,119.470001,117.500000,118.180000,111.693527,4569700
2016-03-01,119.010002,120.989998,118.250000,119.959999,113.375824,4595400
2016-03-02,119.629997,120.750000,118.500000,119.650002,113.082832,4292500
2016-03-03,118.839996,119.730003,118.250000,119.610001,113.045029,3397900
2016-03-04,120.169998,122.230003,119.849998,121.070000,114.424896,4421500
2016-03-07,120.800003,123.320000,120.570000,122.900002,116.154449,4504700
2016-03-08,121.980003,122.970001,121.309998,122.349998,115.634651,5257300
2016-03-09,122.379997,123.260002,122.029999,122.860001,116.116653,3380300
2016-03-10,123.139999,123.820000,121.430000,122.940002,116.192261,4109100
2016-03-11,124.129997,125.500000,123.860001,124.629997,117.789505,3260100
2016-03-14,123.930000,127.000000,123.860001,126.339996,119.405632,4283400
2016-03-15,125.550003,126.370003,124.209999,126.360001,119.424553,3717500
2016-03-16,126.239998,128.130005,125.750000,127.570000,120.568138,5154700
2016-03-17,128.070007,131.600006,127.419998,130.699997,123.526344,5801000
2016-03-18,131.240005,134.679993,131.009995,133.960007,126.607437,9108400
2016-03-21,133.460007,136.779999,133.389999,135.860001,128.403137,5671400
2016-03-22,135.139999,136.100006,134.779999,135.119995,127.703751,4989000
2016-03-23,134.990005,135.000000,132.740005,132.860001,125.567795,4361200
2016-03-24,131.610001,132.229996,130.029999,132.119995,124.868401,4573100
2016-03-28,132.529999,132.619995,130.550003,131.289993,124.083954,3352200
2016-03-29,129.830002,130.929993,128.179993,130.880005,123.696480,4873800
2016-03-30,131.479996,132.729996,128.020004,128.580002,121.522705,5949000
2016-03-31,128.089996,128.380005,125.250000,126.940002,119.972717,8758300
2016-04-01,126.230003,127.089996,125.110001,126.959999,119.991631,5328000
2016-04-04,126.540001,127.970001,125.879997,126.339996,119.405632,5036500
2016-04-05,126.150002,128.589996,125.580002,127.029999,120.057770,4660100
2016-04-06,127.160004,128.039993,125.750000,127.930000,120.908379,3988100
2016-04-07,127.000000,128.940002,126.559998,127.000000,120.029411,4596300
2016-04-08,128.039993,130.020004,127.610001,127.879997,120.861130,3939800
2016-04-11,128.250000,129.899994,127.680000,127.910004,120.889473,3611700
2016-04-12,127.620003,130.380005,126.680000,129.470001,122.363861,4212200
2016-04-13,130.490005,131.500000,129.809998,131.139999,123.942200,3514800
2016-04-14,131.500000,131.949997,130.529999,130.850006,123.668129,4522300
2016-04-15,130.949997,131.600006,130.679993,131.130005,123.932747,5008700
2016-04-18,131.130005,132.250000,130.320007,131.970001,124.726631,3056000
2016-04-19,132.570007,133.850006,132.210007,132.679993,125.397659,2931000
2016-04-20,128.550003,131.360001,128.490005,130.570007,123.403473,6799000
2016-04-21,130.979996,132.639999,130.300003,130.740005,123.564148,4799600
2016-04-22,131.089996,131.830002,130.500000,131.050003,123.857140,3858100
2016-04-25,130.449997,131.000000,129.309998,130.750000,123.573608,4600100
2016-04-26,131.250000,133.270004,131.059998,133.240005,125.926949,6103400
2016-04-27,133.199997,137.889999,131.949997,137.080002,129.556168,6930800
2016-04-28,136.289993,137.720001,134.500000,134.800003,127.401306,4938800
2016-04-29,134.419998,135.229996,132.809998,134.800003,127.401306,3716700
2016-05-02,134.380005,135.000000,133.229996,134.009995,126.654671,3703800
2016-05-03,132.699997,133.309998,131.460007,132.490005,125.218086,4028700
2016-05-04,131.589996,132.309998,130.529999,130.889999,123.705925,3340500
2016-05-05,131.729996,132.639999,131.119995,132.080002,124.830605,4199200
2016-05-06,132.110001,133.630005,131.759995,133.259995,125.945839,2466000
2016-05-09,132.800003,133.809998,131.820007,132.100006,124.849503,3431100
2016-05-10,133.179993,135.240005,132.789993,134.720001,127.325699,3350300
2016-05-11,133.809998,134.990005,132.940002,133.000000,126.725418,3284100
2016-05-12,133.490005,135.039993,133.490005,134.419998,128.078445,4591300
2016-05-13,133.740005,134.940002,131.910004,132.119995,125.886925,3965900
2016-05-16,131.630005,134.410004,131.550003,134.139999,127.811646,3165400
2016-05-17,133.619995,134.490005,131.960007,132.559998,126.306168,4032000
2016-05-18,132.449997,133.179993,130.339996,130.990005,124.810257,4060400
2016-05-19,130.240005,130.429993,127.089996,128.080002,122.037537,5061600
2016-05-20,129.130005,129.250000,127.209999,127.389999,121.380089,3297700
2016-05-23,127.400002,128.410004,125.879997,127.580002,121.561127,3973500
2016-05-24,127.760002,128.809998,126.320000,127.500000,121.484909,5102400
2016-05-25,128.000000,129.779999,127.370003,128.860001,122.780739,4656700
2016-05-26,128.479996,129.899994,128.320007,129.309998,123.209511,2570900
2016-05-27,128.960007,129.699997,128.830002,129.220001,123.123741,3043700
2016-05-31,129.880005,129.979996,126.040001,126.150002,120.198601,6894400
2016-06-01,126.000000,126.500000,124.779999,126.410004,120.446327,4679600
2016-06-02,126.650002,127.029999,125.320000,126.849998,120.865555,4781400
2016-06-03,126.419998,127.580002,125.949997,127.379997,121.370560,5485600
2016-06-06,127.599998,132.080002,127.449997,131.899994,125.677315,6996200
2016-06-07,132.410004,133.389999,131.820007,131.929993,125.705894,4424000
2016-06-08,132.520004,133.529999,132.039993,133.000000,126.725418,3883700
2016-06-09,132.100006,133.820007,131.919998,133.100006,126.820717,3811200
2016-06-10,131.759995,132.119995,130.369995,131.139999,124.953186,3828600
2016-06-13,130.789993,131.509995,129.880005,129.919998,123.790726,3645000
2016-06-14,129.630005,130.600006,128.500000,130.500000,124.343376,3717000
2016-06-15,130.880005,131.759995,129.970001,130.160004,124.019409,3324800
2016-06-16,129.320007,129.889999,126.900002,129.369995,123.266685,4066100
2016-06-17,129.830002,129.990005,128.809998,129.820007,123.695450,6739600
2016-06-20,131.360001,133.899994,131.210007,132.750000,126.487213,4331900
2016-06-21,133.190002,133.279999,131.490005,131.520004,125.315239,2841100
2016-06-22,132.100006,133.160004,131.580002,131.770004,125.553459,2640800
2016-06-23,133.910004,134.550003,132.729996,133.550003,127.249466,4113900
2016-06-24,128.139999,129.389999,126.209999,126.519997,120.551132,9707300
2016-06-27,125.680000,125.750000,122.349998,122.699997,116.911346,6169000
2016-06-28,124.500000,124.760002,122.699997,123.889999,118.045204,4438100
2016-06-29,125.489998,127.320000,124.160004,126.989998,120.998955,4916700
2016-06-30,127.080002,129.869995,127.080002,129.869995,123.743073,4110800
2016-07-01,129.539993,130.339996,129.160004,129.690002,123.571579,3247900
2016-07-05,128.429993,129.000000,126.629997,126.970001,120.979904,4829400
2016-07-06,127.250000,127.309998,123.959999,126.959999,120.970360,3981700
2016-07-07,126.919998,128.169998,126.260002,127.169998,121.170456,3049400
2016-07-08,128.600006,130.460007,127.660004,130.089996,123.952713,3597800
2016-07-11,130.839996,133.250000,130.800003,132.039993,125.810707,3929900
2016-07-12,132.800003,133.000000,130.330002,130.809998,124.638741,4318400
2016-07-13,131.279999,131.389999,129.369995,130.110001,123.971779,3061400
2016-07-14,131.630005,131.919998,130.199997,131.550003,125.343826,3984100
2016-07-15,131.800003,132.750000,131.449997,132.389999,126.144196,2944900
2016-07-18,132.380005,133.889999,131.949997,133.429993,127.135139,3338400
2016-07-19,132.910004,135.669998,132.830002,134.660004,128.307129,3390000
2016-07-20,134.550003,135.179993,134.039993,134.720001,128.364273,2669400
2016-07-21,134.759995,134.979996,133.029999,133.529999,127.230415,2814100
2016-07-22,131.750000,133.490005,130.570007,133.470001,127.173241,4844900
2016-07-25,133.179993,133.300003,132.380005,132.940002,126.668274,3078600
2016-07-26,132.899994,134.970001,132.509995,134.850006,128.488144,4667300
2016-07-27,136.139999,139.449997,135.710007,135.960007,129.545776,5650800
2016-07-28,135.399994,135.860001,132.550003,133.009995,126.734947,5142400
2016-07-29,133.050003,133.800003,132.300003,133.660004,127.354294,3559100
2016-08-01,133.210007,134.229996,132.699997,133.210007,126.925507,3067300
2016-08-02,132.949997,133.399994,131.350006,131.600006,125.391479,3156800
2016-08-03,131.770004,132.449997,131.619995,131.869995,125.648720,2359300
2016-08-04,132.000000,132.550003,130.960007,131.210007,125.019867,3008500
2016-08-05,132.210007,132.440002,131.009995,131.729996,125.515320,3119500
2016-08-08,132.139999,132.949997,131.750000,132.190002,125.953629,2443800
2016-08-09,132.729996,132.990005,132.229996,132.619995,126.363350,3013900
2016-08-10,132.100006,133.529999,131.710007,132.279999,127.083893,2642200
2016-08-11,132.850006,133.559998,132.300003,133.000000,127.775597,2260000
2016-08-12,132.899994,133.779999,132.630005,133.100006,127.871681,2522600
2016-08-15,133.699997,135.000000,133.550003,134.660004,129.370407,2812600
2016-08-16,134.149994,135.210007,133.399994,135.000000,129.697021,2759200
2016-08-17,134.850006,134.990005,134.110001,134.720001,129.428040,2854600
2016-08-18,134.720001,135.960007,134.529999,135.000000,129.697021,2030800
2016-08-19,134.500000,135.000000,133.839996,134.440002,129.159042,1922600
2016-08-22,134.300003,135.669998,133.839996,134.990005,129.687439,2520500
2016-08-23,135.320007,136.369995,133.639999,134.139999,128.870819,3481900
2016-08-24,134.009995,134.649994,133.070007,133.289993,128.054214,2135900
2016-08-25,133.300003,133.300003,132.419998,132.979996,127.756378,1921400
2016-08-26,133.500000,134.080002,131.820007,132.229996,127.035835,1973700
2016-08-29,132.720001,133.580002,132.320007,132.899994,127.679535,2360400
2016-08-30,133.190002,133.440002,130.679993,130.809998,125.671623,3437300
2016-08-31,130.830002,130.830002,129.139999,129.449997,124.365036,3639200
2016-09-01,130.029999,130.029999,128.360001,129.899994,124.797379,2807200
2016-09-02,130.889999,131.960007,130.580002,131.160004,126.007889,2631000
2016-09-06,131.630005,132.990005,131.270004,132.990005,127.766006,4151800
2016-09-07,132.479996,133.080002,132.000000,132.639999,127.429726,2198700
2016-09-08,132.320007,132.910004,131.509995,132.899994,127.679535,2614300
2016-09-09,131.940002,131.940002,128.520004,128.529999,123.481186,4892900
2016-09-12,126.879997,130.679993,126.309998,130.119995,125.008743,6381100
2016-09-13,129.220001,130.020004,128.259995,128.759995,123.702148,4552400
2016-09-14,128.910004,129.309998,127.339996,127.669998,122.654968,3955400
2016-09-15,127.570000,128.460007,126.940002,127.769997,122.751038,3462400
2016-09-16,127.709999,127.709999,126.339996,126.699997,121.723076,8035600
2016-09-19,127.500000,128.300003,127.269997,127.480003,122.472443,3166400
2016-09-20,127.949997,128.500000,127.570000,127.790001,122.770264,2639300
2016-09-21,128.179993,130.630005,128.179993,130.559998,125.431450,3227800
2016-09-22,131.449997,132.479996,131.169998,131.869995,126.689995,3253100
2016-09-23,131.250000,132.289993,131.009995,131.779999,126.603531,2330700
2016-09-26,131.070007,131.580002,130.429993,130.570007,125.441063,2219900
2016-09-27,130.289993,131.740005,129.860001,131.320007,126.161591,1939000
2016-09-28,131.589996,132.360001,130.589996,132.229996,127.035835,1773000
2016-09-29,131.800003,132.779999,130.679993,131.029999,125.882980,2199400
2016-09-30,132.089996,132.630005,131.270004,131.740005,126.565109,3118900
2016-10-03,131.279999,132.720001,130.740005,132.380005,127.179962,2439400
2016-10-04,132.770004,133.229996,131.690002,132.250000,127.055069,2829200
2016-10-05,132.929993,134.899994,132.550003,134.660004,129.370407,3137500
2016-10-06,134.830002,135.000000,133.679993,134.419998,129.139816,3614900
2016-10-07,133.929993,134.660004,132.539993,133.850006,128.592239,4302000
2016-10-10,134.589996,136.869995,134.589996,135.839996,130.504044,3314900
2016-10-11,134.940002,135.690002,133.270004,133.740005,128.486557,3607300
2016-10-12,133.759995,134.279999,133.000000,133.160004,127.929321,2264200
2016-10-13,132.419998,133.929993,131.389999,133.380005,128.140701,3544200
2016-10-14,134.559998,135.250000,133.479996,133.500000,128.255966,2317400
2016-10-17,133.500000,135.380005,133.330002,134.000000,128.736328,2435100
2016-10-18,135.029999,135.740005,134.919998,135.100006,129.793121,2239800
2016-10-19,135.419998,136.949997,135.330002,136.179993,130.830673,2265900
2016-10-20,135.919998,136.750000,135.369995,135.839996,130.504044,2539700
2016-10-21,134.720001,136.190002,134.250000,135.630005,130.302307,2205000
2016-10-24,136.410004,138.880005,136.410004,137.449997,132.050797,3814200
2016-10-25,137.529999,139.419998,137.350006,139.020004,133.559143,5209100
2016-10-26,138.429993,146.190002,136.720001,145.539993,139.822998,13272000
2016-10-27,145.830002,146.229996,141.779999,143.309998,137.680603,7857100
2016-10-28,143.720001,144.000000,142.169998,143.009995,137.392395,4636100
2016-10-31,143.050003,143.350006,142.149994,142.429993,136.835190,3075900
2016-11-01,142.949997,143.899994,141.809998,142.410004,136.815964,3245000
2016-11-02,142.000000,142.869995,140.589996,140.750000,135.221191,2782100
2016-11-03,140.759995,140.899994,139.350006,140.020004,134.519852,2280800
2016-11-04,139.110001,140.850006,138.800003,139.539993,134.058685,2951500
2016-11-07,141.500000,143.100006,141.490005,143.029999,137.411606,3228200
2016-11-08,141.919998,143.309998,141.289993,142.199997,137.663315,2777300
2016-11-09,141.600006,145.850006,141.539993,145.089996,140.461105,5494400
2016-11-10,146.509995,149.339996,146.389999,147.690002,142.978165,6508300
2016-11-11,147.119995,148.600006,146.559998,148.520004,143.781693,3585200
2016-11-14,148.210007,150.089996,148.210007,149.990005,145.204803,4435400
2016-11-15,148.440002,149.449997,147.190002,148.110001,143.384766,3856600
2016-11-16,147.300003,148.410004,146.139999,146.440002,141.768051,3531800
2016-11-17,146.830002,147.119995,145.000000,145.330002,140.693451,3656100
2016-11-18,145.179993,146.600006,144.460007,146.350006,141.680923,2214400
2016-11-21,147.210007,148.490005,146.520004,147.020004,142.329544,2825900
2016-11-22,147.899994,149.759995,147.880005,149.520004,144.749771,3770000
2016-11-23,149.610001,150.809998,149.029999,149.740005,144.962769,2857500
2016-11-25,150.000000,150.149994,149.029999,150.039993,145.253189,962300
2016-11-28,149.000000,150.089996,148.320007,149.770004,144.991806,4728800
2016-11-29,149.830002,152.110001,149.110001,151.639999,146.802124,3945600
2016-11-30,151.589996,153.080002,150.559998,150.559998,145.756607,3991000
2016-12-01,150.740005,152.690002,150.389999,152.389999,147.528214,2843900
2016-12-02,152.449997,152.490005,151.119995,152.250000,147.392685,2105600
2016-12-05,153.240005,153.750000,151.850006,152.160004,147.305557,2855900
2016-12-06,150.839996,152.639999,150.020004,152.240005,147.383011,3476300
2016-12-07,151.669998,154.309998,151.070007,154.139999,149.222397,2955800
2016-12-08,154.600006,155.970001,154.139999,155.389999,150.432510,2928400
2016-12-09,155.649994,156.880005,155.419998,156.490005,151.497421,2707900
2016-12-12,156.000000,158.000000,154.300003,157.160004,152.146027,4250600
2016-12-13,159.100006,160.070007,154.880005,156.660004,151.661987,5650400
2016-12-14,156.229996,156.369995,154.179993,154.470001,149.541855,3640200
2016-12-15,153.929993,155.240005,153.059998,153.770004,148.864182,2889300
2016-12-16,153.880005,156.000000,153.139999,154.500000,149.570892,5378000
2016-12-19,155.160004,157.100006,155.070007,156.179993,151.197296,3002800
2016-12-20,156.960007,157.889999,155.949997,156.389999,151.400604,2270100
2016-12-21,156.690002,158.500000,156.649994,157.479996,152.455811,2326000
2016-12-22,158.500000,158.990005,156.250000,157.460007,152.436493,3958500
2016-12-23,158.270004,158.270004,156.509995,157.809998,152.775299,2132600
2016-12-27,158.410004,158.479996,156.910004,157.479996,152.455811,1858700
2016-12-28,157.119995,157.350006,156.009995,156.100006,151.119888,1810400
2016-12-29,156.000000,156.750000,155.160004,155.690002,150.722931,1791300
2016-12-30,156.490005,156.789993,154.960007,155.679993,150.713242,2027700
2017-01-03,156.300003,157.139999,155.210007,156.970001,151.962097,3426100
2017-01-04,157.809998,159.229996,157.809998,158.619995,153.559448,3189800
2017-01-05,158.410004,159.699997,157.399994,158.710007,153.646591,2796000
2017-01-06,158.979996,159.660004,157.889999,159.100006,154.024170,2426000
2017-01-09,159.000000,159.240005,158.169998,158.320007,153.269043,2819400
2017-01-10,158.960007,159.940002,158.570007,159.070007,153.995102,2988300
2017-01-11,159.539993,159.699997,158.279999,159.399994,154.314560,2416500
2017-01-12,159.149994,159.160004,156.669998,158.289993,153.239975,3020500
2017-01-13,158.740005,159.580002,158.339996,158.830002,153.762772,2435400
2017-01-17,158.199997,159.039993,157.229996,157.669998,152.639755,2756000
2017-01-18,157.550003,159.050003,156.750000,158.320007,153.269043,2087000
2017-01-19,158.869995,159.869995,157.910004,159.000000,153.927338,3144000
2017-01-20,159.809998,160.300003,158.229996,159.529999,154.440414,3384500
2017-01-23,158.940002,159.500000,157.289993,157.839996,152.804337,3931200
2017-01-24,158.580002,160.929993,157.839996,160.550003,155.427887,3927500
2017-01-25,163.589996,168.649994,163.240005,167.360001,162.020615,7480000
2017-01-26,167.250000,170.000000,167.250000,169.119995,163.724457,5436800
2017-01-27,169.210007,169.800003,167.009995,167.699997,162.349777,4883200
2017-01-30,165.919998,165.990005,163.820007,165.570007,160.287750,5456300
2017-01-31,164.960007,165.100006,163.220001,163.419998,158.206314,5350700
2017-02-01,164.250000,165.809998,163.119995,163.970001,158.738770,3138000
2017-02-02,163.220001,163.970001,160.820007,162.259995,157.083313,3791700
2017-02-03,162.990005,163.559998,162.309998,162.399994,157.218857,2981700
2017-02-06,162.419998,164.080002,162.380005,163.979996,158.748459,3110500
2017-02-07,165.000000,167.419998,164.869995,166.500000,161.188065,4243200
2017-02-08,165.000000,165.240005,163.690002,163.809998,159.947998,3041600
2017-02-09,164.669998,165.089996,164.059998,164.279999,160.406921,3451100
2017-02-10,165.250000,166.449997,164.470001,166.229996,162.310944,2689700
2017-02-13,166.449997,169.070007,166.350006,168.029999,164.068512,3765000
2017-02-14,167.699997,168.800003,167.220001,168.500000,164.527435,2579300
2017-02-15,168.419998,169.949997,168.350006,169.300003,165.308563,4033200
2017-02-16,169.740005,170.809998,168.750000,170.809998,166.782974,3070100
2017-02-17,170.410004,173.250000,170.399994,172.710007,168.638184,4982900
2017-02-21,173.919998,176.169998,173.679993,175.559998,171.420975,4231700
2017-02-22,174.979996,175.750000,174.009995,175.360001,171.225677,2832100
2017-02-23,175.970001,177.000000,175.699997,176.860001,172.690323,3502600
2017-02-24,176.750000,178.800003,176.100006,177.440002,173.256653,4197200
2017-02-27,178.000000,179.880005,177.550003,179.429993,175.199738,2892600
2017-02-28,180.339996,181.929993,179.669998,180.229996,175.980865,4785100
2017-03-01,181.850006,184.800003,181.820007,183.910004,179.574127,5461800
2017-03-02,184.000000,185.710007,182.970001,182.990005,178.675812,4909000
2017-03-03,182.990005,183.580002,181.449997,182.179993,177.884903,3917500
2017-03-06,181.399994,182.300003,180.429993,180.929993,176.664368,4244000
2017-03-07,180.639999,182.839996,180.619995,182.020004,177.728683,2452000
2017-03-08,182.399994,182.690002,181.490005,181.740005,177.455292,2321700
2017-03-09,181.429993,182.589996,179.580002,180.570007,176.312866,3100500
2017-03-10,181.899994,181.970001,177.919998,178.699997,174.486938,4595600
2017-03-13,177.160004,179.190002,177.070007,179.050003,174.828705,3499000
2017-03-14,178.539993,179.690002,177.710007,178.729996,174.516235,2346700
2017-03-15,179.000000,179.240005,177.970001,178.710007,174.496719,3569000
2017-03-16,179.820007,180.000000,177.639999,178.190002,173.988968,3100700
2017-03-17,178.309998,180.380005,178.169998,180.100006,175.853958,5037400
2017-03-20,180.100006,180.149994,179.139999,179.389999,175.160675,2062200
2017-03-21,179.990005,180.250000,175.500000,175.960007,171.811554,3239600
2017-03-22,175.960007,177.100006,175.500000,176.979996,172.807510,2505700
2017-03-23,177.339996,177.850006,176.589996,177.259995,173.080902,2006400
2017-03-24,176.850006,177.529999,174.770004,175.820007,171.674850,2386800
2017-03-27,174.369995,176.440002,173.750000,176.100006,171.948273,2750700
2017-03-28,176.289993,177.679993,175.000000,177.360001,173.178543,2412600
2017-03-29,177.399994,177.990005,176.970001,177.630005,173.442184,1640600
2017-03-30,177.250000,178.490005,177.220001,177.979996,173.783936,1737200
2017-03-31,178.020004,178.179993,176.809998,176.860001,172.690323,2032700
2017-04-03,177.080002,177.729996,175.500000,176.649994,172.485275,2934800
2017-04-04,176.880005,178.789993,176.759995,178.699997,174.486938,2326500
2017-04-05,179.000000,180.179993,176.889999,177.080002,172.905151,2567200
2017-04-06,177.559998,178.220001,177.119995,177.369995,173.188293,2343600
2017-04-07,178.389999,179.089996,177.259995,178.850006,174.633438,2806900
2017-04-10,179.000000,179.970001,177.479996,177.559998,173.373825,2309300
2017-04-11,177.500000,178.600006,176.960007,178.570007,174.360031,2266300
2017-04-12,178.250000,178.250000,175.940002,176.050003,171.899429,2922700
2017-04-13,175.740005,176.880005,175.559998,175.619995,171.479568,2024100
2017-04-17,175.839996,179.080002,175.649994,179.020004,174.799408,2450200
2017-04-18,178.589996,179.970001,177.119995,177.850006,173.656998,2960200
2017-04-19,178.470001,179.899994,178.160004,178.399994,174.194031,2124500
2017-04-20,178.740005,179.820007,178.350006,179.300003,175.072815,2335200
2017-04-21,179.419998,180.929993,179.419998,180.380005,176.127365,3146600
2017-04-24,181.750000,182.460007,181.610001,182.059998,177.767731,3141900
2017-04-25,182.529999,183.850006,182.529999,183.509995,179.183548,3735400
2017-04-26,182.309998,183.000000,180.110001,181.710007,177.425995,4471600
2017-04-27,182.589996,183.759995,182.589996,183.220001,178.900375,3129100
2017-04-28,183.419998,184.929993,183.020004,184.830002,180.472443,2171700
2017-05-01,184.229996,184.490005,181.800003,182.389999,178.089966,3516700
2017-05-02,182.539993,183.910004,182.529999,183.440002,179.115204,1979800
2017-05-03,183.449997,183.750000,182.250000,183.389999,179.066376,2983200
2017-05-04,183.330002,184.250000,182.179993,183.070007,178.753922,2289300
2017-05-05,183.160004,185.070007,183.160004,185.009995,180.648178,2636900
2017-05-08,185.380005,186.389999,185.000000,186.020004,181.634384,1963400
2017-05-09,186.110001,187.210007,186.050003,186.910004,182.503418,3004000
2017-05-10,185.139999,185.649994,178.179993,183.179993,180.230576,7060100
2017-05-11,182.899994,184.330002,182.169998,183.940002,180.978363,2883800
2017-05-12,183.710007,183.979996,182.630005,183.250000,180.299469,3479200
2017-05-15,183.300003,184.110001,182.279999,182.389999,179.453308,3365000
2017-05-16,182.729996,183.149994,182.039993,182.699997,179.758331,2156100
2017-05-17,182.699997,182.699997,178.679993,178.779999,175.901443,2535700
2017-05-18,178.479996,178.500000,175.470001,177.399994,174.543655,3118100
2017-05-19,177.729996,181.419998,176.770004,180.759995,177.849533,4038900
2017-05-22,183.779999,185.320007,182.520004,183.669998,180.712708,2946800
2017-05-23,184.000000,184.460007,182.860001,183.490005,180.535599,2123800
2017-05-24,183.460007,185.399994,183.460007,185.250000,182.267258,2424700
2017-05-25,185.630005,187.419998,185.589996,187.070007,184.057968,2363300
2017-05-26,186.729996,187.610001,186.270004,186.589996,183.585678,1735800
2017-05-30,186.759995,187.419998,186.190002,186.880005,183.871002,2231600
2017-05-31,187.369995,188.259995,186.720001,187.630005,184.608948,5186700
2017-06-01,187.410004,187.910004,184.529999,187.320007,184.303925,2870200
2017-06-02,187.820007,191.699997,187.649994,190.229996,187.167068,3034300
2017-06-05,190.070007,190.740005,188.809998,188.949997,185.907684,2522100
2017-06-06,188.410004,188.860001,186.690002,186.750000,183.743118,2725000
2017-06-07,186.850006,188.539993,186.389999,188.100006,185.071365,2383500
2017-06-08,188.100006,191.070007,187.699997,189.929993,186.871902,2331300
2017-06-09,190.000000,190.990005,189.250000,190.029999,186.970291,3344900
2017-06-12,190.300003,190.529999,188.050003,190.000000,186.940781,2730100
2017-06-13,190.050003,191.559998,189.350006,191.089996,188.013229,1882700
2017-06-14,191.050003,193.380005,190.820007,192.380005,189.282471,2210000
2017-06-15,191.429993,195.550003,191.369995,195.449997,192.303024,2894100
2017-06-16,196.009995,197.949997,195.809998,196.440002,193.277084,6939100
2017-06-19,197.880005,199.470001,197.000000,199.080002,195.874588,2726400
2017-06-20,198.750000,201.240005,198.309998,198.330002,195.136658,3077400
2017-06-21,199.580002,199.710007,197.559998,199.169998,195.963135,3151100
2017-06-22,199.250000,200.410004,199.179993,199.440002,196.228790,3339300
2017-06-23,199.259995,202.350006,198.679993,202.229996,198.973862,4310100
2017-06-26,202.770004,204.389999,199.940002,199.979996,196.760086,3077600
2017-06-27,199.800003,200.919998,198.889999,198.889999,195.687653,2296900
2017-06-28,199.500000,200.949997,199.300003,199.619995,196.405884,2096800
2017-06-29,199.619995,199.759995,196.449997,197.460007,194.280670,2428900
2017-06-30,198.500000,199.440002,197.389999,197.750000,194.566010,2225600
2017-07-03,198.070007,199.440002,197.750000,198.589996,195.392456,1511200
2017-07-05,199.300003,202.139999,198.860001,201.809998,198.560623,2716700
2017-07-06,201.639999,202.490005,200.779999,201.479996,198.235931,2737400
2017-07-07,202.240005,203.279999,201.259995,202.369995,199.111618,3090400
2017-07-10,202.320007,204.580002,202.190002,203.960007,200.676025,2701900
2017-07-11,204.000000,206.660004,204.000000,206.270004,202.948822,2815800
2017-07-12,206.949997,208.610001,206.320007,206.440002,203.116089,2817400
2017-07-13,206.800003,207.000000,205.350006,206.229996,202.909454,1943600
2017-07-14,206.800003,208.729996,206.740005,208.509995,205.152756,3229000
2017-07-17,208.729996,209.720001,208.559998,209.000000,205.634857,2416000
2017-07-18,209.110001,209.190002,207.529999,208.240005,204.887115,1942300
2017-07-19,209.429993,210.929993,208.990005,210.880005,207.484589,2258400
2017-07-20,211.100006,211.250000,209.919998,210.279999,206.894241,2235100
2017-07-21,209.990005,212.199997,209.410004,212.139999,208.724289,2098400
2017-07-24,212.000000,212.639999,211.399994,212.179993,208.763641,2392700
2017-07-25,213.220001,214.000000,211.949997,212.460007,209.039154,2889000
2017-07-26,223.479996,233.979996,223.020004,233.449997,229.691177,14140000
2017-07-27,237.130005,242.679993,236.699997,241.000000,237.119614,10860600
2017-07-28,240.820007,242.000000,238.550003,241.270004,237.385284,4602400
2017-07-31,241.850006,246.490005,241.820007,242.460007,238.556107,5777300
2017-08-01,243.380005,243.990005,239.160004,239.440002,235.584747,5018400
2017-08-02,239.059998,241.559998,237.880005,237.949997,234.118729,5119900
2017-08-03,237.059998,239.589996,236.039993,238.250000,234.413895,5112700
2017-08-04,238.580002,239.729996,236.380005,237.710007,233.882599,5590500
2017-08-07,237.600006,241.429993,237.210007,240.229996,236.362015,3674700
2017-08-08,239.910004,240.520004,238.929993,239.500000,235.643784,4871500
2017-08-09,238.009995,238.699997,234.100006,234.309998,231.912354,5680400
2017-08-10,234.029999,236.160004,231.910004,232.880005,230.496994,6817700
2017-08-11,232.759995,235.399994,230.940002,234.880005,232.476517,3461700
2017-08-14,236.009995,237.479996,235.720001,237.149994,234.723267,2943900
2017-08-15,237.210007,239.639999,236.009995,239.169998,236.722626,2851100
2017-08-16,239.699997,240.259995,237.410004,237.589996,235.158768,3012700
2017-08-17,237.380005,237.600006,235.250000,235.589996,233.179245,2810900
2017-08-18,235.000000,237.259995,234.570007,235.770004,233.357407,2939500
2017-08-21,235.770004,236.940002,234.350006,235.679993,233.268326,2545400
2017-08-22,236.160004,239.889999,236.110001,239.750000,237.296677,2915700
2017-08-23,239.360001,239.360001,237.190002,238.089996,235.653656,2518300
2017-08-24,238.520004,238.899994,236.600006,238.740005,236.297012,2553100
2017-08-25,239.000000,239.089996,235.600006,235.889999,233.476181,2270300
2017-08-28,236.220001,237.550003,234.610001,237.179993,234.752975,2395000
2017-08-29,237.210007,241.169998,236.080002,240.490005,238.029114,3535500
2017-08-30,240.990005,241.440002,239.000000,240.460007,237.999435,2801100
2017-08-31,241.000000,241.100006,238.410004,239.660004,237.207611,3075800
2017-09-01,239.660004,242.529999,239.169998,240.330002,237.870743,3270700
2017-09-05,240.300003,240.360001,236.229996,237.000000,234.574814,3866600
2017-09-06,237.529999,237.860001,234.339996,234.619995,232.219162,4252700
2017-09-07,234.750000,236.539993,234.289993,236.309998,233.891876,2994500
2017-09-08,235.750000,239.389999,235.210007,238.779999,236.336594,3404200
2017-09-11,239.500000,241.850006,239.309998,240.589996,238.128082,3628100
2017-09-12,240.589996,241.710007,238.949997,240.580002,238.118195,2702700
2017-09-13,240.000000,243.479996,237.089996,241.929993,239.454361,4529100
2017-09-14,243.000000,245.610001,242.500000,245.229996,242.720596,4995200
2017-09-15,247.360001,249.949997,246.210007,249.000000,246.452026,9033300
2017-09-18,249.970001,253.789993,248.910004,253.080002,250.490280,5193000
2017-09-19,253.080002,255.169998,251.630005,252.460007,249.876617,4124700
2017-09-20,253.259995,256.690002,252.250000,255.460007,252.845932,3853200
2017-09-21,256.130005,256.989990,254.419998,256.040009,253.419998,2809400
2017-09-22,256.309998,259.299988,256.130005,256.450012,253.825806,3475600
2017-09-25,256.970001,256.970001,251.500000,254.320007,251.717606,3479200
2017-09-26,254.600006,256.480011,253.539993,253.699997,251.103928,2173600
2017-09-27,255.270004,258.769989,253.970001,255.279999,252.667755,3840100
2017-09-28,254.110001,255.800003,251.169998,254.270004,251.668106,2586100
2017-09-29,253.850006,255.259995,252.589996,254.210007,251.608719,2531100
2017-10-02,254.649994,255.990005,253.529999,255.990005,253.370514,2685100
2017-10-03,255.990005,258.260010,254.690002,255.460007,252.845932,3163400
2017-10-04,256.119995,257.130005,254.070007,255.759995,253.142853,3031000
2017-10-05,255.279999,258.989990,254.779999,258.890015,256.240845,3940200
2017-10-06,258.000000,258.899994,257.059998,258.579987,255.933990,2736400
2017-10-09,259.000000,259.000000,257.109985,258.390015,255.745941,2146100
2017-10-10,259.739990,261.059998,257.200012,260.929993,258.259949,2740700
2017-10-11,261.320007,261.649994,259.019989,261.440002,258.764740,2890300
2017-10-12,260.950012,262.980011,260.000000,261.910004,259.229950,2577900
2017-10-13,262.899994,263.790009,260.739990,260.739990,258.071899,2243900
2017-10-16,261.500000,262.000000,259.690002,259.750000,257.092010,1818900
2017-10-17,256.489990,259.049988,256.260010,258.619995,255.973587,2515900
2017-10-18,258.470001,260.730011,256.660004,260.040009,257.379059,2051700
2017-10-19,258.980011,259.100006,256.029999,259.040009,256.389282,2589200
2017-10-20,260.359985,264.829987,259.440002,264.750000,262.040863,3955900
2017-10-23,265.130005,265.980011,262.140015,262.320007,259.635742,3302400
2017-10-24,263.239990,267.209991,263.239990,266.000000,263.278076,4401600
2017-10-25,264.779999,266.000000,254.500000,258.420013,255.775650,7895300
2017-10-26,259.720001,261.440002,257.309998,259.269989,256.616913,3419100
2017-10-27,258.260010,259.500000,255.800003,256.459991,253.835678,2899200
2017-10-30,255.449997,260.410004,255.330002,259.250000,256.597168,3025900
2017-10-31,259.339996,259.929993,257.470001,257.980011,255.340149,2742800
2017-11-01,258.290009,259.410004,256.239990,258.500000,255.854813,2929500
2017-11-02,258.309998,263.239990,258.000000,262.630005,259.942535,2529900
2017-11-03,262.420013,263.790009,260.079987,261.750000,259.071564,2610800
2017-11-06,262.619995,265.839996,262.529999,264.070007,261.367828,2911600
2017-11-07,264.070007,267.279999,264.070007,266.130005,263.406738,3205400
2017-11-08,266.140015,267.619995,265.290009,265.570007,262.852478,2841800
2017-11-09,265.010010,266.750000,259.559998,262.700012,261.409607,3215900
2017-11-10,262.109985,262.500000,259.600006,260.850006,259.568695,1740600
2017-11-13,261.670013,263.359985,260.489990,262.420013,261.130981,2604100
2017-11-14,262.000000,262.399994,260.200012,261.760010,260.474213,2358200
2017-11-15,261.420013,264.769989,260.149994,262.859985,261.568787,2510500
2017-11-16,263.760010,265.040009,263.339996,263.700012,262.404694,2710200
2017-11-17,262.820007,263.739990,262.029999,262.260010,260.971771,1724800
2017-11-20,263.000000,265.619995,262.760010,264.630005,263.330109,2447400
2017-11-21,266.239990,267.000000,264.709991,266.989990,265.678528,2267100
2017-11-22,267.000000,267.480011,264.529999,265.149994,263.847565,1471400
2017-11-24,265.260010,266.570007,264.529999,265.880005,264.573975,788900
2017-11-27,265.380005,266.839996,264.720001,265.579987,264.275452,1772200
2017-11-28,267.000000,268.010010,265.230011,267.989990,266.673615,2262100
2017-11-29,269.480011,269.679993,266.149994,269.299988,267.977173,3029100
2017-11-30,269.910004,277.040009,269.429993,276.799988,275.440338,4820300
2017-12-01,277.510010,278.730011,270.600006,271.380005,270.046967,4592500
2017-12-04,276.160004,281.829987,276.000000,277.970001,276.604584,5523000
2017-12-05,279.010010,279.440002,274.859985,275.540009,274.186523,2806100
2017-12-06,276.579987,279.140015,274.000000,278.269989,276.903107,2538100
2017-12-07,282.809998,284.790009,277.799988,281.970001,280.584930,4264400
2017-12-08,285.010010,287.320007,283.559998,285.899994,284.495636,4440500
2017-12-11,286.209991,286.489990,279.899994,283.160004,281.769104,4065200
2017-12-12,291.339996,292.799988,287.720001,289.940002,288.515808,5517600
2017-12-13,290.500000,295.850006,289.700012,291.839996,290.406464,5003300
2017-12-14,293.350006,296.820007,292.600006,293.880005,292.436432,3913400
2017-12-15,295.869995,297.369995,293.019989,293.940002,292.496155,6933500
2017-12-18,296.000000,297.140015,294.519989,296.140015,294.685364,2901600
2017-12-19,296.500000,297.579987,294.179993,297.250000,295.789886,2728400
2017-12-20,298.700012,299.329987,297.109985,297.899994,296.436676,2533700
2017-12-21,298.049988,298.390015,294.130005,295.029999,293.580780,5398300
2017-12-22,296.329987,296.519989,293.010010,295.100006,293.650452,2257400
2017-12-26,295.540009,297.440002,294.649994,295.359985,293.909149,1394700
2017-12-27,296.410004,296.799988,294.799988,295.619995,294.167877,1447800
2017-12-28,295.809998,296.989990,294.739990,296.350006,294.894318,1436800
2017-12-29,296.940002,297.299988,294.829987,294.910004,293.461395,1824600
2018-01-02,295.750000,296.989990,295.399994,296.839996,295.381897,2978900
2018-01-03,295.940002,298.500000,295.470001,297.799988,296.337158,3211200
2018-01-04,297.940002,298.420013,295.470001,296.670013,295.212738,4171700
2018-01-05,296.769989,308.890015,296.720001,308.839996,307.322937,6177700
2018-01-08,308.660004,310.859985,305.750000,310.149994,308.626526,4124900
2018-01-09,310.589996,319.910004,310.489990,318.429993,316.865845,5641300
2018-01-10,317.489990,322.149994,315.500000,320.260010,318.686859,4479300
2018-01-11,322.130005,328.399994,321.190002,328.119995,326.508240,4635300
2018-01-12,330.380005,336.880005,330.380005,336.209991,334.558502,6559300
2018-01-16,339.899994,347.730011,331.329987,335.160004,333.513672,12305500
2018-01-17,337.730011,352.230011,336.410004,351.010010,349.285828,9699900
2018-01-18,350.700012,350.829987,339.149994,340.160004,338.489105,9458600
2018-01-19,341.670013,344.000000,335.750000,337.730011,336.071045,7264400
2018-01-22,335.290009,341.380005,332.040009,338.000000,336.339722,6792900
2018-01-23,338.339996,338.940002,334.809998,335.589996,333.941559,4537800
2018-01-24,336.200012,338.989990,334.140015,334.690002,333.045990,4205400
2018-01-25,336.209991,343.619995,335.299988,343.109985,341.424591,4747500
2018-01-26,344.329987,345.980011,341.250000,343.220001,341.534088,5236300
2018-01-29,341.230011,344.480011,340.100006,340.820007,339.145874,3324900
2018-01-30,339.170013,339.980011,334.160004,337.709991,336.051147,4983100
2018-01-31,360.500000,360.970001,351.619995,354.369995,352.629303,11409600
2018-02-01,352.950012,361.450012,352.040009,356.940002,355.186676,6067600
2018-02-02,354.000000,355.200012,348.700012,348.910004,347.196136,5486100
2018-02-05,342.670013,350.000000,317.390015,328.880005,327.264526,10511300
2018-02-06,320.000000,341.670013,317.649994,340.910004,339.235413,11935100
2018-02-07,340.519989,353.589996,339.869995,348.119995,346.410004,7946700
2018-02-08,348.000000,349.000000,329.399994,329.660004,329.660004,8295900
2018-02-09,333.549988,337.809998,319.250000,332.829987,332.829987,8833000
2018-02-12,336.570007,347.750000,335.130005,343.799988,343.799988,6885000
2018-02-13,340.450012,347.880005,340.290009,343.160004,343.160004,4030200
2018-02-14,341.339996,347.429993,341.170013,344.850006,344.850006,4340200
2018-02-15,348.470001,356.549988,348.049988,356.459991,356.459991,5827500
2018-02-16,356.589996,359.500000,353.510010,355.040009,355.040009,5211600
2018-02-20,352.000000,357.790009,351.399994,353.350006,353.350006,4303400
2018-02-21,352.559998,360.809998,351.750000,352.369995,352.369995,5258600
2018-02-22,354.649994,358.070007,352.640015,355.920013,355.920013,3414300
2018-02-23,358.179993,358.769989,353.070007,356.660004,356.660004,3355400
2018-02-26,359.500000,364.049988,358.209991,363.480011,363.480011,4148100
2018-02-27,364.600006,369.890015,363.299988,364.640015,364.640015,4774100
2018-02-28,366.799988,371.600006,362.209991,362.209991,362.209991,5472900
2018-03-01,362.329987,362.739990,346.399994,349.690002,349.690002,8978000
2018-03-02,341.820007,346.089996,335.299988,344.670013,344.670013,10021300
2018-03-05,338.000000,354.769989,336.609985,352.750000,352.750000,8140200
2018-03-06,354.239990,355.209991,346.019989,348.920013,348.920013,4888300
2018-03-07,341.519989,348.410004,339.500000,347.040009,347.040009,4575700
2018-03-08,349.510010,352.500000,343.950012,348.730011,348.730011,4319900
2018-03-09,352.649994,354.890015,350.230011,354.519989,354.519989,3446500
