Date,Open,High,Low,Close,Adj Close,Volume
2013-03-11,57.389999,57.750000,57.340000,57.660000,53.900288,7155200
2013-03-12,57.520000,57.630001,56.700001,57.110001,53.386147,7159100
2013-03-13,57.160000,57.439999,56.939999,57.340000,53.601154,5209800
2013-03-14,57.349998,57.820000,57.270000,57.750000,53.984417,5908200
2013-03-15,57.500000,57.779999,57.340000,57.580002,53.825504,13788100
2013-03-18,57.080002,57.189999,56.750000,56.830002,53.124413,5125800
2013-03-19,56.830002,57.049999,55.759998,56.310001,52.638313,8884200
2013-03-20,56.590000,57.150002,56.540001,56.939999,53.227234,6018700
2013-03-21,56.740002,56.849998,56.160000,56.310001,52.638313,5168500
2013-03-22,56.650002,57.099998,56.520000,56.779999,53.077663,5500200
2013-03-25,57.000000,57.110001,55.869999,56.209999,52.544834,7881500
2013-03-26,56.410000,56.730000,56.330002,56.630001,52.937447,4675600
2013-03-27,56.340000,56.500000,55.990002,56.470001,52.787876,6392400
2013-03-28,56.590000,56.939999,56.500000,56.799999,53.096363,6705600
2013-04-01,56.889999,57.139999,56.150002,56.689999,52.993530,6722400
2013-04-02,57.040001,57.459999,56.959999,57.459999,53.713318,6575300
2013-04-03,57.639999,57.750000,57.000000,57.250000,53.517017,8101000
2013-04-04,57.279999,57.720001,57.180000,57.590000,53.834846,6412400
2013-04-05,56.889999,57.730000,56.369999,57.700001,53.937675,7034700
2013-04-08,57.830002,58.820000,57.759998,58.820000,54.984650,9796200
2013-04-09,58.720001,59.240002,58.520000,59.139999,55.283779,8864800
2013-04-10,59.369999,60.139999,59.340000,60.110001,56.190533,8438100
2013-04-11,60.110001,60.669998,60.020000,60.549999,56.601841,9241800
2013-04-12,60.290001,60.730000,60.270000,60.549999,56.601841,8533000
2013-04-15,60.259998,60.669998,58.840000,58.880001,55.040733,12027900
2013-04-16,59.259998,60.750000,59.080002,60.750000,56.788799,10309400
2013-04-17,60.349998,60.689999,60.020000,60.680000,56.723373,11531200
2013-04-18,60.639999,60.669998,59.880001,59.990002,56.078358,9203200
2013-04-19,60.250000,61.560001,60.250000,61.560001,57.545986,9488300
2013-04-22,61.590000,62.099998,61.150002,62.009998,57.966644,6306900
2013-04-23,62.400002,62.619999,61.540001,62.590000,58.508831,6260800
2013-04-24,62.709999,62.900002,61.590000,61.939999,57.901211,7335400
2013-04-25,62.009998,62.169998,61.549999,62.000000,57.957298,6680900
2013-04-26,62.060001,62.290001,61.549999,61.869999,57.835770,7038500
2013-04-29,62.820000,63.250000,62.590000,63.000000,58.892094,7203900
2013-04-30,62.930000,63.080002,62.439999,62.840000,58.742527,8528800
2013-05-01,62.880001,63.500000,62.799999,63.209999,59.088398,7468900
2013-05-02,63.400002,63.930000,63.110001,63.880001,59.714710,5249600
2013-05-03,64.180000,64.849998,63.880001,64.800003,60.574722,9196000
2013-05-06,65.089996,65.589996,64.510002,65.059998,60.817768,10239600
2013-05-07,65.440002,66.089996,64.769997,66.070000,61.761909,14539100
2013-05-08,66.000000,66.000000,64.559998,65.989998,61.687119,17803200
2013-05-09,65.730003,67.110001,65.510002,66.669998,62.322781,11325000
2013-05-10,66.690002,67.430000,66.339996,67.199997,62.818226,8654000
2013-05-13,66.959999,67.519997,66.919998,67.320000,62.930412,5195000
2013-05-14,67.430000,67.489998,66.980003,67.470001,63.070621,9675400
2013-05-15,67.419998,67.790001,67.180000,67.669998,63.257591,7925900
2013-05-16,67.620003,67.889999,66.199997,66.470001,62.135830,8473100
2013-05-17,66.160004,66.580002,65.680000,66.580002,62.238663,9160100
2013-05-20,66.580002,66.599998,66.050003,66.120003,61.808651,5893300
2013-05-21,66.349998,66.400002,65.709999,65.830002,61.537567,7359100
2013-05-22,65.760002,66.709999,65.269997,65.570000,61.294506,8142400
2013-05-23,64.870003,65.440002,64.239998,65.230003,60.976688,7536200
2013-05-24,64.750000,65.529999,64.389999,65.489998,61.219727,8846100
2013-05-28,65.980003,66.760002,65.919998,66.690002,62.341484,8280000
2013-05-29,66.370003,66.480003,65.739998,66.260002,61.939529,6954000
2013-05-30,66.440002,67.110001,64.320000,64.650002,60.434505,13052700
2013-05-31,64.570000,65.029999,63.070000,63.080002,58.966877,11280900
2013-06-03,63.060001,63.820000,62.529999,63.799999,59.639923,8705600
2013-06-04,63.930000,64.930000,63.860001,64.349998,60.154060,8147700
2013-06-05,64.050003,64.120003,62.799999,63.119999,59.004265,8893600
2013-06-06,63.099998,63.320000,62.040001,63.139999,59.022961,8661900
2013-06-07,63.630001,64.870003,63.250000,64.849998,60.621456,7611300
2013-06-10,64.910004,64.970001,63.700001,63.830002,59.667965,6729500
2013-06-11,63.320000,64.300003,62.970001,63.799999,59.639923,6454800
2013-06-12,64.320000,64.449997,62.869999,62.990002,58.882740,7663200
2013-06-13,62.990002,64.400002,62.520000,64.300003,60.107330,5584900
2013-06-14,64.010002,64.430000,63.630001,63.799999,59.639923,5311800
2013-06-17,64.300003,65.129997,64.250000,64.489998,60.284935,6752000
2013-06-18,64.610001,65.489998,64.559998,65.290001,61.032764,5234400
2013-06-19,65.190002,65.550003,64.330002,64.330002,60.135368,6871400
2013-06-20,63.220001,63.520000,61.820000,61.980000,57.938599,12260800
2013-06-21,62.619999,63.080002,61.820000,62.730000,58.639698,11892400
2013-06-24,62.250000,62.990002,61.820000,62.439999,58.368603,6494500
2013-06-25,62.880001,63.099998,62.500000,62.570000,58.490128,6776700
2013-06-26,62.950001,63.459999,62.750000,63.209999,59.088398,5720400
2013-06-27,63.650002,63.970001,63.450001,63.720001,59.565144,4875900
2013-06-28,63.759998,64.519997,63.150002,63.150002,59.032314,10560300
2013-07-01,63.840000,64.919998,63.630001,63.930000,59.761452,8221600
2013-07-02,63.830002,64.139999,63.080002,63.259998,59.135139,7690500
2013-07-03,62.849998,63.830002,62.570000,63.610001,59.462315,3351800
2013-07-05,63.880001,63.950001,63.110001,63.820000,59.658623,5645800
2013-07-08,64.279999,64.790001,64.160004,64.709999,60.490589,6679700
2013-07-09,65.320000,65.540001,64.650002,64.940002,60.705593,4556400
2013-07-10,64.860001,65.300003,64.570000,64.910004,60.677547,5761700
2013-07-11,65.650002,66.830002,65.650002,66.580002,62.238663,8329800
2013-07-12,66.389999,67.000000,65.930000,66.980003,62.612583,5889900
2013-07-15,67.019997,67.360001,65.889999,65.930000,61.631042,6458000
2013-07-16,65.949997,66.099998,64.930000,65.029999,60.789726,7470900
2013-07-17,65.419998,65.459999,64.760002,65.360001,61.098209,6846700
2013-07-18,65.699997,66.370003,65.660004,65.820000,61.528210,4962800
2013-07-19,65.889999,66.029999,64.910004,65.160004,60.911255,7220400
2013-07-22,65.150002,65.330002,64.260002,64.400002,60.200806,5973600
2013-07-23,64.599998,64.769997,64.330002,64.449997,60.247536,4534500
2013-07-24,64.589996,65.120003,64.529999,64.639999,60.425156,5326800
2013-07-25,64.320000,64.739998,64.260002,64.550003,60.341022,5407800
2013-07-26,64.470001,65.070000,64.110001,64.980003,60.742992,4949600
2013-07-29,64.800003,65.029999,64.470001,64.610001,60.397110,3805800
2013-07-30,64.699997,64.870003,64.099998,64.180000,59.995148,6210500
2013-07-31,64.430000,65.120003,64.379997,64.650002,60.434505,7155300
2013-08-01,65.160004,65.870003,65.129997,65.360001,61.098209,6338100
2013-08-02,65.559998,66.589996,65.330002,66.510002,62.173218,6098500
2013-08-05,66.500000,66.540001,65.610001,66.019997,61.715176,7265800
2013-08-06,66.089996,67.160004,65.970001,67.050003,62.678024,11546300
2013-08-07,64.930000,66.300003,64.120003,65.910004,61.612347,16970500
2013-08-08,66.339996,66.459999,65.199997,65.750000,61.462772,8826400
2013-08-09,65.470001,65.750000,64.599998,64.730003,60.509281,7945500
2013-08-12,64.260002,64.430000,63.669998,63.930000,59.761452,8004900
2013-08-13,64.260002,64.260002,63.410000,63.980000,59.808193,6025100
2013-08-14,63.950001,64.169998,63.470001,63.959999,59.789490,6413700
2013-08-15,63.279999,63.320000,62.200001,62.380001,58.312519,9014100
2013-08-16,61.970001,62.500000,61.709999,62.169998,58.116207,8238800
2013-08-19,62.150002,62.180000,61.830002,61.830002,57.798378,5659900
2013-08-20,61.790001,62.389999,61.790001,61.880001,57.845116,5192100
2013-08-21,61.619999,61.880001,61.090000,61.139999,57.153374,7185400
2013-08-22,61.320000,61.820000,61.160000,61.639999,57.620773,5302300
2013-08-23,61.959999,61.990002,61.459999,61.730000,57.704899,5505900
2013-08-26,61.759998,62.110001,61.330002,61.349998,57.349682,4499100
2013-08-27,60.900002,61.349998,60.570000,60.689999,56.732716,7734500
2013-08-28,60.439999,61.150002,60.410000,60.810001,56.844891,7161700
2013-08-29,60.770000,61.520000,60.549999,61.080002,57.097290,5396200
2013-08-30,61.139999,61.270000,60.549999,60.830002,56.863586,5404100
2013-09-03,61.419998,61.990002,60.599998,60.930000,56.957066,7016400
2013-09-04,60.919998,61.220001,60.520000,61.110001,57.125328,14014600
2013-09-05,61.070000,61.599998,60.959999,61.299999,57.302948,6356600
2013-09-06,61.470001,61.830002,60.630001,61.389999,57.387070,7319400
2013-09-09,61.599998,61.840000,61.270000,61.590000,57.574028,7224500
2013-09-10,62.090000,62.970001,61.930000,62.830002,58.733177,9919600
2013-09-11,63.119999,63.939999,62.980000,63.939999,59.770794,9439700
2013-09-12,63.799999,66.349998,63.410000,65.489998,61.219727,22426500
2013-09-13,65.870003,67.029999,65.500000,66.690002,62.341484,12718700
2013-09-16,67.320000,67.650002,66.879997,66.940002,62.575195,9716500
2013-09-17,66.830002,67.199997,66.720001,66.980003,62.612583,6450700
2013-09-18,66.669998,67.370003,66.209999,67.110001,62.734100,9865600
2013-09-19,66.389999,66.500000,65.400002,65.720001,61.434742,11864800
2013-09-20,65.610001,65.839996,64.910004,65.010002,60.771027,29076200
2013-09-23,65.040001,65.480003,64.680000,64.750000,60.527981,8286600
2013-09-24,64.940002,65.160004,64.279999,64.320000,60.126022,8272800
2013-09-25,64.419998,64.930000,64.199997,64.449997,60.247536,7281400
2013-09-26,64.360001,65.290001,64.250000,65.239998,60.986027,6971200
2013-09-27,64.970001,65.440002,64.690002,65.190002,60.939293,5586000
2013-09-30,64.730003,64.949997,64.389999,64.489998,60.284935,7463200
2013-10-01,64.370003,65.250000,64.360001,64.830002,60.602764,4881200
2013-10-02,64.449997,65.339996,64.400002,64.879997,60.649502,7218800
2013-10-03,64.720001,64.930000,63.830002,64.019997,59.845577,7264100
2013-10-04,64.019997,65.430000,63.970001,65.300003,61.042126,6546000
2013-10-07,64.809998,65.309998,64.570000,64.589996,60.378410,5840900
2013-10-08,64.519997,64.769997,63.970001,64.000000,59.826885,8636300
2013-10-09,64.019997,64.180000,63.099998,63.590000,59.443619,8746900
2013-10-10,64.480003,65.669998,64.290001,65.580002,61.303864,7676600
2013-10-11,65.660004,66.589996,65.500000,66.209999,61.892780,6735000
2013-10-14,65.879997,66.980003,65.779999,66.830002,62.472355,6461500
2013-10-15,66.730003,66.940002,65.930000,66.440002,62.107784,5943100
2013-10-16,66.639999,66.860001,66.129997,66.349998,62.023659,7724800
2013-10-17,66.190002,66.589996,65.980003,66.419998,62.089100,6952100
2013-10-18,66.500000,67.269997,65.989998,67.150002,62.771488,7587000
2013-10-21,67.269997,67.629997,67.160004,67.610001,63.201500,4845800
2013-10-22,67.940002,69.129997,67.750000,69.000000,64.500854,7860700
2013-10-23,68.809998,69.199997,68.019997,68.120003,63.678234,5864500
2013-10-24,68.180000,69.190002,68.019997,69.050003,64.547600,6045400
2013-10-25,69.320000,69.870003,68.970001,69.260002,64.743904,6613300
2013-10-28,69.349998,69.480003,68.919998,69.000000,64.500854,4469200
2013-10-29,69.120003,69.389999,68.779999,68.919998,64.426079,4450200
2013-10-30,69.220001,69.300003,67.930000,68.470001,64.005417,5816100
2013-10-31,68.470001,69.300003,68.349998,68.589996,64.117592,5706100
2013-11-01,68.709999,69.180000,68.500000,69.010002,64.510216,5008600
2013-11-04,69.410004,69.550003,68.410004,68.809998,64.323257,4790200
2013-11-05,68.769997,69.059998,68.059998,68.849998,64.360634,5140600
2013-11-06,69.180000,69.620003,68.620003,69.000000,64.500854,6503200
2013-11-07,69.339996,69.339996,67.089996,67.150002,62.771488,10496300
2013-11-08,66.870003,69.410004,66.720001,68.580002,64.108246,16182800
2013-11-11,68.480003,68.739998,68.190002,68.339996,63.883896,4954000
2013-11-12,68.330002,68.449997,67.419998,67.769997,63.351067,6586700
2013-11-13,67.430000,68.989998,67.300003,68.970001,64.472824,5681000
2013-11-14,69.139999,70.150002,69.000000,70.019997,65.454338,7246600
2013-11-15,69.769997,70.169998,69.550003,70.000000,65.435654,6184400
2013-11-18,70.059998,70.089996,69.330002,69.500000,64.968269,4904400
2013-11-19,69.489998,69.720001,69.040001,69.120003,64.613037,4801700
2013-11-20,69.120003,69.919998,69.080002,69.230003,64.715874,4726800
2013-11-21,69.459999,70.010002,69.269997,69.940002,65.379578,4498300
2013-11-22,69.949997,70.330002,69.800003,70.199997,65.622612,4667500
2013-11-25,70.540001,70.580002,69.599998,69.739998,65.192604,5830600
2013-11-26,69.919998,71.690002,69.900002,71.180000,66.538719,8850000
2013-11-27,71.209999,71.250000,70.459999,70.769997,66.155449,5446100
2013-11-29,71.040001,71.269997,70.389999,70.540001,65.940445,4801000
2013-12-02,70.790001,71.309998,70.760002,70.910004,66.286324,6774600
2013-12-03,70.220001,70.410004,69.379997,69.900002,65.342171,8304700
2013-12-04,69.419998,70.480003,69.320000,69.970001,65.407600,4883800
2013-12-05,70.290001,70.680000,70.080002,70.230003,65.650658,5587000
2013-12-06,70.970001,71.489998,70.769997,71.459999,66.800461,5542000
2013-12-09,71.360001,71.480003,70.919998,71.110001,66.473289,6477100
2013-12-10,70.910004,71.650002,70.900002,71.570000,66.903290,7112200
2013-12-11,71.730003,72.129997,70.430000,70.519997,65.921745,9519200
2013-12-12,69.279999,70.019997,68.800003,69.629997,65.893364,8756300
2013-12-13,69.900002,70.129997,69.279999,69.620003,65.883904,5784300
2013-12-16,69.910004,70.849998,69.910004,70.510002,66.726143,6246600
2013-12-17,70.690002,70.910004,69.830002,70.660004,66.868088,6829100
2013-12-18,70.959999,72.199997,70.139999,72.199997,68.325439,7971400
2013-12-19,72.139999,73.080002,72.099998,72.970001,69.054115,6768100
2013-12-20,73.099998,73.559998,72.339996,72.400002,68.514702,12989700
2013-12-23,72.889999,73.330002,72.660004,73.279999,69.347488,5621900
2013-12-24,73.250000,73.860001,73.250000,73.849998,69.886887,2883600
2013-12-26,73.949997,74.690002,73.910004,74.620003,70.615578,4620100
2013-12-27,74.650002,74.779999,73.930000,74.349998,70.360054,3844800
2013-12-30,74.989998,76.540001,74.889999,76.230003,72.139183,8578900
2013-12-31,76.279999,76.500000,75.809998,76.400002,72.300056,4692300
2014-01-02,76.040001,76.500000,75.900002,76.269997,72.177032,5200900
2014-01-03,76.300003,76.699997,76.010002,76.110001,72.025612,4060700
2014-01-06,76.529999,76.839996,75.489998,75.820000,71.751183,6816200
2014-01-07,76.120003,76.699997,75.900002,76.339996,72.243271,4494900
2014-01-08,76.129997,76.279999,74.809998,75.220001,71.183372,10900300
2014-01-09,75.459999,75.459999,74.320000,74.900002,70.880547,8052900
2014-01-10,75.080002,75.510002,74.559998,75.389999,71.344254,6219000
2014-01-13,74.900002,75.129997,73.050003,73.269997,69.338013,8232800
2014-01-14,73.709999,74.580002,73.290001,74.449997,70.454697,5996500
2014-01-15,74.300003,75.099998,74.250000,74.279999,70.293816,7283900
2014-01-16,74.389999,74.400002,73.720001,74.209999,70.227577,5597400
2014-01-17,74.430000,74.629997,73.680000,73.980003,70.009918,6624800
2014-01-21,73.989998,74.879997,73.300003,74.199997,70.218109,7507100
2014-01-22,74.080002,75.430000,74.050003,75.309998,71.268539,6795100
2014-01-23,74.529999,74.949997,74.150002,74.790001,70.776459,6280900
2014-01-24,74.099998,74.230003,72.720001,72.720001,68.817528,7334900
2014-01-27,72.470001,72.910004,71.720001,72.250000,68.372765,7415100
2014-01-28,72.260002,73.000000,72.239998,72.879997,68.968948,5508400
2014-01-29,71.970001,72.239998,71.120003,71.330002,67.502129,8604800
2014-01-30,72.089996,73.629997,72.000000,73.220001,69.290703,7550500
2014-01-31,72.199997,73.320000,71.800003,72.610001,68.713440,7748500
2014-02-03,72.660004,72.730003,69.849998,69.989998,66.234039,11964800
2014-02-04,70.940002,71.250000,69.879997,71.050003,67.237160,11278800
2014-02-05,72.050003,72.050003,70.370003,71.760002,67.909058,11573300
2014-02-06,75.610001,76.730003,74.779999,75.559998,71.505135,19821900
2014-02-07,75.080002,75.699997,74.610001,75.669998,71.609215,11480100
2014-02-10,75.669998,77.309998,75.570000,77.059998,72.924629,8781600
2014-02-11,77.150002,77.919998,77.110001,77.790001,73.615456,8186200
2014-02-12,77.660004,78.010002,77.639999,77.910004,73.729027,6329500
2014-02-13,77.519997,78.239998,77.199997,77.900002,73.719551,5955400
2014-02-14,77.879997,79.470001,77.769997,79.230003,74.978180,7001100
2014-02-18,79.500000,80.000000,79.430000,79.580002,75.309418,6136500
2014-02-19,79.500000,79.779999,78.800003,78.870003,74.637505,7024000
2014-02-20,79.209999,79.650002,78.839996,79.190002,74.940323,5748700
2014-02-21,79.070000,80.449997,78.800003,80.129997,75.829887,8252300
2014-02-24,80.500000,81.589996,80.459999,80.730003,76.397682,6635200
2014-02-25,80.720001,81.349998,80.040001,80.209999,75.905586,6064300
2014-02-26,80.629997,80.949997,79.589996,80.080002,75.782570,5775600
2014-02-27,80.000000,80.589996,79.860001,80.480003,76.161102,4919800
2014-02-28,80.839996,81.589996,80.169998,80.809998,76.473389,7030700
2014-03-03,80.300003,80.650002,78.849998,79.459999,75.195839,8449400
2014-03-04,80.599998,82.169998,80.540001,81.709999,77.325104,8021400
2014-03-05,82.220001,83.209999,82.019997,82.680000,78.243042,7709700
2014-03-06,82.860001,83.419998,82.839996,83.339996,78.867615,5774400
2014-03-07,83.599998,83.650002,82.019997,82.209999,77.798264,7478100
2014-03-10,82.180000,82.430000,81.690002,81.970001,77.571136,5209700
2014-03-11,82.190002,82.330002,80.720001,81.050003,76.700516,7171600
2014-03-12,80.589996,81.389999,80.050003,81.379997,77.012802,6378300
2014-03-13,81.750000,81.980003,79.660004,79.930000,75.640625,8570600
2014-03-14,79.849998,80.410004,79.570000,80.070000,75.773109,7754700
2014-03-17,80.500000,81.599998,80.309998,81.389999,77.022263,7280700
2014-03-18,81.529999,82.250000,81.279999,81.989998,77.590065,5395900
2014-03-19,82.250000,82.300003,80.040001,80.519997,76.198944,6403200
2014-03-20,80.589996,81.019997,79.760002,80.809998,76.473389,5968200
2014-03-21,81.959999,82.050003,80.050003,80.349998,76.038086,7840900
2014-03-24,80.709999,80.930000,79.379997,79.489998,75.224228,7642900
2014-03-25,80.239998,80.339996,78.599998,79.550003,75.281006,6692400
2014-03-26,79.930000,80.239998,78.610001,78.620003,74.400925,6750800
2014-03-27,78.300003,78.610001,77.279999,78.480003,74.268425,9194700
2014-03-28,78.730003,79.459999,78.309998,78.989998,74.751053,5281700
2014-03-31,79.699997,80.389999,79.660004,80.070000,75.773109,6848800
2014-04-01,80.389999,81.610001,80.389999,81.570000,77.192612,6555000
2014-04-02,81.720001,81.970001,81.300003,81.669998,77.287247,6073500
2014-04-03,81.919998,82.239998,81.139999,81.690002,77.306168,4930100
2014-04-04,82.320000,82.849998,80.400002,80.430000,76.113785,8894400
2014-04-07,80.419998,80.800003,78.559998,79.129997,74.883553,9000800
2014-04-08,79.269997,79.650002,78.120003,79.570000,75.299934,7085100
2014-04-09,79.970001,80.529999,79.260002,80.470001,76.151649,7004800
2014-04-10,80.919998,80.919998,77.480003,77.510002,73.350479,10160200
2014-04-11,77.510002,77.949997,76.809998,77.010002,72.877312,9204100
2014-04-14,77.699997,77.830002,76.849998,77.620003,73.454590,5964700
2014-04-15,77.889999,78.209999,76.309998,77.660004,73.492432,6398700
2014-04-16,78.379997,78.980003,78.190002,78.949997,74.713203,5958800
2014-04-17,78.699997,80.220001,78.599998,79.989998,75.697403,7627700
2014-04-21,79.959999,79.980003,78.690002,79.110001,74.864632,7080300
2014-04-22,79.220001,79.889999,79.209999,79.449997,75.186378,5876000
2014-04-23,79.529999,79.949997,78.970001,79.519997,75.252617,4148600
2014-04-24,79.739998,80.059998,79.110001,79.589996,75.318855,4632700
2014-04-25,79.459999,79.459999,78.160004,78.230003,74.031845,6193300
2014-04-28,78.760002,79.059998,76.879997,77.779999,73.606003,7522700
2014-04-29,78.349998,78.680000,77.739998,78.639999,74.419846,4608700
2014-04-30,78.500000,79.529999,78.180000,79.339996,75.082268,6550200
2014-05-01,79.349998,79.870003,79.260002,79.559998,75.290474,6486800
2014-05-02,79.620003,80.550003,79.620003,80.309998,76.000221,7599300
2014-05-05,80.419998,81.309998,79.800003,81.220001,76.861389,5669800
2014-05-06,81.589996,81.629997,80.800003,81.029999,76.681587,10696500
2014-05-07,81.650002,82.440002,80.120003,80.290001,75.981293,11906800
2014-05-08,80.209999,82.269997,80.070000,81.599998,77.221001,9257700
2014-05-09,81.269997,82.019997,80.900002,81.949997,77.552208,5376600
2014-05-12,82.080002,82.940002,82.080002,82.419998,77.996994,5704400
2014-05-13,82.430000,82.750000,81.750000,82.080002,77.675247,5274700
2014-05-14,81.769997,82.180000,80.629997,80.919998,76.577484,6192000
2014-05-15,80.639999,80.830002,79.209999,80.150002,75.848808,7687700
2014-05-16,80.169998,80.419998,79.339996,80.389999,76.075935,5823700
2014-05-19,80.430000,81.379997,80.139999,81.050003,76.700516,4896900
2014-05-20,80.940002,81.760002,80.519997,81.089996,76.738365,6023200
2014-05-21,81.419998,82.339996,81.419998,82.190002,77.779343,4736400
2014-05-22,82.190002,82.790001,82.040001,82.349998,77.930748,4652000
2014-05-23,82.190002,83.360001,82.190002,83.320000,78.848694,4580300
2014-05-27,83.559998,83.980003,83.320000,83.739998,79.246147,5197700
2014-05-28,83.800003,83.900002,83.250000,83.599998,79.113670,4652100
2014-05-29,83.919998,84.089996,83.430000,84.029999,79.520584,6522000
2014-05-30,83.809998,84.389999,83.620003,84.010002,79.501671,6352400
2014-06-02,84.269997,84.419998,84.010002,84.269997,79.747719,3933800
2014-06-03,84.070000,84.230003,83.720001,83.879997,79.378639,4541400
2014-06-04,83.849998,84.400002,83.309998,84.239998,79.719322,5800100
2014-06-05,84.370003,84.949997,83.900002,84.779999,80.230347,5956000
2014-06-06,84.910004,84.989998,84.269997,84.610001,80.069473,5302800
2014-06-09,84.599998,85.860001,84.529999,85.480003,80.892784,5667600
2014-06-10,85.400002,85.400002,84.699997,84.750000,80.201965,4632600
2014-06-11,84.599998,84.809998,84.169998,84.309998,79.785568,4300900
2014-06-12,84.029999,84.199997,82.599998,82.800003,78.356613,7231400
2014-06-13,82.750000,82.989998,81.800003,82.800003,78.356613,4711100
2014-06-16,82.639999,83.440002,82.559998,83.300003,78.829773,5181100
2014-06-17,82.980003,83.459999,82.610001,83.160004,78.697289,4535900
2014-06-18,83.180000,83.750000,82.809998,83.580002,79.094742,4536300
2014-06-19,83.650002,83.919998,83.250000,83.769997,79.274544,4326900
2014-06-20,84.070000,84.080002,82.790001,82.820000,78.375526,11073400
2014-06-23,82.849998,82.930000,82.320000,82.760002,78.318748,3946600
2014-06-24,82.680000,83.570000,82.489998,82.680000,78.243042,5057100
2014-06-25,82.669998,84.320000,82.480003,83.900002,79.397568,7899200
2014-06-26,84.680000,84.680000,83.769997,84.449997,79.918053,6424000
2014-06-27,84.129997,85.389999,84.129997,85.300003,80.722443,17932200
2014-06-30,85.440002,86.070000,85.070000,85.739998,81.138832,6991400
2014-07-01,85.809998,86.870003,85.760002,86.470001,81.829659,5608200
2014-07-02,86.580002,86.709999,86.199997,86.440002,81.801270,4439600
2014-07-03,86.699997,86.980003,86.500000,86.839996,82.179794,3210400
2014-07-07,86.610001,86.820000,86.320000,86.589996,81.943207,4897800
2014-07-08,86.190002,86.320000,85.680000,85.860001,81.252396,4733600
2014-07-09,86.000000,87.290001,85.849998,87.220001,82.539413,6311200
2014-07-10,86.529999,87.610001,86.190002,86.860001,82.198723,7249700
2014-07-11,87.000000,87.360001,86.370003,86.889999,82.227112,5016000
2014-07-14,87.459999,87.489998,86.660004,86.760002,82.104088,4012300
2014-07-15,86.580002,86.650002,85.540001,86.150002,81.526825,7001300
2014-07-16,86.690002,87.629997,85.120003,85.349998,80.769760,10667200
2014-07-17,85.330002,86.190002,84.870003,85.029999,80.466927,6885900
2014-07-18,85.440002,85.980003,85.169998,85.809998,81.205070,4719100
2014-07-21,85.809998,86.000000,85.500000,85.739998,81.138832,4799800
2014-07-22,86.370003,86.559998,85.510002,86.209999,81.583603,4984200
2014-07-23,86.309998,86.529999,85.760002,86.040001,81.422729,3650200
2014-07-24,86.500000,86.959999,86.309998,86.800003,82.141945,4168200
2014-07-25,86.300003,86.699997,86.050003,86.230003,81.602531,4659800
2014-07-28,86.430000,87.220001,85.809998,87.150002,82.473160,4546800
2014-07-29,87.290001,87.300003,86.160004,86.199997,81.574142,5478700
2014-07-30,86.620003,87.269997,86.089996,87.209999,82.529938,7294200
2014-07-31,86.589996,86.949997,85.690002,85.879997,81.271324,6342400
2014-08-01,85.389999,86.010002,85.209999,85.379997,80.798157,6759200
2014-08-04,86.169998,87.519997,86.010002,87.239998,82.558327,8262700
2014-08-05,87.139999,87.239998,86.019997,86.750000,82.094627,9361800
2014-08-06,86.180000,87.620003,86.169998,86.589996,81.943207,9789500
2014-08-07,86.989998,87.010002,85.230003,85.510002,80.921181,7916900
2014-08-08,85.650002,86.889999,85.620003,86.849998,82.189255,6382700
2014-08-11,87.070000,87.980003,87.050003,87.500000,82.804382,5047900
2014-08-12,87.150002,87.620003,86.779999,87.209999,82.529938,4510100
2014-08-13,87.739998,87.949997,87.419998,87.599998,82.899017,4532300
2014-08-14,88.029999,88.910004,87.809998,88.610001,83.854813,8218000
2014-08-15,89.019997,89.470001,88.690002,89.279999,84.488846,8211000
2014-08-18,89.660004,90.370003,89.580002,89.970001,85.141830,4973300
2014-08-19,90.129997,90.290001,89.639999,90.089996,85.255402,4153000
2014-08-20,89.919998,90.050003,89.669998,89.839996,85.018799,3894500
2014-08-21,90.059998,90.529999,89.980003,90.379997,85.529816,4719100
2014-08-22,90.129997,90.900002,90.120003,90.489998,85.633926,4756400
2014-08-25,90.949997,91.139999,90.300003,90.379997,85.529816,3515400
2014-08-26,90.610001,90.669998,89.940002,90.019997,85.189156,4117700
2014-08-27,90.139999,90.410004,89.980003,90.370003,85.520363,3739700
2014-08-28,89.980003,90.489998,89.959999,90.230003,85.387871,2678400
2014-08-29,90.320000,90.379997,89.330002,89.879997,85.056648,4179400
2014-09-02,90.180000,90.930000,90.150002,90.800003,85.927292,5602000
2014-09-03,91.059998,91.160004,90.669998,90.940002,86.059776,3684000
2014-09-04,90.870003,91.199997,90.010002,90.139999,85.302704,5458700
2014-09-05,90.139999,90.940002,90.099998,90.940002,86.059776,4597100
2014-09-08,90.760002,90.839996,90.160004,90.559998,85.700150,4331200
2014-09-09,90.500000,90.540001,89.510002,89.599998,84.791679,4797700
2014-09-10,89.540001,89.820000,88.750000,89.519997,84.715981,5078600
2014-09-11,89.199997,90.040001,89.059998,89.970001,85.141830,4065500
2014-09-12,90.099998,90.199997,89.250000,89.669998,84.857918,3870200
2014-09-15,89.739998,90.370003,89.559998,90.080002,85.245934,4910000
2014-09-16,89.709999,90.430000,89.459999,90.269997,85.425720,4324600
2014-09-17,90.580002,90.769997,89.970001,90.330002,85.482513,4058100
2014-09-18,90.309998,90.500000,89.910004,90.339996,85.491966,4343600
2014-09-19,90.800003,91.150002,90.389999,90.489998,85.633926,13382900
2014-09-22,90.489998,90.610001,89.190002,89.290001,84.498322,5003000
2014-09-23,89.120003,89.239998,88.230003,88.309998,83.570915,6155800
2014-09-24,88.360001,89.639999,88.239998,89.449997,84.649727,5607000
2014-09-25,89.260002,89.599998,88.059998,88.070000,83.343781,7077400
2014-09-26,88.150002,88.889999,87.910004,88.739998,83.977829,5786400
2014-09-29,88.120003,89.050003,87.360001,88.830002,84.063004,5188600
2014-09-30,88.839996,89.540001,88.540001,89.029999,84.252274,4824500
2014-10-01,89.080002,89.239998,87.199997,87.489998,82.794922,7512500
2014-10-02,87.500000,87.660004,84.650002,86.790001,82.132477,11051100
2014-10-03,88.099998,88.900002,87.550003,88.449997,83.703400,7549000
2014-10-06,88.790001,89.180000,88.070000,88.559998,83.807487,4047800
2014-10-07,88.000000,88.260002,87.040001,87.110001,82.435303,6217600
2014-10-08,87.059998,88.150002,86.330002,88.110001,83.381645,7008000
2014-10-09,88.029999,88.160004,85.570000,85.709999,81.110435,8726200
2014-10-10,85.919998,87.000000,85.400002,86.269997,81.640388,12675300
2014-10-13,85.919998,86.389999,83.760002,83.910004,79.407036,9039800
2014-10-14,84.750000,85.519997,83.900002,84.139999,79.624687,8607100
2014-10-15,82.389999,83.760002,78.540001,82.080002,77.675247,21844400
2014-10-16,79.930000,82.470001,79.550003,81.739998,77.353477,13216500
2014-10-17,82.680000,84.660004,82.680000,83.830002,79.331322,12381800
2014-10-20,84.230003,85.610001,84.150002,85.519997,80.930626,8302100
2014-10-21,86.320000,87.680000,86.250000,87.540001,82.842232,9170400
2014-10-22,87.940002,88.610001,86.980003,87.099998,82.425842,9314500
2014-10-23,88.209999,88.629997,87.760002,87.989998,83.268082,7245300
2014-10-24,87.910004,88.660004,87.580002,88.610001,83.854813,4937500
2014-10-27,88.470001,88.989998,88.239998,88.449997,83.703400,5644300
2014-10-28,89.040001,89.959999,88.949997,89.930000,85.103973,4554400
2014-10-29,89.839996,90.250000,88.949997,89.529999,84.725441,5442100
2014-10-30,89.440002,90.540001,88.910004,90.220001,85.378418,4445300
2014-10-31,91.510002,91.980003,90.750000,91.379997,86.476158,7472200
2014-11-03,91.239998,91.820000,91.000000,91.709999,86.788460,5447700
2014-11-04,91.970001,91.980003,89.800003,90.349998,85.501442,7928500
2014-11-05,91.599998,91.599998,89.589996,91.000000,86.116554,7021000
2014-11-06,91.290001,92.000000,91.150002,92.000000,87.062889,9938800
2014-11-07,89.389999,90.019997,88.650002,90.000000,85.170227,16176300
2014-11-10,90.239998,90.419998,88.949997,89.779999,84.962021,8155700
2014-11-11,90.010002,90.029999,89.129997,89.980003,85.151291,5896800
2014-11-12,89.769997,90.120003,89.330002,89.900002,85.075577,5262500
2014-11-13,90.099998,90.709999,90.029999,90.489998,85.633926,5098800
2014-11-14,90.680000,90.849998,90.379997,90.800003,85.927292,4281100
2014-11-17,90.500000,90.779999,90.050003,90.410004,85.558220,4148400
2014-11-18,90.330002,90.690002,90.129997,90.279999,85.435188,4461600
2014-11-19,90.260002,90.279999,89.190002,89.820000,84.999886,7710000
2014-11-20,89.250000,89.459999,88.750000,88.900002,84.129250,8604000
2014-11-21,89.690002,89.800003,88.760002,88.959999,84.186035,7383500
2014-11-24,89.320000,90.660004,89.320000,90.580002,85.719093,6504100
2014-11-25,90.709999,91.919998,90.709999,91.650002,86.731667,7404200
2014-11-26,91.959999,92.279999,91.669998,91.919998,86.987183,4607200
2014-11-28,92.529999,92.959999,92.230003,92.510002,87.545525,3853000
2014-12-01,92.629997,93.139999,92.099998,92.699997,87.725327,6714700
2014-12-02,92.650002,93.809998,92.419998,93.470001,88.454002,6664200
2014-12-03,93.540001,93.660004,92.500000,93.110001,88.113319,5492400
2014-12-04,93.610001,93.629997,92.570000,93.230003,88.226883,6017300
2014-12-05,93.690002,93.980003,93.339996,93.760002,88.728447,5226800
2014-12-08,94.209999,94.500000,93.410004,93.800003,88.766312,6682200
2014-12-09,93.510002,93.570000,91.760002,92.940002,87.952454,9519900
2014-12-10,92.519997,92.830002,91.550003,91.629997,86.712746,10346100
2014-12-11,91.089996,92.660004,90.660004,91.750000,87.929871,8227800
2014-12-12,91.180000,92.610001,90.949997,91.489998,87.680695,7890900
2014-12-15,92.029999,92.690002,90.190002,90.900002,87.115257,6746800
2014-12-16,90.500000,92.000000,90.129997,90.169998,86.415649,6549400
2014-12-17,90.360001,91.680000,90.199997,91.379997,87.575272,6885900
2014-12-18,92.190002,92.610001,91.860001,92.610001,88.754059,9387500
2014-12-19,92.339996,93.199997,91.879997,92.889999,89.022400,12837900
2014-12-22,93.389999,94.360001,93.220001,94.199997,90.277855,7477500
2014-12-23,94.480003,95.070000,94.400002,94.690002,90.747459,5385800
2014-12-24,94.690002,95.120003,94.370003,94.419998,90.488693,2165700
2014-12-26,94.739998,95.309998,94.519997,95.029999,91.073296,3142400
2014-12-29,94.739998,95.930000,94.690002,95.500000,91.523727,3584400
2014-12-30,95.209999,95.500000,94.500000,94.699997,90.757042,3490100
2014-12-31,95.129997,95.519997,94.029999,94.190002,90.268272,4797000
2015-01-02,94.910004,95.279999,92.849998,93.750000,89.846596,5865400
2015-01-05,93.279999,93.349998,91.779999,92.379997,88.533630,7789400
2015-01-06,92.570000,93.190002,91.160004,91.889999,88.064034,6793100
2015-01-07,92.720001,93.150002,92.099998,92.830002,88.964905,6589500
2015-01-08,93.870003,94.300003,93.559998,93.790001,89.884926,7579400
2015-01-09,94.050003,95.269997,93.989998,94.250000,90.325775,8603600
2015-01-12,94.690002,94.760002,93.769997,94.459999,90.527031,6586200
2015-01-13,95.279999,96.430000,94.699997,95.190002,91.226639,9354400
2015-01-14,94.000000,94.800003,93.290001,94.230003,90.306618,6509300
2015-01-15,94.230003,94.959999,94.040001,94.349998,90.421623,5662200
2015-01-16,94.000000,95.230003,93.980003,95.180000,91.217056,6117000
2015-01-20,95.220001,95.389999,93.750000,94.739998,90.795364,7940600
2015-01-21,94.370003,94.739998,93.820000,94.169998,90.249107,7474700
2015-01-22,94.580002,95.389999,94.010002,95.150002,91.188301,7014200
2015-01-23,94.919998,95.529999,94.430000,94.720001,90.776207,4655900
2015-01-26,94.449997,95.000000,93.930000,94.970001,91.015808,5446900
2015-01-27,93.940002,94.739998,93.360001,93.970001,90.057449,5390000
2015-01-28,94.139999,94.470001,92.610001,92.669998,88.811562,6198400
2015-01-29,93.110001,93.500000,91.519997,93.220001,89.338661,7681700
2015-01-30,92.500000,92.940002,90.830002,90.959999,87.172760,10212300
2015-02-02,91.300003,92.050003,90.059998,91.930000,88.102371,9392000
2015-02-03,92.430000,94.110001,92.190002,94.099998,90.182022,11393800
2015-02-04,99.389999,101.940002,98.820000,101.279999,97.063072,32640500
2015-02-05,100.760002,102.839996,100.510002,102.639999,98.366455,14089500
2015-02-06,102.669998,102.989998,101.650002,102.019997,97.772255,8475600
2015-02-09,101.800003,102.500000,101.449997,101.730003,97.494339,5461800
2015-02-10,101.959999,102.190002,101.180000,101.919998,97.676430,5726300
2015-02-11,102.010002,102.019997,101.070000,101.870003,97.628510,5868200
2015-02-12,102.160004,103.849998,101.699997,103.580002,99.267319,6816800
2015-02-13,103.730003,104.410004,103.430000,104.169998,99.832741,5175600
2015-02-17,104.230003,104.449997,103.570000,104.120003,99.784828,4759300
2015-02-18,103.400002,104.330002,103.400002,103.860001,99.535652,3740100
2015-02-19,104.000000,104.080002,103.550003,103.889999,99.564400,5094100
2015-02-20,103.860001,104.690002,102.730003,104.550003,100.196922,5197000
2015-02-23,104.760002,105.230003,104.440002,104.989998,100.618599,5587100
2015-02-24,104.540001,105.050003,104.349998,104.669998,100.311920,4098800
2015-02-25,104.680000,105.980003,104.669998,105.570000,101.174454,6547200
2015-02-26,105.500000,105.709999,104.139999,104.559998,100.206497,5049000
2015-02-27,104.669998,105.139999,103.959999,104.080002,99.746490,4161600
2015-03-02,104.349998,105.980003,104.349998,105.889999,101.481125,5635500
2015-03-03,105.779999,106.639999,105.209999,106.349998,101.921982,4671900
2015-03-04,105.860001,106.000000,104.779999,105.570000,101.174454,4972300
2015-03-05,105.540001,105.809998,104.870003,105.029999,100.656937,3954700
2015-03-06,104.669998,105.000000,103.489998,103.820000,99.497314,5704200
2015-03-09,103.940002,105.419998,103.820000,105.260002,100.877373,4868900
2015-03-10,104.269997,104.349998,103.089996,103.089996,98.797707,6462100
2015-03-11,103.510002,104.000000,102.870003,102.889999,98.606041,4831900
2015-03-12,103.849998,107.330002,103.809998,107.169998,102.707825,10730400
2015-03-13,107.279999,107.279999,105.519997,106.440002,102.008232,8024200
2015-03-16,106.839996,107.730003,106.050003,107.370003,102.899513,6407300
2015-03-17,107.000000,107.209999,106.150002,106.959999,102.506577,4489400
2015-03-18,106.900002,108.419998,105.730003,107.970001,103.474533,5517500
2015-03-19,107.839996,108.480003,107.139999,107.370003,102.899513,4885600
2015-03-20,107.830002,108.940002,107.500000,108.430000,103.915367,8710100
2015-03-23,108.599998,108.849998,108.040001,108.220001,103.714119,5176100
2015-03-24,107.720001,108.050003,107.080002,107.110001,102.650337,4493500
2015-03-25,107.449997,107.459999,105.000000,105.000000,100.628189,6964700
2015-03-26,104.470001,105.820000,104.099998,105.239998,100.858185,5915800
2015-03-27,105.199997,106.449997,104.879997,105.480003,101.088203,5320600
2015-03-30,106.059998,106.949997,106.050003,106.120003,101.701553,3831900
2015-03-31,105.599998,106.320000,104.889999,104.889999,100.522766,5701600
2015-04-01,105.430000,106.000000,104.250000,105.440002,101.049866,6106000
2015-04-02,105.489998,106.239998,104.860001,106.000000,101.586540,3651600
2015-04-06,105.309998,106.570000,105.040001,105.629997,101.231949,4153500
2015-04-07,105.800003,106.410004,105.400002,105.430000,101.040283,4694600
2015-04-08,105.230003,106.690002,105.160004,106.360001,101.931557,4277400
2015-04-09,106.510002,107.000000,105.879997,106.769997,102.324478,3924400
2015-04-10,106.730003,107.099998,106.410004,106.949997,102.496994,3251500
2015-04-13,107.070000,107.900002,106.470001,106.510002,102.075310,4201500
2015-04-14,106.410004,107.300003,106.110001,106.660004,102.219078,5387700
2015-04-15,106.919998,107.430000,106.860001,106.980003,102.525749,4307300
2015-04-16,107.150002,108.300003,106.900002,108.099998,103.599106,6379100
2015-04-17,107.800003,107.800003,106.040001,106.690002,102.247818,9663500
2015-04-20,107.830002,108.500000,107.320000,108.220001,103.714119,8085800
2015-04-21,108.930000,108.989998,107.580002,107.680000,103.196609,4579400
2015-04-22,108.019997,108.250000,106.970001,107.940002,103.445778,4060500
2015-04-23,107.959999,109.900002,107.610001,109.000000,104.461632,5983800
2015-04-24,109.529999,110.480003,109.190002,109.529999,104.969566,6355600
2015-04-27,111.500000,111.660004,110.070000,110.160004,105.573357,8479100
2015-04-28,110.750000,111.150002,108.889999,109.919998,105.343338,7324500
2015-04-29,109.660004,110.379997,109.260002,109.809998,105.237907,6024700
2015-04-30,109.680000,110.190002,107.680000,108.720001,104.193298,7770300
2015-05-01,109.949997,110.669998,109.269997,110.519997,105.918358,6205100
2015-05-04,111.480003,111.529999,110.500000,111.029999,106.407112,7566200
2015-05-05,113.269997,113.300003,110.559998,110.809998,106.196274,14619300
2015-05-06,111.559998,111.959999,109.220001,109.720001,105.151665,8975300
2015-05-07,109.599998,109.779999,108.720001,109.260002,104.710823,8291200
2015-05-08,110.260002,110.699997,109.570000,110.110001,105.525429,6260600
2015-05-11,110.139999,110.139999,108.489998,108.599998,104.078285,6728500
2015-05-12,108.599998,109.660004,107.669998,109.239998,104.691635,6345000
2015-05-13,109.699997,109.870003,108.779999,109.190002,104.643738,4141400
2015-05-14,109.690002,110.000000,109.010002,109.930000,105.352913,4662000
2015-05-15,110.099998,110.690002,109.680000,110.300003,105.707512,5852200
2015-05-18,110.470001,110.739998,110.010002,110.330002,105.736259,4863600
2015-05-19,110.690002,110.989998,110.470001,110.559998,105.956688,4549600
2015-05-20,110.779999,110.809998,110.019997,110.199997,105.611671,4393500
2015-05-21,110.040001,110.639999,109.900002,110.389999,105.793762,4880600
2015-05-22,110.300003,110.900002,110.120003,110.260002,105.669189,4267700
2015-05-26,110.169998,110.849998,108.760002,109.440002,104.883316,5970800
2015-05-27,109.510002,110.610001,109.300003,110.370003,105.774597,3984200
2015-05-28,110.110001,110.540001,109.599998,110.529999,105.927940,3392000
2015-05-29,110.330002,110.519997,109.410004,110.370003,105.774597,5253900
2015-06-01,111.480003,111.769997,110.550003,110.959999,106.340034,6778900
2015-06-02,110.919998,111.250000,110.019997,110.750000,106.138779,4410100
2015-06-03,110.750000,111.820000,110.500000,111.169998,106.541290,4510300
2015-06-04,110.949997,111.250000,109.989998,110.300003,105.707512,5748200
2015-06-05,110.300003,110.769997,109.800003,110.300003,105.707512,4323500
2015-06-08,110.029999,110.239998,109.209999,109.290001,104.739563,6062300
2015-06-09,109.349998,109.410004,107.650002,108.519997,104.001633,7711800
2015-06-10,108.900002,110.250000,108.730003,110.000000,105.419998,5128700
2015-06-11,110.010002,110.959999,110.010002,110.620003,106.014191,5036300
2015-06-12,110.330002,110.529999,109.540001,109.949997,105.372086,4009900
2015-06-15,109.269997,110.410004,108.930000,110.180000,105.592506,5742200
2015-06-16,110.349998,111.290001,109.900002,111.059998,106.435875,3848300
2015-06-17,111.199997,111.940002,110.879997,111.489998,106.847969,4732300
2015-06-18,111.830002,113.550003,111.580002,113.220001,108.505936,6929900
2015-06-19,112.830002,113.480003,112.400002,112.620003,107.930923,9587700
2015-06-22,113.400002,114.470001,113.269997,113.529999,108.803017,5906200
2015-06-23,113.930000,114.519997,113.720001,114.410004,109.646385,6003100
2015-06-24,114.300003,114.559998,113.709999,113.769997,109.033035,5636200
2015-06-25,114.620003,115.279999,114.389999,114.449997,109.684731,6213500
2015-06-26,114.970001,115.180000,114.410004,114.989998,110.202240,9509600
2015-06-29,114.160004,115.190002,113.000000,113.050003,108.343010,7618200
2015-06-30,113.930000,114.860001,113.550003,114.139999,109.387634,6946700
2015-07-01,114.949997,115.250000,114.339996,115.129997,110.978127,5435400
2015-07-02,115.379997,115.669998,114.449997,114.970001,110.823891,5549500
2015-07-06,114.470001,115.860001,114.269997,115.699997,111.527565,5880500
2015-07-07,116.419998,117.190002,114.860001,117.099998,112.877083,8359900
2015-07-08,116.500000,116.680000,115.110001,115.190002,111.035965,8445200
2015-07-09,116.830002,117.209999,115.510002,115.599998,111.431168,7016800
2015-07-10,117.050003,117.430000,115.669998,116.440002,112.240883,7020700
2015-07-13,117.750000,118.309998,117.250000,118.050003,113.792831,7595200
2015-07-14,118.029999,118.139999,117.699997,117.849998,113.600029,5061700
2015-07-15,118.040001,118.900002,117.849998,118.300003,114.033813,4845200
2015-07-16,119.000000,119.150002,118.540001,119.070000,114.776031,6303000
2015-07-17,118.690002,118.900002,118.029999,118.860001,114.573616,5109900
2015-07-20,119.290001,119.900002,118.889999,119.580002,115.267647,6611400
2015-07-21,119.760002,119.800003,118.830002,119.309998,115.007385,4785200
2015-07-22,119.279999,119.699997,118.930000,119.330002,115.026665,4714100
2015-07-23,119.300003,119.669998,118.570000,118.800003,114.515785,3347200
2015-07-24,119.349998,119.800003,118.580002,118.910004,114.621811,4320900
2015-07-27,118.629997,118.800003,117.779999,118.250000,113.985611,5179300
2015-07-28,118.680000,118.900002,117.870003,118.459999,114.188026,6447300
2015-07-29,118.849998,119.860001,118.410004,119.839996,115.518272,6083500
2015-07-30,119.709999,120.349998,119.010002,120.029999,115.701424,4430100
2015-07-31,120.120003,120.720001,119.599998,120.000000,115.672501,5767300
2015-08-03,120.879997,121.730003,120.169998,121.120003,116.752121,8426900
2015-08-04,121.500000,122.080002,120.610001,121.690002,117.301552,12624400
2015-08-05,110.830002,113.949997,109.500000,110.529999,106.544014,61011200
2015-08-06,110.400002,110.400002,104.239998,108.550003,104.635429,57175200
2015-08-07,108.750000,109.559998,107.660004,109.349998,105.406570,15791600
2015-08-10,110.000000,111.000000,109.739998,111.000000,106.997055,11617000
2015-08-11,110.339996,110.489998,107.949997,108.000000,104.105263,13528500
2015-08-12,107.000000,107.440002,105.510002,106.989998,103.131668,16923500
2015-08-13,107.209999,108.510002,106.750000,107.519997,103.642555,9754500
2015-08-14,107.610001,107.669998,106.519997,107.160004,103.295547,7088700
2015-08-17,107.300003,109.279999,106.839996,109.050003,105.117378,7954000
2015-08-18,108.040001,108.250000,106.800003,106.940002,103.083481,12021500
2015-08-19,106.580002,107.750000,105.769997,106.449997,102.611137,9484400
2015-08-20,104.339996,105.000000,99.760002,100.019997,96.413033,34651300
2015-08-21,97.500000,100.629997,96.610001,98.839996,95.275581,30875700
2015-08-24,93.379997,100.000000,90.000000,95.360001,91.921097,30159200
2015-08-25,99.730003,100.089996,95.720001,95.889999,92.431976,19079400
2015-08-26,98.690002,99.489998,96.260002,99.230003,95.651527,13755900
2015-08-27,101.349998,102.620003,99.779999,102.169998,98.485497,17532200
2015-08-28,102.190002,103.339996,101.809998,102.480003,98.784317,11005200
2015-08-31,102.300003,102.459999,100.910004,101.879997,98.205948,8473600
2015-09-01,99.309998,101.339996,99.160004,99.510002,95.921432,14212600
2015-09-02,100.919998,101.940002,99.550003,101.889999,98.215591,12148200
2015-09-03,102.199997,103.029999,101.459999,101.989998,98.311981,8953300
2015-09-04,100.959999,101.820000,100.360001,100.970001,97.328766,9213800
2015-09-08,102.949997,104.150002,102.519997,104.010002,100.259140,8571500
2015-09-09,104.750000,104.949997,101.680000,101.910004,98.234879,9495600
2015-09-10,101.849998,103.220001,101.330002,102.599998,98.899979,9026100
2015-09-11,102.349998,104.500000,102.199997,104.480003,100.712196,9529800
2015-09-14,104.650002,104.900002,102.989998,103.820000,100.075996,6959800
2015-09-15,103.250000,103.800003,101.830002,103.430000,99.700058,9153500
2015-09-16,103.320000,104.070000,102.750000,103.959999,100.210953,6509700
2015-09-17,104.199997,105.949997,103.750000,104.199997,100.442284,7792600
2015-09-18,103.199997,104.209999,102.389999,102.839996,99.131332,13423100
2015-09-21,103.680000,103.830002,102.459999,103.410004,99.680786,7152300
2015-09-22,102.180000,102.750000,101.480003,102.489998,98.793953,8330100
2015-09-23,102.440002,102.629997,101.379997,101.570000,97.907135,5818000
2015-09-24,101.000000,101.330002,99.239998,100.620003,96.991386,10706800
2015-09-25,101.510002,101.800003,99.580002,100.300003,96.682938,7179800
2015-09-28,99.900002,100.389999,98.300003,98.489998,94.938202,8238300
2015-09-29,98.510002,100.059998,97.769997,99.419998,95.834663,9466900
2015-09-30,100.779999,102.430000,100.500000,102.199997,98.514412,9125400
2015-10-01,102.970001,103.470001,101.080002,102.669998,98.967468,7503700
2015-10-02,101.209999,103.010002,99.879997,103.000000,99.285561,9105600
2015-10-05,103.699997,104.199997,102.610001,103.849998,100.104912,7144600
2015-10-06,104.190002,104.510002,103.209999,103.769997,100.027794,5660600
2015-10-07,104.489998,104.589996,102.660004,103.389999,99.661499,6947200
2015-10-08,103.199997,104.889999,102.699997,104.610001,100.837509,7499100
2015-10-09,105.089996,106.050003,104.669998,105.559998,101.753242,7341800
2015-10-12,105.910004,106.699997,105.620003,106.349998,102.514755,5179000
2015-10-13,105.739998,107.389999,105.309998,106.589996,102.746101,8342700
2015-10-14,106.500000,106.849998,105.230003,105.730003,101.917122,5563600
2015-10-15,106.500000,108.000000,106.260002,107.889999,103.999214,6739200
2015-10-16,108.269997,108.500000,107.459999,108.239998,104.336594,5908900
2015-10-19,108.250000,109.970001,107.940002,109.470001,105.522240,8001900
2015-10-20,109.550003,110.529999,109.410004,109.839996,105.878883,9542400
2015-10-21,110.669998,111.559998,110.010002,110.089996,106.119881,8769800
2015-10-22,110.669998,113.349998,110.389999,113.250000,109.165932,10028900
2015-10-23,114.209999,114.209999,111.849998,113.089996,109.011688,7928400
2015-10-26,113.070000,113.580002,112.120003,113.519997,109.426186,5729600
2015-10-27,113.290001,114.269997,113.250000,113.769997,109.667168,5857600
2015-10-28,113.970001,114.459999,112.860001,114.339996,110.216614,6452900
2015-10-29,114.339996,115.400002,114.199997,115.040001,110.891373,6067100
2015-10-30,115.000000,115.239998,113.669998,113.739998,109.638252,8501600
2015-11-02,114.489998,115.309998,114.010002,115.040001,110.891373,6949500
2015-11-03,114.970001,116.400002,114.540001,115.540001,111.373344,7132100
2015-11-04,116.639999,116.830002,110.809998,113.250000,109.165932,20690800
2015-11-05,113.260002,113.930000,111.599998,113.000000,108.924934,14843700
2015-11-06,114.599998,116.750000,114.570000,115.669998,111.498657,16803400
2015-11-09,115.900002,116.730003,115.180000,116.419998,112.221611,9317500
2015-11-10,116.169998,117.510002,115.510002,117.419998,113.185547,8240500
2015-11-11,117.550003,117.580002,116.430000,116.519997,112.317993,6381700
2015-11-12,115.599998,116.989998,115.000000,116.209999,112.019173,7223000
2015-11-13,115.919998,116.419998,114.379997,114.839996,110.698586,8078100
2015-11-16,113.470001,116.080002,113.339996,115.919998,111.739639,5770200
2015-11-17,116.110001,117.550003,115.510002,116.129997,111.942055,6434400
2015-11-18,116.220001,118.279999,116.050003,118.139999,113.879585,6744600
2015-11-19,118.139999,119.160004,117.639999,118.709999,114.429016,6101000
2015-11-20,119.110001,120.250000,118.900002,120.070000,115.739975,10821700
2015-11-23,120.300003,120.650002,119.000000,119.419998,115.113419,6986400
2015-11-24,117.900002,118.570000,117.279999,117.949997,113.696434,9158200
2015-11-25,118.290001,119.339996,118.150002,118.669998,114.390465,4751500
2015-11-27,116.000000,116.500000,113.699997,115.129997,110.978127,14912000
2015-11-30,115.559998,115.580002,113.309998,113.470001,109.377991,16560300
2015-12-01,114.150002,115.459999,113.660004,115.389999,111.228752,8896100
2015-12-02,115.389999,115.470001,113.830002,114.000000,109.888878,7787800
2015-12-03,114.169998,114.650002,111.440002,111.889999,107.854965,10446600
2015-12-04,112.739998,114.309998,112.529999,114.239998,110.120224,8771300
2015-12-07,114.559998,114.559998,112.650002,113.830002,109.725014,6738500
2015-12-08,113.349998,113.449997,112.400002,112.480003,108.423698,7480600
2015-12-09,112.389999,113.059998,110.580002,111.470001,107.450111,9050700
2015-12-10,111.150002,111.580002,110.169998,110.760002,107.450111,6954500
2015-12-11,110.760002,110.760002,107.620003,108.040001,104.811401,12334900
2015-12-14,108.680000,109.870003,108.279999,109.349998,106.082253,9596900
2015-12-15,112.050003,113.349998,111.580002,112.160004,108.808281,13361700
2015-12-16,114.690002,114.750000,111.800003,113.790001,110.389565,12304500
2015-12-17,114.129997,114.480003,111.980003,112.010002,108.662758,9375000
2015-12-18,112.010002,112.440002,107.349998,107.720001,104.500961,28376900
2015-12-21,108.800003,110.099998,105.330002,106.589996,103.404716,22847200
2015-12-22,106.989998,107.199997,105.830002,106.739998,103.550240,8514200
2015-12-23,107.209999,107.239998,104.300003,105.559998,102.405502,12372900
2015-12-24,105.199997,106.639999,105.059998,105.860001,102.696541,4356100
2015-12-28,106.500000,108.199997,106.330002,107.250000,104.044998,8787300
2015-12-29,107.879997,108.040001,106.449997,107.080002,103.880089,8607200
2015-12-30,106.889999,107.209999,106.250000,106.339996,103.162193,4917000
2015-12-31,106.139999,106.309998,105.059998,105.080002,101.939850,6670100
2016-01-04,103.120003,103.430000,101.730003,102.980003,99.902618,12531500
2016-01-05,102.669998,102.669998,99.889999,100.900002,97.884766,16212900
2016-01-06,99.379997,101.459999,99.360001,100.360001,97.360901,13934500
2016-01-07,98.959999,101.349998,98.519997,99.500000,96.526596,14680200
2016-01-08,100.629997,100.919998,99.000000,99.250000,96.284065,10691600
2016-01-11,100.209999,100.449997,98.550003,99.919998,96.934044,9558600
2016-01-12,100.970001,101.849998,100.339996,101.459999,98.428032,8863900
2016-01-13,101.879997,101.879997,98.120003,98.480003,95.537086,11615400
2016-01-14,98.650002,99.910004,97.190002,99.110001,96.148254,11147500
2016-01-15,95.620003,96.879997,93.459999,93.900002,91.093956,22337000
2016-01-19,95.000000,95.070000,93.029999,93.970001,91.161850,13286800
2016-01-20,92.180000,93.639999,90.419998,92.540001,89.774597,16918100
2016-01-21,92.870003,94.860001,92.300003,94.019997,91.210358,12078200
2016-01-22,95.949997,97.419998,95.550003,96.900002,94.004303,12303800
2016-01-25,96.419998,96.680000,95.120003,95.290001,92.442413,7812200
2016-01-26,95.489998,96.430000,95.089996,96.269997,93.393120,6895000
2016-01-27,96.309998,96.629997,93.870003,94.320000,91.501396,6328900
2016-01-28,95.199997,95.199997,92.370003,93.529999,90.735001,7312700
2016-01-29,94.209999,95.820000,93.629997,95.820000,92.956573,8211600
2016-02-01,95.080002,95.709999,94.699997,95.150002,92.306595,7027200
2016-02-02,94.000000,94.169998,92.870003,93.120003,90.337265,7244400
2016-02-03,94.099998,95.410004,92.419998,95.139999,92.296883,10878000
2016-02-04,94.870003,96.730003,94.599998,95.430000,92.578232,8207900
2016-02-05,95.320000,95.389999,93.470001,93.900002,91.093956,8898500
2016-02-08,92.559998,92.959999,89.510002,92.120003,89.367142,13750100
2016-02-09,90.150002,93.199997,89.040001,92.320000,89.561165,15166900
2016-02-10,88.000000,90.029999,86.250000,88.849998,86.194855,32649800
2016-02-11,87.000000,91.059998,86.959999,90.309998,87.611229,17523800
2016-02-12,91.519997,91.589996,89.610001,91.150002,88.426132,10786100
2016-02-16,92.470001,93.309998,91.790001,92.910004,90.133530,9050900
2016-02-17,93.669998,96.440002,93.559998,95.500000,92.646133,12610000
2016-02-18,96.339996,96.449997,94.449997,95.169998,92.325996,8773900
2016-02-19,95.230003,95.720001,94.559998,95.010002,92.170769,6838200
2016-02-22,95.010002,97.000000,95.010002,96.370003,93.490135,6980400
2016-02-23,96.500000,96.820000,95.150002,95.379997,92.529724,6253800
2016-02-24,94.650002,95.750000,93.230003,95.430000,92.578232,6945600
2016-02-25,95.919998,95.949997,94.349998,95.650002,92.791656,4536900
2016-02-26,95.709999,96.220001,95.279999,95.309998,92.461807,5277000
2016-02-29,95.309998,96.290001,95.230003,95.519997,92.665535,7794400
2016-03-01,95.900002,97.660004,95.529999,97.650002,94.731888,7139900
2016-03-02,97.669998,97.830002,96.410004,97.000000,94.101311,6498600
2016-03-03,97.790001,98.839996,96.889999,98.820000,95.866920,8536100
2016-03-04,99.000000,99.209999,97.900002,98.480003,95.537086,6739800
2016-03-07,98.570000,99.709999,98.480003,99.389999,96.419891,7218700
2016-03-08,98.930000,98.980003,97.599998,97.820000,94.896805,6229300
2016-03-09,98.000000,98.239998,96.809998,97.660004,94.741585,7010700
2016-03-10,97.940002,98.419998,95.870003,97.040001,94.140114,5417500
2016-03-11,97.570000,98.349998,97.540001,97.940002,95.013222,5605800
2016-03-14,97.940002,99.220001,97.839996,98.809998,95.857216,6175000
2016-03-15,98.019997,98.330002,97.389999,98.239998,95.304245,5942400
2016-03-16,98.160004,99.080002,97.470001,98.440002,95.498283,6079400
2016-03-17,98.279999,99.910004,98.279999,99.599998,96.623619,6385600
2016-03-18,99.980003,100.150002,98.959999,99.199997,96.235565,10205100
2016-03-21,98.919998,99.120003,97.699997,98.459999,95.517677,7070300
2016-03-22,97.589996,98.320000,97.440002,97.580002,94.663979,6475700
2016-03-23,97.720001,97.849998,96.750000,96.830002,93.936394,5517700
2016-03-24,96.550003,97.489998,96.300003,97.220001,94.314735,5577700
2016-03-28,97.500000,98.459999,97.449997,98.089996,95.158730,5317100
2016-03-29,98.000000,98.370003,97.360001,98.160004,95.226654,5124300
2016-03-30,98.900002,99.089996,98.349998,98.910004,95.954239,5677500
2016-03-31,99.010002,100.370003,99.010002,99.309998,96.342278,7038800
2016-04-01,98.800003,99.339996,98.580002,99.070000,96.109451,5895500
2016-04-04,99.300003,99.440002,98.580002,98.680000,95.731102,5334700
2016-04-05,96.849998,97.610001,96.150002,97.000000,94.101311,10818800
2016-04-06,96.959999,97.629997,96.830002,97.480003,94.566971,6934400
2016-04-07,97.110001,97.419998,95.919998,96.160004,93.286415,7525400
2016-04-08,96.629997,96.839996,95.800003,96.419998,93.538635,6982700
2016-04-11,96.930000,97.639999,96.199997,96.269997,93.393120,5916600
2016-04-12,96.279999,97.529999,96.070000,97.349998,94.440849,6213400
2016-04-13,98.029999,99.809998,97.959999,99.480003,96.507202,7967400
2016-04-14,99.790001,99.870003,98.260002,98.629997,95.682594,6641900
2016-04-15,98.500000,98.889999,98.180000,98.589996,95.643791,6146800
2016-04-18,99.599998,101.949997,99.500000,101.480003,98.447433,10650400
2016-04-19,102.000000,103.639999,101.930000,102.639999,99.572769,10639800
2016-04-20,103.019997,103.480003,101.959999,103.269997,100.183929,7712000
2016-04-21,103.360001,104.120003,102.650002,102.910004,99.834702,6824800
2016-04-22,103.059998,103.989998,102.930000,103.769997,100.668999,5731300
2016-04-25,103.500000,104.620003,103.349998,104.570000,101.445091,6117100
2016-04-26,104.580002,105.570000,104.180000,104.889999,101.755524,6452900
2016-04-27,105.190002,105.599998,104.760002,105.279999,102.133865,5996100
2016-04-28,104.540001,105.489998,103.800003,104.029999,100.921227,5658300
2016-04-29,103.949997,104.209999,102.400002,103.260002,100.174240,7006900
2016-05-02,103.300003,104.570000,102.800003,104.360001,101.241371,5285700
2016-05-03,103.879997,103.989998,103.190002,103.779999,100.678703,6243300
2016-05-04,103.309998,104.480003,103.199997,103.669998,100.571983,6445100
2016-05-05,103.980003,105.129997,103.449997,104.930000,101.794327,6466000
2016-05-06,104.510002,105.739998,104.389999,105.540001,102.386108,7407500
2016-05-09,106.010002,106.680000,104.970001,105.339996,102.192078,8130300
2016-05-10,105.529999,106.750000,105.449997,106.599998,103.414429,10761800
2016-05-11,101.459999,102.500000,100.620003,102.290001,99.233238,27068100
2016-05-12,102.500000,102.849998,101.129997,101.709999,98.670563,11251700
2016-05-13,101.709999,102.040001,100.360001,100.519997,97.516113,9570200
2016-05-16,100.410004,100.669998,99.370003,100.360001,97.360901,9113000
2016-05-17,100.790001,101.290001,99.550003,99.940002,96.953445,8694400
2016-05-18,99.589996,99.769997,98.360001,99.000000,96.041550,9323100
2016-05-19,98.580002,98.610001,97.510002,98.410004,95.469170,7063500
2016-05-20,99.000000,99.930000,98.769997,99.779999,96.798225,7297000
2016-05-23,99.599998,100.330002,99.120003,99.180000,96.216171,5453400
2016-05-24,99.449997,100.040001,99.379997,99.510002,96.536301,5250800
2016-05-25,99.919998,100.800003,99.809998,99.860001,96.875847,5667300
2016-05-26,99.889999,100.489998,99.570000,99.809998,96.827332,3749700
2016-05-27,99.809998,100.529999,99.809998,100.290001,97.292992,4589100
2016-05-31,99.849998,99.889999,98.570000,99.220001,96.254974,10396200
2016-06-01,98.669998,98.989998,97.730003,98.519997,95.575874,7243900
2016-06-02,98.070000,98.720001,97.870003,98.720001,95.769905,4822100
2016-06-03,98.660004,98.919998,97.730003,98.750000,95.799011,6857500
2016-06-06,98.959999,99.120003,98.470001,98.779999,95.828117,4986600
2016-06-07,99.000000,99.040001,98.320000,98.349998,95.410965,5608400
2016-06-08,98.489998,98.820000,97.699997,98.040001,95.110229,5466200
2016-06-09,97.820000,97.930000,97.099998,97.839996,94.916199,5379400
2016-06-10,97.150002,97.709999,96.779999,97.339996,94.431152,7204400
2016-06-13,96.750000,98.980003,96.699997,97.570000,94.654274,8766300
2016-06-14,97.199997,98.550003,97.180000,98.400002,95.459480,6125700
2016-06-15,98.190002,99.000000,98.190002,98.269997,95.333359,6663200
2016-06-16,97.800003,98.629997,96.860001,98.379997,95.440071,7129700
2016-06-17,98.410004,99.139999,98.269997,99.000000,96.041550,8959400
2016-06-20,100.080002,100.959999,99.500000,99.570000,96.594505,8268600
2016-06-21,99.730003,99.790001,98.769997,98.820000,95.866920,5202500
2016-06-22,99.080002,99.620003,98.699997,98.790001,95.837822,4948900
2016-06-23,99.440002,99.620003,98.610001,99.019997,96.060944,5826100
2016-06-24,96.010002,97.279999,95.139999,95.720001,92.859558,15079900
2016-06-27,94.910004,95.230003,94.000000,94.379997,91.559601,9438400
2016-06-28,95.459999,96.279999,95.139999,96.050003,93.179695,7143100
2016-06-29,96.910004,97.290001,96.279999,96.980003,94.081909,6563600
2016-06-30,97.099998,98.070000,96.879997,97.820000,94.896805,7189500
2016-07-01,97.750000,98.639999,97.709999,98.029999,95.100533,5681600
2016-07-05,97.769997,98.000000,97.169998,97.660004,94.741585,5846400
2016-07-06,97.000000,98.519997,96.760002,98.449997,95.507980,6223300
2016-07-07,97.629997,98.480003,97.580002,98.410004,96.162682,5104500
2016-07-08,99.250000,99.849998,98.769997,99.620003,97.345055,6045800
2016-07-11,99.800003,100.349998,99.400002,99.980003,97.696838,5428000
2016-07-12,100.180000,100.790001,100.000000,100.199997,97.911797,8508500
2016-07-13,100.459999,100.800003,99.849998,99.879997,97.599113,5494700
2016-07-14,100.419998,100.800003,99.680000,99.970001,97.687057,7461500
2016-07-15,100.419998,100.540001,99.540001,99.800003,97.520943,5764400
2016-07-18,99.900002,100.709999,99.870003,100.150002,97.862938,5051300
2016-07-19,99.809998,99.989998,99.360001,99.470001,97.198479,5742700
2016-07-20,98.650002,98.690002,97.139999,98.220001,95.977020,10664900
2016-07-21,98.169998,99.129997,97.620003,98.010002,95.771812,6726600
2016-07-22,98.389999,98.419998,97.470001,97.709999,95.478661,5381700
2016-07-25,97.900002,98.059998,97.250000,97.389999,95.165970,4825500
2016-07-26,97.019997,97.160004,96.339996,96.690002,94.481964,6274800
2016-07-27,96.699997,96.930000,95.860001,96.330002,94.130173,6905900
2016-07-28,96.400002,96.489998,95.820000,95.910004,93.719772,7713500
2016-07-29,95.849998,96.379997,95.849998,95.949997,93.758850,8264000
2016-08-01,96.150002,96.199997,95.080002,95.540001,93.358215,7131600
2016-08-02,95.349998,95.750000,94.559998,95.010002,92.840324,7644100
2016-08-03,95.059998,96.430000,95.000000,96.089996,93.895660,9068700
2016-08-04,95.529999,95.980003,94.709999,95.160004,92.986900,9768100
2016-08-05,95.400002,96.000000,95.349998,95.830002,93.641602,6528500
2016-08-08,96.110001,96.290001,95.580002,95.750000,93.563423,7792000
2016-08-09,95.610001,96.849998,95.300003,96.669998,94.462418,15548700
2016-08-10,96.699997,99.269997,95.849998,97.860001,95.625244,27181300
2016-08-11,98.199997,98.389999,97.150002,97.769997,95.537292,9056500
2016-08-12,97.820000,97.820000,96.660004,96.839996,94.628532,9360300
2016-08-15,97.349998,97.610001,96.919998,97.099998,94.882599,5299600
2016-08-16,96.860001,97.250000,96.269997,96.879997,94.667618,5777800
2016-08-17,96.839996,96.970001,96.519997,96.870003,94.657852,5697300
2016-08-18,96.870003,97.120003,96.550003,96.650002,94.442879,5250700
2016-08-19,96.400002,96.790001,96.050003,96.389999,94.188805,6362400
2016-08-22,96.470001,96.470001,95.650002,95.870003,93.680687,5495300
2016-08-23,96.129997,96.430000,95.800003,95.970001,93.778397,4996300
2016-08-24,96.010002,96.220001,95.510002,95.820000,93.631828,5912500
2016-08-25,95.620003,95.820000,95.410004,95.550003,93.367996,4518700
2016-08-26,95.660004,96.129997,94.750000,95.209999,93.035751,6019600
2016-08-29,95.070000,95.320000,94.459999,94.870003,92.703529,7858200
2016-08-30,94.769997,95.290001,94.769997,94.860001,92.693748,6845000
2016-08-31,94.690002,94.900002,94.160004,94.459999,92.302879,7375200
2016-09-01,94.730003,94.870003,93.910004,94.260002,92.107452,6274200
2016-09-02,94.750000,94.959999,94.129997,94.419998,92.263794,5382000
2016-09-06,94.529999,94.529999,93.349998,93.800003,91.657959,8463500
2016-09-07,93.980003,94.029999,93.330002,93.709999,91.570015,6281500
2016-09-08,93.489998,94.209999,92.930000,94.089996,91.941330,7411900
2016-09-09,93.510002,93.739998,92.389999,92.419998,90.309471,10248400
2016-09-12,91.959999,93.860001,91.949997,93.639999,91.501610,9367300
2016-09-13,93.040001,93.300003,92.449997,92.699997,90.583069,7795200
2016-09-14,92.589996,92.889999,92.070000,92.260002,90.153122,6386500
2016-09-15,92.120003,92.750000,91.190002,92.500000,90.387642,7559400
2016-09-16,92.269997,92.739998,91.800003,92.559998,90.446274,10568600
2016-09-19,92.800003,93.320000,92.339996,92.629997,90.514664,5395300
2016-09-20,92.699997,93.300003,92.680000,92.949997,90.827370,6200100
2016-09-21,93.000000,93.080002,91.699997,92.389999,90.280159,12049500
2016-09-22,92.730003,93.709999,92.639999,93.410004,91.276863,6470700
2016-09-23,93.070000,93.519997,93.000000,93.269997,91.140053,4407700
2016-09-26,92.470001,92.680000,91.400002,91.959999,89.859978,10449300
2016-09-27,91.930000,92.180000,91.500000,91.720001,89.625458,9167400
2016-09-28,91.750000,92.300003,91.480003,92.199997,90.094482,8272300
2016-09-29,92.139999,93.099998,91.529999,91.800003,89.703629,7476600
2016-09-30,92.279999,93.489998,92.209999,92.860001,90.739418,8923700
2016-10-03,92.470001,92.720001,92.050003,92.489998,90.377876,5834700
2016-10-04,92.449997,92.989998,92.110001,92.589996,90.475586,5903400
2016-10-05,92.940002,93.279999,92.379997,92.449997,90.338783,5365000
2016-10-06,92.750000,93.580002,92.389999,92.830002,90.710106,7484800
2016-10-07,93.059998,93.290001,92.019997,92.489998,90.377876,6144100
2016-10-10,92.699997,93.209999,92.400002,92.489998,90.377876,4213900
2016-10-11,92.330002,92.379997,91.570000,91.860001,89.762260,6651100
2016-10-12,91.879997,92.080002,91.389999,91.410004,89.322533,6836600
2016-10-13,90.949997,91.360001,90.320000,91.120003,89.039154,5725200
2016-10-14,91.769997,91.769997,91.290001,91.300003,89.215057,4345700
2016-10-17,91.349998,91.470001,90.559998,90.830002,88.755783,5134600
2016-10-18,91.400002,91.739998,90.980003,91.169998,89.088013,4865600
2016-10-19,91.269997,92.139999,91.000000,91.930000,89.830658,6140500
2016-10-20,91.660004,92.320000,91.440002,92.029999,89.928375,6153200
2016-10-21,91.330002,94.190002,90.599998,93.029999,90.905533,13814500
2016-10-24,93.489998,94.150002,92.800003,93.370003,91.237778,7281000
2016-10-25,93.139999,93.360001,92.639999,92.750000,90.631935,6380700
2016-10-26,92.389999,93.720001,91.900002,93.489998,91.355026,7152800
2016-10-27,93.800003,94.339996,93.309998,94.019997,91.872925,6647000
2016-10-28,93.889999,94.400002,93.529999,93.849998,91.706802,7309100
2016-10-31,93.720001,93.820000,92.309998,92.690002,90.573303,9957600
2016-11-01,92.779999,92.989998,91.660004,92.389999,90.280159,6449800
2016-11-02,91.910004,92.559998,91.690002,91.910004,89.811119,6716200
2016-11-03,92.260002,94.129997,92.239998,93.370003,91.237778,7751400
2016-11-04,93.500000,93.790001,92.360001,92.449997,90.338783,7456500
2016-11-07,93.769997,94.480003,92.949997,94.430000,92.273567,6996100
2016-11-08,94.529999,94.849998,93.900002,94.379997,92.224701,6111000
2016-11-09,92.290001,94.919998,92.110001,94.639999,92.478775,8635700
2016-11-10,94.889999,96.059998,94.230003,94.959999,92.791466,13777900
2016-11-11,97.180000,98.320000,95.779999,97.680000,95.449348,23008100
2016-11-14,97.559998,98.309998,97.449997,97.919998,95.683868,13181000
2016-11-15,97.900002,98.139999,97.419998,97.699997,95.468895,7184600
2016-11-16,98.330002,99.169998,98.099998,99.120003,96.856476,9690100
2016-11-17,99.050003,99.500000,98.269997,99.370003,97.100761,8662600
2016-11-18,99.050003,99.370003,98.139999,98.239998,95.996559,8586100
2016-11-21,98.110001,98.269997,97.000000,97.629997,95.400490,10771100
2016-11-22,97.400002,97.930000,97.269997,97.709999,95.478661,5323700
2016-11-23,97.669998,98.279999,97.589996,98.260002,96.016113,5897400
2016-11-25,98.709999,99.070000,98.500000,98.820000,96.563316,4396800
2016-11-28,98.519997,99.199997,98.320000,98.970001,96.709892,7106700
2016-11-29,99.239998,99.680000,98.970001,99.669998,97.393898,8396800
2016-11-30,99.400002,100.290001,99.000000,99.120003,96.856476,11369200
2016-12-01,99.129997,99.750000,98.620003,98.940002,96.680580,9958100
2016-12-02,98.790001,99.080002,98.250000,98.500000,96.250618,7737200
2016-12-05,98.980003,100.269997,98.680000,99.959999,97.677284,11331500
2016-12-06,99.949997,100.720001,99.820000,100.660004,98.361305,8427500
2016-12-07,100.510002,102.070000,100.440002,101.989998,99.660927,12255700
2016-12-08,101.470001,103.959999,101.470001,103.379997,101.797714,16524800
2016-12-09,103.489998,105.519997,103.180000,104.860001,103.255058,12173900
2016-12-12,104.610001,104.699997,103.730003,104.059998,102.467308,7880200
2016-12-13,104.199997,104.309998,103.709999,103.849998,102.260521,7393200
2016-12-14,103.620003,104.410004,103.500000,104.050003,102.457458,7961900
2016-12-15,103.849998,105.639999,103.820000,104.389999,102.792252,8745400
2016-12-16,104.709999,104.730003,103.750000,103.910004,102.319603,11399500
2016-12-19,105.699997,106.260002,105.070000,105.300003,103.688332,11475600
2016-12-20,105.639999,106.199997,105.059998,105.459999,103.845879,8947300
2016-12-21,104.610001,105.910004,104.510002,105.559998,103.944344,5202400
2016-12-22,104.959999,105.489998,104.699997,105.419998,103.806488,5230800
2016-12-23,105.239998,105.339996,104.750000,105.150002,103.540627,3231000
2016-12-27,104.849998,105.559998,104.779999,105.169998,103.560310,3639500
2016-12-28,104.989998,105.320000,104.059998,104.300003,102.703629,5178600
2016-12-29,104.230003,104.769997,103.870003,104.559998,102.959648,5892000
2016-12-30,104.570000,105.000000,103.959999,104.220001,102.624855,6983300
2017-01-03,105.300003,106.900002,105.209999,106.080002,104.456390,8884300
2017-01-04,106.639999,107.500000,106.250000,107.440002,105.795570,8322000
2017-01-05,107.169998,107.620003,106.790001,107.379997,105.736488,6303000
2017-01-06,108.019997,109.349998,107.750000,108.980003,107.312004,9551300
2017-01-09,108.580002,108.830002,108.110001,108.360001,106.701492,6193400
2017-01-10,107.900002,108.820000,107.349998,108.379997,106.721184,7901900
2017-01-11,108.540001,109.489998,108.379997,109.440002,107.764969,7616800
2017-01-12,108.120003,109.000000,107.430000,107.529999,105.884193,8218900
2017-01-13,107.160004,108.349998,106.900002,108.059998,106.406082,6489000
2017-01-17,107.910004,108.930000,107.650002,107.970001,106.317459,7583100
2017-01-18,106.930000,108.400002,106.809998,108.160004,106.504555,7162900
2017-01-19,107.919998,108.010002,107.080002,107.279999,105.638016,5350200
2017-01-20,107.349998,107.820000,107.180000,107.660004,106.012207,5649000
2017-01-23,107.339996,107.680000,106.570000,107.120003,105.480476,5716600
2017-01-24,107.199997,108.059998,107.080002,107.900002,106.248535,5456100
2017-01-25,108.230003,108.419998,108.000000,108.040001,106.386391,6180200
2017-01-26,108.209999,108.620003,107.980003,108.059998,106.406082,6088100
2017-01-27,108.489998,109.400002,108.150002,109.300003,107.627106,5578300
2017-01-30,109.860001,111.050003,108.959999,110.940002,109.242004,13793600
2017-01-31,110.589996,110.800003,109.980003,110.650002,108.956436,8485800
2017-02-01,110.709999,111.989998,110.680000,111.300003,109.596497,10501300
2017-02-02,111.209999,111.540001,110.550003,110.610001,108.917053,6515900
2017-02-03,110.900002,111.150002,110.209999,110.300003,108.611801,7923400
2017-02-06,109.919998,110.150002,109.300003,109.570000,107.892975,6896300
2017-02-07,109.650002,109.730003,108.769997,109.000000,107.331696,10184800
2017-02-08,109.559998,111.419998,108.980003,109.000000,107.331696,13615500
2017-02-09,109.000000,109.849998,109.000000,109.489998,107.814194,6369700
2017-02-10,109.349998,109.800003,108.580002,109.260002,107.587723,7671800
2017-02-13,108.949997,109.900002,108.900002,109.650002,107.971748,5653200
2017-02-14,109.800003,110.330002,109.529999,110.330002,108.641342,4764100
2017-02-15,109.910004,110.680000,109.800003,110.180000,108.493629,7087100
2017-02-16,110.339996,110.870003,110.089996,110.709999,109.015518,7179600
2017-02-17,110.239998,110.500000,109.519997,110.059998,108.375473,6349200
2017-02-21,109.940002,110.209999,109.800003,110.010002,108.326241,5432700
2017-02-22,109.690002,110.279999,109.529999,110.120003,108.434555,5478400
2017-02-23,110.300003,110.489998,109.589996,109.730003,108.050529,5470400
2017-02-24,109.620003,110.320000,109.099998,110.320000,108.631493,4786800
2017-02-27,109.930000,110.470001,109.830002,110.230003,108.542877,3547700
2017-02-28,110.000000,110.400002,109.830002,110.089996,108.405014,4766000
2017-03-01,110.660004,111.800003,110.660004,111.040001,109.340477,7418100
2017-03-02,111.000000,111.209999,110.449997,110.589996,108.897362,4715600
2017-03-03,110.589996,111.500000,110.040001,111.239998,109.537407,5837900
2017-03-06,110.769997,110.980003,110.089996,110.669998,108.976135,4983200
2017-03-07,110.699997,110.930000,110.160004,110.860001,109.163223,5114400
2017-03-08,110.870003,111.320000,110.660004,110.839996,109.143532,4929900
2017-03-09,110.900002,111.320000,110.690002,111.029999,109.330627,4005700
2017-03-10,111.400002,111.500000,110.690002,110.919998,109.222305,4027400
2017-03-13,110.919998,111.680000,110.820000,111.519997,109.813118,5213600
2017-03-14,111.730003,112.889999,111.720001,112.309998,110.591034,7273500
2017-03-15,112.430000,112.449997,111.150002,111.870003,110.157776,5319500
2017-03-16,112.180000,112.320000,111.400002,111.709999,110.000221,4409400
2017-03-17,111.870003,112.089996,111.180000,111.760002,110.049454,9061200
2017-03-20,112.070000,113.160004,112.050003,112.709999,110.984917,8156300
2017-03-21,112.970001,113.099998,111.540001,111.750000,110.039604,7109800
2017-03-22,111.849998,112.180000,111.349998,112.080002,110.364555,5044700
2017-03-23,111.709999,112.980003,111.660004,112.239998,110.522110,8307900
2017-03-24,112.400002,112.580002,111.680000,112.139999,110.423630,4707300
2017-03-27,111.809998,112.550003,111.449997,112.379997,110.659958,4469800
2017-03-28,112.599998,113.239998,112.019997,113.050003,111.319717,6280900
2017-03-29,112.660004,112.940002,112.309998,112.529999,110.807671,3781200
2017-03-30,112.529999,113.300003,112.279999,113.180000,111.447723,4192800
2017-03-31,113.000000,113.709999,112.949997,113.389999,111.654510,4617400
2017-04-03,113.180000,113.650002,112.430000,113.199997,111.467407,4643300
2017-04-04,113.150002,113.550003,112.830002,113.040001,111.309860,3386100
2017-04-05,113.580002,113.839996,112.790001,113.000000,111.270477,4795100
2017-04-06,112.849998,113.419998,112.389999,113.050003,111.319717,4744000
2017-04-07,112.820000,113.279999,112.529999,112.580002,110.856911,4300700
2017-04-10,112.800003,112.889999,112.040001,112.430000,110.709198,4053600
2017-04-11,113.680000,113.830002,112.589996,113.070000,111.339401,5230800
2017-04-12,113.029999,113.279999,112.760002,113.040001,111.309860,4086300
2017-04-13,113.040001,114.250000,112.989998,113.199997,111.467407,6530800
2017-04-17,113.330002,113.940002,113.220001,113.779999,112.038536,5120200
2017-04-18,113.480003,114.750000,113.000000,114.190002,112.442261,6191100
2017-04-19,114.559998,115.000000,113.540001,113.730003,111.989304,5303400
2017-04-20,114.169998,115.050003,113.870003,114.790001,113.033081,5279300
2017-04-21,114.379997,115.120003,114.269997,114.440002,112.688431,6654500
2017-04-24,115.260002,115.379997,113.660004,113.699997,111.959763,7294600
2017-04-25,113.730003,115.519997,113.680000,115.180000,113.417107,6918300
2017-04-26,115.400002,115.959999,114.860001,115.580002,113.810989,4809800
2017-04-27,115.800003,116.099998,115.389999,115.839996,114.067001,3910800
2017-04-28,115.870003,115.900002,115.239998,115.599998,113.830681,3947400
2017-05-01,115.589996,115.610001,114.720001,114.730003,112.973999,4963300
2017-05-02,114.870003,114.989998,113.680000,114.370003,112.619507,6604600
2017-05-03,114.029999,114.089996,111.180000,111.620003,109.911598,11521200
2017-05-04,110.580002,111.300003,109.059998,111.169998,109.468483,10691200
2017-05-05,111.489998,112.150002,110.919998,111.989998,110.275932,5871400
2017-05-08,112.389999,112.389999,111.000000,111.419998,109.714653,5980100
2017-05-09,111.550003,112.150002,110.349998,112.070000,110.354706,9337400
2017-05-10,109.000000,109.660004,108.129997,109.660004,107.981598,17061100
2017-05-11,109.739998,110.010002,108.500000,109.580002,107.902817,8021300
2017-05-12,109.800003,109.889999,109.269997,109.690002,108.011139,5067700
2017-05-15,109.730003,110.080002,109.120003,109.129997,107.459709,6241300
2017-05-16,109.129997,109.230003,107.820000,107.980003,106.327316,10047100
2017-05-17,107.980003,107.980003,105.230003,106.309998,104.682869,12763200
2017-05-18,105.980003,107.309998,105.980003,106.680000,105.047203,6532200
2017-05-19,106.760002,107.860001,106.699997,107.519997,105.874344,6336700
2017-05-22,107.650002,108.199997,107.410004,107.629997,105.982658,5487200
2017-05-23,107.680000,107.800003,106.910004,107.019997,105.381996,7542600
2017-05-24,107.150002,107.830002,106.930000,107.709999,106.061440,4366700
2017-05-25,108.129997,108.129997,106.779999,107.269997,105.628174,8030400
2017-05-26,107.709999,108.489998,107.480003,108.410004,106.750732,6236800
2017-05-30,108.489998,108.599998,107.949997,108.339996,106.681793,4813400
2017-05-31,108.400002,108.650002,107.639999,107.940002,106.287918,9963600
2017-06-01,107.730003,108.209999,107.169998,108.209999,106.553787,5907400
2017-06-02,108.459999,108.639999,106.949997,107.180000,105.539551,10876900
2017-06-05,107.040001,107.220001,106.110001,106.519997,104.889648,6372800
2017-06-06,106.169998,106.190002,104.610001,105.500000,103.885269,9589500
2017-06-07,105.790001,106.250000,105.540001,105.919998,104.298836,5777700
2017-06-08,105.919998,105.919998,104.160004,104.320000,102.723328,10953000
2017-06-09,104.279999,105.919998,104.080002,105.620003,104.003433,9392500
2017-06-12,105.620003,107.199997,105.620003,107.040001,105.401695,8049500
2017-06-13,107.139999,107.260002,106.160004,106.559998,104.929039,4918900
2017-06-14,106.949997,107.010002,105.760002,106.139999,104.515472,4781100
2017-06-15,105.940002,106.160004,105.230003,105.980003,104.357918,5309900
2017-06-16,106.279999,106.349998,104.769997,105.510002,103.895111,8683400
2017-06-19,105.599998,106.000000,105.190002,105.370003,103.757256,5956200
2017-06-20,105.070000,105.300003,103.809998,103.940002,102.349144,7895700
2017-06-21,104.389999,105.080002,103.540001,104.800003,103.195984,7765700
2017-06-22,104.709999,104.769997,104.089996,104.220001,102.624855,6156000
2017-06-23,103.830002,104.580002,103.169998,104.360001,102.762711,18147900
2017-06-26,104.599998,105.849998,104.559998,105.570000,103.954193,5867000
2017-06-27,105.330002,106.150002,105.139999,105.410004,103.796646,5694500
2017-06-28,106.019997,107.540001,104.519997,106.860001,105.224449,7874400
2017-06-29,106.800003,107.410004,105.330002,105.709999,104.092049,7268700
2017-06-30,106.250000,106.559998,105.500000,106.250000,104.623787,5113800
2017-07-03,106.760002,108.620003,106.760002,107.459999,105.815269,5399400
2017-07-05,107.830002,107.849998,105.290001,105.629997,104.013275,8049700
2017-07-06,104.610001,104.690002,102.940002,103.349998,102.525246,8690800
2017-07-07,103.510002,103.730003,102.720001,103.320000,102.495483,6030900
2017-07-10,103.300003,103.910004,102.870003,103.589996,102.763321,4421300
2017-07-11,103.599998,104.190002,103.190002,103.839996,103.011330,4557300
2017-07-12,104.339996,104.650002,103.650002,104.379997,103.547020,5203300
2017-07-13,104.449997,105.339996,104.040001,104.290001,103.457741,5339500
2017-07-14,104.430000,105.250000,104.410004,105.089996,104.251358,4370300
2017-07-17,105.169998,105.419998,104.709999,104.790001,103.953751,3973800
2017-07-18,104.599998,105.800003,104.309998,105.750000,104.906090,5740500
2017-07-19,106.129997,106.870003,106.050003,106.820000,105.967552,5789400
2017-07-20,106.989998,107.709999,106.750000,107.360001,106.503242,6185500
2017-07-21,107.099998,107.330002,106.809998,107.089996,106.235397,4328500
2017-07-24,107.309998,107.540001,106.900002,107.000000,106.146118,4615500
2017-07-25,107.599998,107.739998,106.199997,106.419998,105.570740,5394700
2017-07-26,106.550003,107.029999,106.309998,106.940002,106.086594,4149000
2017-07-27,107.690002,110.000000,107.440002,110.000000,109.122177,10468700
2017-07-28,109.980003,110.190002,109.669998,109.959999,109.082497,4864500
2017-07-31,110.019997,110.139999,109.339996,109.930000,109.052734,6815300
2017-08-01,109.980003,110.830002,109.949997,110.610001,109.727310,5987200
2017-08-02,109.879997,109.879997,107.519997,108.669998,107.802788,8812700
2017-08-03,108.519997,109.169998,108.050003,109.120003,108.249199,6895800
2017-08-04,108.230003,108.500000,107.320000,107.690002,106.830612,8503800
2017-08-07,107.589996,107.650002,106.110001,106.349998,105.501305,8093100
2017-08-08,106.550003,107.139999,106.180000,106.980003,106.126282,9787100
2017-08-09,100.709999,103.000000,100.500000,102.830002,102.009392,27877600
2017-08-10,102.500000,102.820000,101.220001,101.349998,100.541199,12259900
2017-08-11,101.250000,102.510002,101.029999,101.989998,101.176094,9410400
2017-08-14,102.800003,102.809998,101.260002,101.400002,100.590805,9584000
2017-08-15,101.629997,102.099998,101.360001,101.510002,100.699928,8868500
2017-08-16,101.839996,102.650002,101.720001,102.199997,101.384415,6698800
2017-08-17,102.239998,102.589996,101.339996,101.379997,100.570961,6612400
2017-08-18,101.320000,101.739998,100.660004,100.699997,99.896385,6893900
2017-08-21,100.639999,101.419998,100.529999,101.169998,100.362640,6492700
2017-08-22,101.410004,102.910004,101.169998,102.769997,101.949867,6888700
2017-08-23,102.480003,102.980003,101.480003,101.500000,100.690010,5954400
2017-08-24,101.820000,102.029999,101.430000,101.519997,100.709846,6976600
2017-08-25,101.690002,102.690002,101.559998,102.410004,101.592751,6186900
2017-08-28,102.489998,102.849998,102.080002,102.559998,101.741547,5630400
2017-08-29,102.000000,102.989998,101.820000,102.570000,101.751465,6011700
2017-08-30,102.480003,103.449997,102.480003,102.870003,102.049080,6573200
2017-08-31,103.000000,103.190002,101.000000,101.199997,100.392395,9823800
2017-09-01,101.650002,101.919998,101.360001,101.500000,100.690010,7827400
2017-09-05,102.000000,102.550003,100.900002,101.599998,100.789207,9346100
2017-09-06,101.760002,102.040001,100.889999,101.500000,100.690010,7531000
2017-09-07,101.550003,101.860001,96.199997,97.059998,96.285439,26419400
2017-09-08,96.489998,97.489998,96.260002,97.070000,96.295357,13147700
2017-09-11,97.900002,98.019997,96.959999,97.089996,96.315193,9610300
2017-09-12,97.589996,98.360001,97.129997,97.889999,97.108818,9151700
2017-09-13,98.239998,98.949997,98.019997,98.820000,98.031395,7615300
2017-09-14,98.790001,98.839996,97.540001,97.900002,97.118736,9710000
2017-09-15,98.050003,98.930000,98.000000,98.519997,97.733788,23870300
2017-09-18,98.389999,98.720001,97.720001,98.099998,97.317139,7013600
2017-09-19,98.230003,98.669998,98.080002,98.430000,97.644508,6970300
2017-09-20,98.760002,99.279999,98.620003,99.209999,98.418282,6459100
2017-09-21,99.190002,99.389999,98.750000,98.889999,98.100838,4958000
2017-09-22,98.550003,98.989998,98.529999,98.599998,97.813148,6359100
2017-09-25,98.599998,99.650002,98.419998,99.570000,98.775406,7492500
2017-09-26,99.639999,99.739998,98.610001,98.629997,97.842911,6220500
2017-09-27,98.970001,99.529999,98.019997,99.239998,98.448044,7596600
2017-09-28,98.769997,99.050003,98.000000,98.050003,97.267540,7149600
2017-09-29,97.889999,98.589996,97.660004,98.570000,97.783386,8185900
2017-10-02,99.309998,100.440002,99.110001,99.860001,99.063095,6923300
2017-10-03,100.050003,100.849998,99.910004,100.790001,99.985672,5447700
2017-10-04,100.739998,100.930000,100.199997,100.550003,99.747589,5126100
2017-10-05,100.639999,100.870003,100.019997,100.110001,99.311104,4736700
2017-10-06,99.949997,100.269997,99.339996,100.070000,99.271416,4360200
2017-10-09,100.809998,100.980003,99.449997,99.570000,98.775406,5429600
2017-10-10,99.989998,100.070000,98.660004,99.580002,98.785332,7704400
2017-10-11,99.580002,99.580002,98.050003,98.550003,97.763550,7984000
2017-10-12,97.559998,97.820000,96.809998,96.930000,96.156479,11018200
2017-10-13,96.800003,97.680000,96.800003,97.379997,96.602882,6858000
2017-10-16,97.639999,98.269997,97.540001,98.129997,97.346901,4911600
2017-10-17,98.400002,98.470001,97.860001,98.360001,97.575066,5942500
2017-10-18,98.360001,98.489998,97.550003,98.250000,97.465942,5404300
2017-10-19,98.190002,99.300003,98.110001,99.010002,98.219879,5634300
2017-10-20,99.449997,99.660004,98.940002,99.400002,98.606766,5938700
2017-10-23,99.120003,99.180000,98.629997,98.699997,97.912346,5888200
2017-10-24,98.519997,98.860001,98.059998,98.290001,97.505623,4966200
2017-10-25,98.050003,98.220001,97.449997,97.800003,97.019539,5144400
2017-10-26,97.580002,99.480003,97.250000,98.559998,97.773468,6167500
2017-10-27,97.900002,98.360001,96.889999,98.309998,97.525459,7868700
2017-10-30,98.120003,98.330002,97.699997,98.040001,97.257622,7093200
2017-10-31,97.940002,98.089996,97.379997,97.809998,97.029449,5701700
2017-11-01,98.129997,99.459999,98.000000,99.029999,98.239716,6920400
2017-11-02,98.870003,99.120003,98.019997,98.349998,97.565140,6799200
2017-11-03,98.360001,99.379997,97.900002,98.639999,97.852829,5416900
2017-11-06,98.370003,101.129997,98.349998,100.639999,99.836868,14728700
2017-11-07,101.290001,102.900002,100.739998,101.610001,100.799133,12177500
2017-11-08,101.879997,102.000000,100.419998,101.180000,100.372559,8023200
2017-11-09,100.830002,103.910004,100.800003,102.680000,101.860588,13172500
2017-11-10,104.989998,106.239998,104.080002,104.779999,103.943832,16701500
2017-11-13,104.139999,105.139999,103.980003,104.739998,103.904152,7856000
2017-11-14,104.570000,104.570000,103.000000,103.169998,102.346680,6929300
2017-11-15,102.750000,103.959999,102.449997,103.690002,102.862534,5691500
2017-11-16,103.629997,103.980003,102.760002,103.599998,102.773247,6410900
2017-11-17,103.220001,103.989998,102.970001,103.440002,102.614525,7500800
2017-11-20,103.419998,103.419998,102.699997,102.750000,101.930031,5112600
2017-11-21,102.970001,103.169998,102.790001,103.000000,102.178040,5725900
2017-11-22,103.220001,103.320000,102.690002,102.739998,101.920113,4140700
2017-11-24,102.910004,102.919998,102.449997,102.639999,101.820908,2217600
2017-11-27,102.629997,102.970001,102.379997,102.790001,101.969711,4007500
2017-11-28,102.559998,103.879997,102.169998,103.410004,102.584770,8401100
2017-11-29,103.500000,106.260002,103.430000,105.239998,104.400162,14503100
2017-11-30,105.360001,105.709999,104.470001,104.820000,103.983513,9949000
2017-12-01,104.580002,105.849998,103.870003,105.250000,104.410080,9258400
2017-12-04,106.500000,112.669998,106.500000,110.220001,109.340424,17824000
2017-12-05,109.529999,110.040001,106.519997,107.220001,106.364365,13055600
2017-12-06,107.169998,107.989998,105.360001,105.459999,104.618401,8121700
2017-12-07,105.739998,106.000000,104.489998,105.260002,104.420006,9948600
2017-12-08,104.910004,104.980003,104.080002,104.230003,104.230003,6536600
2017-12-11,104.870003,106.839996,104.769997,106.830002,106.830002,7434000
2017-12-12,107.139999,107.830002,106.589996,107.430000,107.430000,8147000
2017-12-13,108.150002,108.190002,106.750000,107.610001,107.610001,10368300
2017-12-14,107.290001,111.540001,107.199997,110.570000,110.570000,27571300
2017-12-15,111.980003,112.000000,110.599998,111.269997,111.269997,19978600
2017-12-18,111.839996,111.989998,110.309998,111.029999,111.029999,12270000
2017-12-19,111.330002,112.389999,110.769997,111.809998,111.809998,10546600
2017-12-20,111.620003,112.300003,109.690002,109.690002,109.690002,8661100
2017-12-21,109.720001,111.089996,109.190002,109.570000,109.570000,9372800
2017-12-22,109.489998,109.690002,108.449997,108.669998,108.669998,7378400
2017-12-26,108.489998,109.370003,107.889999,108.120003,108.120003,3982400
2017-12-27,108.419998,108.550003,107.459999,107.639999,107.639999,5624000
2017-12-28,108.000000,108.050003,107.059998,107.769997,107.769997,3477700
2017-12-29,108.050003,108.339996,107.510002,107.510002,107.510002,4538400
2018-01-02,108.949997,111.809998,108.559998,111.800003,111.800003,11014300
2018-01-03,112.190002,113.190002,111.449997,112.279999,112.279999,9237900
2018-01-04,112.949997,113.000000,111.629997,112.230003,112.230003,7417400
2018-01-05,112.680000,112.680000,111.239998,111.620003,111.620003,6008300
2018-01-08,110.889999,111.279999,109.540001,110.019997,110.019997,8052600
2018-01-09,110.129997,110.860001,109.860001,109.940002,109.940002,5838000
2018-01-10,109.959999,110.500000,109.010002,109.470001,109.470001,6060000
2018-01-11,110.250000,111.080002,109.510002,110.989998,110.989998,6427000
2018-01-12,111.320000,112.720001,111.000000,112.470001,112.470001,5899900
2018-01-16,113.070000,113.160004,110.620003,110.690002,110.690002,8069200
2018-01-17,111.199997,112.209999,110.570000,111.970001,111.970001,7030700
2018-01-18,111.739998,111.989998,110.199997,110.419998,110.419998,8070900
2018-01-19,110.970001,111.089996,109.839996,110.589996,110.589996,10514300
2018-01-22,110.269997,111.559998,110.059998,111.099998,111.099998,8073600
2018-01-23,110.269997,111.139999,109.889999,110.410004,110.410004,7477300
2018-01-24,110.959999,111.430000,110.290001,110.500000,110.500000,7211800
2018-01-25,110.599998,111.820000,110.120003,110.550003,110.550003,6291000
2018-01-26,110.809998,112.529999,110.669998,112.190002,112.190002,7743800
2018-01-29,112.099998,112.449997,111.239998,111.540001,111.540001,6847800
2018-01-30,111.419998,112.419998,110.099998,110.110001,110.110001,8393900
2018-01-31,110.080002,110.120003,108.470001,108.669998,108.669998,9841400
2018-02-01,108.620003,110.650002,107.360001,110.489998,110.489998,9518900
2018-02-02,109.949997,110.580002,108.449997,108.699997,108.699997,9947700
2018-02-05,107.099998,108.629997,104.010002,104.699997,104.699997,15107900
2018-02-06,102.879997,106.199997,101.760002,106.169998,106.169998,17765100
2018-02-07,107.830002,108.029999,104.410004,104.760002,104.760002,12445000
2018-02-08,105.470001,105.820000,101.190002,101.349998,101.349998,12667500
2018-02-09,102.550003,103.750000,100.260002,103.089996,103.089996,12479700
2018-02-12,103.930000,104.639999,102.099998,103.389999,103.389999,9584700
2018-02-13,102.639999,104.309998,102.400002,104.120003,104.120003,8447900
2018-02-14,103.489998,104.760002,102.690002,104.599998,104.599998,7425700
2018-02-15,105.360001,105.570000,103.930000,105.180000,105.180000,6494700
2018-02-16,105.190002,107.349998,105.190002,106.529999,106.529999,8746400
2018-02-20,106.370003,107.570000,105.519997,105.980003,105.980003,6734500
2018-02-21,106.000000,106.910004,105.019997,105.050003,105.050003,6743300
2018-02-22,105.309998,106.010002,104.930000,105.239998,105.239998,4462200
2018-02-23,105.750000,107.360001,105.430000,107.250000,107.250000,6101100
2018-02-26,108.000000,109.809998,107.669998,109.809998,109.809998,8138200
2018-02-27,108.000000,108.160004,104.849998,104.870003,104.870003,14179600
2018-02-28,105.449997,105.570000,103.139999,103.160004,103.160004,10760800
2018-03-01,103.199997,104.029999,101.330002,102.570000,102.570000,10487300
2018-03-02,102.000000,103.169998,101.440002,102.989998,102.989998,7835400
2018-03-05,102.709999,103.970001,102.419998,103.410004,103.410004,5736700
2018-03-06,104.000000,104.949997,103.510002,104.940002,104.940002,6216200
2018-03-07,103.720001,104.239998,102.769997,103.589996,103.589996,6214800
2018-03-08,103.989998,104.589996,103.470001,104.029999,104.029999,6627000
2018-03-09,104.430000,104.750000,103.639999,104.730003,104.730003,5590200
