Date,Open,High,Low,Close,Adj Close,Volume
2013-03-13,26.805000,27.495001,26.799999,27.424999,24.984751,8185400
2013-03-14,27.420000,27.450001,27.170000,27.344999,24.911871,6910800
2013-03-15,27.334999,27.424999,27.145000,27.389999,24.952862,8121000
2013-03-18,27.215000,27.330000,27.040001,27.080000,24.670446,5079400
2013-03-19,27.145000,27.219999,26.770000,26.915001,24.520134,6628400
2013-03-20,27.035000,27.440001,27.030001,27.415001,24.975645,7941800
2013-03-21,27.230000,27.360001,26.764999,26.799999,24.415367,15896200
2013-03-22,29.000000,30.125000,28.934999,29.764999,27.116541,38657400
2013-03-25,29.695000,29.990000,29.514999,29.780001,27.130207,13317400
2013-03-26,29.674999,29.815001,29.450001,29.735001,27.089211,8948600
2013-03-27,29.510000,29.650000,29.070000,29.225000,26.624588,10445000
2013-03-28,29.480000,29.655001,29.225000,29.504999,26.879675,7612400
2013-04-01,29.500000,29.594999,28.990000,29.129999,26.538038,6969800
2013-04-02,29.184999,29.695000,29.180000,29.450001,26.829576,9330600
2013-04-03,29.600000,29.764999,29.280001,29.455000,26.834122,7626600
2013-04-04,29.395000,29.750000,29.370001,29.670000,27.029993,4999400
2013-04-05,29.290001,29.520000,29.165001,29.485001,26.861456,6189800
2013-04-08,29.445000,29.975000,29.410000,29.975000,27.307859,8013200
2013-04-09,29.910000,30.065001,29.645000,29.945000,27.280523,6675000
2013-04-10,29.959999,30.275000,29.959999,30.145000,27.462729,5951000
2013-04-11,30.184999,30.690001,30.155001,30.600000,27.877241,8789400
2013-04-12,30.535000,30.615000,30.215000,30.290001,27.594831,5538800
2013-04-15,30.230000,30.465000,29.834999,29.834999,27.180311,6662600
2013-04-16,30.014999,30.264999,29.834999,30.250000,27.558392,5960600
2013-04-17,30.084999,30.655001,30.004999,30.450001,27.740593,10434800
2013-04-18,30.485001,30.600000,29.850000,30.090000,27.412624,6016400
2013-04-19,30.290001,30.520000,30.135000,30.459999,27.749699,6768400
2013-04-22,30.545000,30.745001,30.315001,30.680000,27.950125,5968600
2013-04-23,30.809999,30.965000,30.620001,30.840000,28.095892,6119600
2013-04-24,30.924999,31.000000,30.700001,30.764999,28.027565,4168000
2013-04-25,30.809999,31.245001,30.785000,31.035000,28.273539,4367600
2013-04-26,31.080000,31.235001,30.790001,30.945000,28.191547,4825600
2013-04-29,31.000000,31.405001,30.809999,31.315001,28.528627,5841600
2013-04-30,31.365000,31.885000,31.330000,31.799999,28.970467,10094800
2013-05-01,31.780001,32.145000,31.600000,31.680000,28.861147,7924400
2013-05-02,31.750000,31.785000,31.475000,31.660000,28.842926,5605400
2013-05-03,31.840000,32.480000,31.840000,32.275002,29.403204,6950800
2013-05-06,32.200001,32.275002,31.889999,31.980000,29.134453,4750200
2013-05-07,32.095001,32.185001,31.905001,31.955000,29.111671,6298000
2013-05-08,31.850000,32.055000,31.834999,31.950001,29.107126,6259000
2013-05-09,31.950001,32.264999,31.825001,31.870001,29.034241,4433800
2013-05-10,31.930000,32.395000,31.834999,32.380001,29.498859,6645600
2013-05-13,32.255001,32.400002,32.160000,32.325001,29.448755,3780600
2013-05-14,32.264999,32.990002,32.264999,32.955002,30.022699,8277200
2013-05-15,32.889999,33.000000,32.724998,32.915001,29.986259,5286200
2013-05-16,32.880001,33.035000,32.080002,32.220001,29.353100,7688600
2013-05-17,32.235001,32.720001,32.200001,32.660000,29.753952,6219200
2013-05-20,32.634998,32.750000,32.525002,32.665001,29.758507,5461800
2013-05-21,32.669998,32.724998,32.490002,32.615002,29.712955,6465400
2013-05-22,32.619999,32.785000,32.044998,32.224998,29.357649,8295200
2013-05-23,31.990000,32.075001,31.545000,31.665001,28.847481,8626400
2013-05-24,31.334999,31.434999,30.780001,31.395000,28.601505,7517400
2013-05-28,31.785000,32.055000,31.520000,31.639999,28.824709,7784000
2013-05-29,31.455000,31.584999,31.200001,31.465000,28.665270,5521200
2013-05-30,31.475000,31.650000,31.195000,31.205000,28.619421,5955200
2013-05-31,31.100000,31.570000,30.830000,30.830000,28.275494,7460400
2013-06-03,30.799999,31.540001,30.555000,31.514999,28.903736,10141200
2013-06-04,31.625000,31.785000,31.155001,31.389999,28.789093,6785400
2013-06-05,31.299999,31.469999,30.799999,30.875000,28.316763,6205400
2013-06-06,30.870001,31.090000,30.605000,31.080000,28.504778,4761400
2013-06-07,31.240000,31.545000,31.125000,31.375000,28.775339,5332000
2013-06-10,31.455000,31.740000,31.370001,31.520000,28.908319,5479000
2013-06-11,31.150000,31.469999,30.985001,31.075001,28.500191,5540400
2013-06-12,31.285000,31.285000,30.674999,30.705000,28.160847,5442600
2013-06-13,30.650000,30.959999,30.514999,30.879999,28.321352,7832600
2013-06-14,30.815001,31.200001,30.805000,30.945000,28.380960,5222400
2013-06-17,31.190001,31.360001,30.910000,30.969999,28.403893,7512800
2013-06-18,30.920000,31.125000,30.809999,31.075001,28.500191,9068800
2013-06-19,31.070000,31.170000,30.865000,30.875000,28.316763,9223600
2013-06-20,30.665001,30.815001,30.320000,30.389999,27.871956,9824200
2013-06-21,30.410000,30.690001,30.035000,30.285000,27.775648,10089200
2013-06-24,30.080000,30.254999,29.555000,29.975000,27.491337,9489400
2013-06-25,30.209999,30.495001,29.975000,30.195000,27.693111,10896400
2013-06-26,30.430000,31.059999,30.395000,30.924999,28.362619,11376800
2013-06-27,31.434999,31.625000,31.065001,31.160000,28.578148,12282800
2013-06-28,30.969999,32.035000,30.090000,31.840000,29.201807,26803800
2013-07-01,31.969999,32.294998,31.100000,31.165001,28.582729,14398800
2013-07-02,30.965000,31.540001,30.950001,31.309999,28.715719,7402400
2013-07-03,31.120001,31.469999,31.049999,31.430000,28.825779,3375600
2013-07-05,31.580000,31.915001,31.575001,31.820000,29.183464,5157800
2013-07-08,32.000000,32.330002,31.740000,31.860001,29.220148,6981600
2013-07-09,32.000000,32.139999,31.700001,31.965000,29.316448,6989200
2013-07-10,31.955000,31.955000,31.660000,31.799999,29.165115,5101800
2013-07-11,32.099998,32.220001,31.719999,31.860001,29.220148,7146000
2013-07-12,31.815001,31.915001,31.745001,31.834999,29.197218,4424000
2013-07-15,31.730000,31.825001,31.625000,31.674999,29.050476,5761800
2013-07-16,31.570000,31.735001,31.235001,31.350000,28.752405,6858200
2013-07-17,31.299999,31.834999,31.285000,31.665001,29.041306,6247600
2013-07-18,31.620001,31.889999,31.450001,31.660000,29.036720,4486800
2013-07-19,31.625000,31.795000,31.540001,31.674999,29.050476,5919400
2013-07-22,31.555000,31.785000,31.420000,31.645000,29.022964,5581600
2013-07-23,31.760000,31.790001,31.570000,31.594999,28.977106,4289600
2013-07-24,31.594999,31.715000,31.285000,31.315001,28.720306,4705400
2013-07-25,31.375000,31.445000,31.100000,31.245001,28.656109,8911400
2013-07-26,31.025000,31.299999,31.014999,31.264999,28.674450,5517800
2013-07-29,31.125000,31.395000,31.125000,31.355000,28.756992,5075600
2013-07-30,31.325001,31.549999,31.320000,31.424999,28.821190,6399600
2013-07-31,31.559999,31.750000,31.385000,31.459999,28.853287,8461800
2013-08-01,31.620001,33.055000,31.620001,32.985001,30.251938,15813200
2013-08-02,32.994999,33.305000,32.705002,33.150002,30.403263,7499800
2013-08-05,33.099998,33.270000,33.080002,33.200001,30.449123,4213000
2013-08-06,33.154999,33.424999,32.939999,33.270000,30.513319,6244000
2013-08-07,33.070000,33.119999,32.805000,32.814999,30.096014,5888800
2013-08-08,33.029999,33.224998,32.889999,33.025002,30.288616,5057400
2013-08-09,32.959999,33.369999,32.919998,33.154999,30.407848,5644800
2013-08-12,33.044998,33.299999,33.025002,33.255001,30.499561,4401800
2013-08-13,33.305000,33.375000,32.845001,32.904999,30.178566,4299400
2013-08-14,32.764999,32.830002,32.115002,32.174999,29.509047,5961800
2013-08-15,31.889999,32.000000,31.580000,31.745001,29.114677,6227000
2013-08-16,31.719999,32.154999,31.670000,31.825001,29.188049,5261200
2013-08-19,31.850000,32.555000,31.750000,32.355000,29.674135,7749600
2013-08-20,32.275002,32.855000,32.154999,32.314999,29.637445,7668400
2013-08-21,32.285000,32.494999,32.020000,32.064999,29.408161,4770400
2013-08-22,32.049999,32.584999,31.950001,32.430000,29.742918,5056000
2013-08-23,32.584999,32.610001,31.950001,32.105000,29.444845,8044600
2013-08-26,32.099998,32.264999,31.959999,31.959999,29.311861,5472400
2013-08-27,31.629999,31.870001,31.395000,31.405001,28.802851,4870800
2013-08-28,31.360001,31.850000,31.325001,31.684999,29.059650,6044000
2013-08-29,31.495001,31.930000,31.440001,31.740000,29.304316,4600000
2013-08-30,31.855000,31.895000,31.299999,31.410000,28.999638,5851000
2013-09-03,31.805000,32.450001,31.750000,32.145000,29.678232,8214000
2013-09-04,32.165001,32.740002,32.150002,32.564999,30.066004,7101400
2013-09-05,32.500000,32.790001,32.345001,32.689999,30.181412,5271600
2013-09-06,32.700001,32.775002,32.084999,32.490002,29.996761,4632600
2013-09-09,32.529999,32.794998,32.465000,32.700001,30.190645,4147800
2013-09-10,33.349998,33.490002,32.980000,33.410000,30.846159,13380000
2013-09-11,33.490002,33.910000,33.410000,33.794998,31.201612,9112400
2013-09-12,33.980000,34.450001,33.900002,34.040001,31.427818,8249800
2013-09-13,33.950001,34.070000,33.595001,33.955002,31.349340,6584600
2013-09-16,34.375000,34.410000,33.955002,34.095001,31.478598,5337600
2013-09-17,34.090000,34.334999,33.990002,34.160000,31.538597,7752400
2013-09-18,33.985001,34.924999,33.965000,34.740002,32.074093,8548000
2013-09-19,34.884998,35.279999,34.404999,34.750000,32.083328,14627600
2013-09-20,34.599998,34.750000,34.049999,34.685001,32.023319,37157000
2013-09-23,34.555000,34.775002,34.020000,34.490002,31.843285,11022000
2013-09-24,34.720001,34.860001,34.595001,34.715000,32.051006,7432800
2013-09-25,34.715000,34.764999,34.369999,34.459999,31.815582,7883200
2013-09-26,34.615002,35.244999,34.575001,35.169998,32.471096,13765000
2013-09-27,37.410000,37.625000,36.674999,36.820000,33.994480,31182000
2013-09-30,36.150002,36.584999,36.080002,36.320000,33.532852,14796400
2013-10-01,36.520000,36.625000,36.009998,36.209999,33.431286,10444400
2013-10-02,36.020000,36.130001,35.794998,35.945000,33.186626,8751600
2013-10-03,35.945000,36.250000,35.529999,35.820000,33.071224,7144600
2013-10-04,35.884998,36.174999,35.660000,36.070000,33.302036,7168200
2013-10-07,35.705002,35.985001,35.650002,35.669998,32.932732,5172800
2013-10-08,35.730000,36.314999,35.090000,35.139999,32.443394,7514200
2013-10-09,35.259998,35.735001,34.980000,35.445000,32.724991,9282200
2013-10-10,36.075001,36.724998,35.970001,36.720001,33.902153,11104800
2013-10-11,36.735001,36.865002,36.439999,36.730000,33.911388,10792200
2013-10-14,36.474998,37.084999,36.389999,37.029999,34.188370,6199800
2013-10-15,36.950001,37.185001,36.705002,36.855000,34.026798,7951200
2013-10-16,37.044998,37.310001,36.860001,37.259998,34.400715,8751600
2013-10-17,37.174999,37.325001,37.040001,37.270000,34.409954,9384400
2013-10-18,37.275002,37.994999,37.134998,37.965000,35.051620,9830800
2013-10-21,37.945000,38.185001,37.750000,38.044998,35.125481,9992600
2013-10-22,38.055000,38.244999,37.759998,37.980000,35.065456,6818800
2013-10-23,37.770000,37.970001,37.555000,37.779999,34.880802,4762000
2013-10-24,37.805000,37.889999,37.619999,37.755001,34.857727,5626400
2013-10-25,37.779999,38.180000,37.674999,37.849998,34.945442,6889000
2013-10-28,37.875000,37.990002,37.685001,37.755001,34.857727,6136800
2013-10-29,37.889999,38.090000,37.770000,37.955002,35.042385,4201000
2013-10-30,38.305000,38.445000,37.974998,38.064999,35.143944,6314200
2013-10-31,38.020000,38.134998,37.570000,37.880001,34.973137,8184400
2013-11-01,37.900002,38.215000,37.825001,38.029999,35.111626,4221600
2013-11-04,38.165001,38.270000,37.814999,38.185001,35.254734,3609200
2013-11-05,38.020000,38.660000,37.939999,38.599998,35.637886,6320400
2013-11-06,38.830002,38.830002,38.075001,38.380001,35.434765,3945400
2013-11-07,38.599998,38.650002,37.830002,37.849998,34.945442,6250800
2013-11-08,37.794998,38.570000,37.790001,38.560001,35.600960,5821600
2013-11-11,38.650002,38.680000,38.360001,38.580002,35.619423,3523200
2013-11-12,38.500000,38.630001,38.200001,38.435001,35.485546,4327400
2013-11-13,38.270000,38.945000,38.230000,38.924999,35.937943,4802200
2013-11-14,39.115002,39.404999,38.945000,39.320000,36.302628,4764200
2013-11-15,39.195000,39.639999,39.125000,39.610001,36.570385,5774000
2013-11-18,39.700001,39.700001,39.165001,39.290001,36.274944,5693200
2013-11-19,39.205002,39.314999,38.775002,38.904999,35.919483,6443200
2013-11-20,39.000000,39.299999,38.865002,38.919998,35.933319,5893000
2013-11-21,38.910000,39.110001,38.705002,39.044998,36.048733,4669400
2013-11-22,39.230000,39.490002,38.990002,39.435001,36.408806,7035600
2013-11-25,39.529999,39.805000,39.439999,39.564999,36.528828,4583400
2013-11-26,39.884998,39.935001,39.580002,39.799999,36.745804,7360400
2013-11-27,39.845001,39.915001,39.544998,39.665001,36.621159,3734200
2013-11-29,39.790001,39.880001,39.540001,39.570000,36.533440,3475200
2013-12-02,39.735001,40.070000,39.459999,39.544998,36.510365,6467800
2013-12-03,39.445000,39.744999,39.299999,39.564999,36.528828,5129200
2013-12-04,39.450001,39.590000,39.130001,39.410000,36.385719,4833200
2013-12-05,39.494999,39.669998,39.314999,39.474998,36.445747,5493400
2013-12-06,39.810001,39.945000,39.630001,39.930000,36.865833,3894000
2013-12-09,39.965000,40.130001,39.834999,39.889999,36.828888,4299200
2013-12-10,39.674999,39.830002,39.555000,39.610001,36.570385,5393800
2013-12-11,39.459999,39.509998,38.365002,38.419998,35.471691,13311600
2013-12-12,38.459999,38.459999,37.709999,38.115002,35.411304,10826000
2013-12-13,38.174999,38.395000,38.119999,38.200001,35.490284,7562200
2013-12-16,38.455002,38.549999,38.139999,38.220001,35.508858,9731000
2013-12-17,38.470001,38.625000,38.200001,38.380001,35.657505,13980600
2013-12-18,38.500000,39.290001,38.474998,39.275002,36.489017,10814400
2013-12-19,39.285000,39.375000,38.880001,39.130001,36.354309,10294600
2013-12-20,38.720001,38.849998,38.320000,38.669998,35.926937,20442600
2013-12-23,38.544998,38.720001,38.345001,38.555000,35.820095,9376800
2013-12-24,38.610001,38.900002,38.605000,38.830002,36.075588,2782600
2013-12-26,38.869999,39.230000,38.849998,39.095001,36.321796,4609800
2013-12-27,39.375000,39.505001,39.014999,39.080002,36.307854,4640800
2013-12-30,38.959999,39.445000,38.959999,39.369999,36.577282,4289000
2013-12-31,39.384998,39.474998,39.174999,39.320000,36.530830,4106200
2014-01-02,39.075001,39.415001,38.965000,39.119999,36.345024,5318600
2014-01-03,39.075001,39.314999,38.980000,39.014999,36.247475,5597000
2014-01-06,39.235001,39.299999,38.705002,38.715000,35.968746,6045800
2014-01-07,38.855000,39.000000,38.705002,38.744999,35.996616,6769000
2014-01-08,38.750000,38.974998,38.465000,38.544998,35.810799,6897800
2014-01-09,38.709999,38.730000,38.380001,38.544998,35.810799,6263200
2014-01-10,38.500000,38.674999,38.349998,38.459999,35.731834,5108000
2014-01-13,38.415001,38.459999,37.500000,37.590000,34.923550,8262400
2014-01-14,37.549999,37.669998,37.325001,37.584999,34.918903,7808400
2014-01-15,37.625000,37.865002,37.570000,37.715000,35.039680,5852400
2014-01-16,37.615002,37.689999,37.174999,37.395000,34.742386,4848000
2014-01-17,37.299999,37.369999,36.689999,36.695000,34.092037,9851800
2014-01-21,37.070000,37.299999,36.705002,36.875000,34.259277,13147000
2014-01-22,36.980000,37.029999,36.750000,36.750000,34.143147,7424000
2014-01-23,36.505001,36.590000,36.009998,36.365002,33.785446,9505200
2014-01-24,36.145000,36.330002,35.820000,35.825001,33.283741,9212000
2014-01-27,35.955002,36.130001,35.860001,35.950001,33.399887,11411600
2014-01-28,36.145000,36.575001,36.075001,36.355000,33.776157,9069200
2014-01-29,36.154999,36.285000,35.755001,35.884998,33.339493,10488800
2014-01-30,36.224998,37.099998,36.189999,36.970001,34.347527,10438400
2014-01-31,36.494999,36.654999,36.180000,36.424999,33.841190,8652000
2014-02-03,36.380001,36.395000,35.389999,35.439999,32.926060,9516000
2014-02-04,35.480000,35.619999,35.169998,35.255001,32.754181,7004200
2014-02-05,35.235001,35.430000,34.924999,35.299999,32.795986,7366800
2014-02-06,35.375000,36.134998,35.250000,35.755001,33.218719,7358600
2014-02-07,35.955002,36.424999,35.875000,36.345001,33.766865,6747200
2014-02-10,36.365002,36.494999,36.060001,36.334999,33.757576,6430400
2014-02-11,36.325001,37.075001,36.224998,36.990002,34.366116,8739400
2014-02-12,37.154999,37.404999,36.919998,37.055000,34.426510,6396200
2014-02-13,36.915001,37.480000,36.869999,37.435001,34.779541,6161400
2014-02-14,37.435001,37.590000,37.099998,37.535000,34.872452,6204800
2014-02-18,37.570000,37.735001,37.450001,37.605000,34.937485,5935600
2014-02-19,37.305000,37.775002,37.305000,37.410000,34.756313,5401400
2014-02-20,37.494999,37.875000,37.430000,37.790001,35.109360,5581600
2014-02-21,37.695000,38.330002,37.680000,38.240002,35.527443,8728600
2014-02-24,38.294998,39.070000,38.244999,38.919998,36.159203,11072200
2014-02-25,38.865002,39.259998,38.785000,39.055000,36.284626,6844000
2014-02-26,39.154999,39.529999,39.154999,39.209999,36.428631,7917400
2014-02-27,39.000000,39.195000,38.740002,39.009998,36.466022,6599200
2014-02-28,38.950001,39.355000,38.805000,39.150002,36.596901,6875200
2014-03-03,38.814999,38.994999,38.275002,38.695000,36.171566,6069200
2014-03-04,39.285000,39.525002,39.180000,39.310001,36.746468,5661200
2014-03-05,39.259998,39.299999,38.680000,38.709999,36.185593,6733200
2014-03-06,38.900002,39.195000,38.680000,39.110001,36.559509,5536400
2014-03-07,39.549999,40.044998,39.540001,39.730000,37.139065,8930800
2014-03-10,39.584999,39.680000,39.224998,39.490002,36.914730,5344400
2014-03-11,39.525002,39.810001,39.285000,39.400002,36.830593,4906600
2014-03-12,39.049999,39.500000,39.014999,39.485001,36.910046,4296800
2014-03-13,39.625000,39.865002,39.165001,39.264999,36.704399,8400400
2014-03-14,39.145000,39.500000,38.904999,39.160000,36.606243,6086000
2014-03-17,39.435001,39.570000,39.259998,39.490002,36.914730,8577600
2014-03-18,39.590000,40.040001,39.525002,39.820000,37.223206,8245400
2014-03-19,39.674999,39.980000,39.279999,39.575001,36.994179,5970400
2014-03-20,39.474998,39.634998,38.884998,39.634998,37.050274,12440600
2014-03-21,38.549999,38.654999,37.500000,37.605000,35.152657,31767000
2014-03-24,37.740002,37.915001,37.285000,37.430000,34.989067,9999000
2014-03-25,37.674999,37.755001,36.794998,36.825001,34.423527,10527000
2014-03-26,37.090000,37.250000,36.610001,36.610001,34.222542,8537600
2014-03-27,36.654999,37.049999,36.505001,36.660000,34.269283,8158600
2014-03-28,36.790001,37.060001,36.639999,36.770000,34.372108,5987000
2014-03-31,37.000000,37.095001,36.724998,36.930000,34.521671,6356600
2014-04-01,37.009998,37.389999,37.009998,37.195000,34.769379,7399400
2014-04-02,37.355000,37.500000,37.160000,37.270000,34.839497,7614600
2014-04-03,37.279999,37.590000,36.910000,36.994999,34.582424,8255000
2014-04-04,37.185001,37.250000,36.259998,36.419998,34.044933,9720200
2014-04-07,36.404999,36.470001,35.299999,35.415001,33.105465,13853800
2014-04-08,36.110001,36.555000,35.950001,36.459999,34.082321,12659600
2014-04-09,36.630001,36.799999,36.264999,36.779999,34.381451,7078400
2014-04-10,36.884998,37.084999,36.125000,36.224998,33.862644,8376600
2014-04-11,36.000000,36.334999,35.610001,35.625000,33.301777,8698000
2014-04-14,35.849998,36.230000,35.650002,36.189999,33.829922,7264800
2014-04-15,36.189999,36.435001,35.865002,36.139999,33.783188,7777400
2014-04-16,36.419998,36.590000,36.250000,36.549999,34.166439,4611200
2014-04-17,36.669998,37.215000,36.645000,37.014999,34.601128,9041600
2014-04-21,36.955002,37.029999,36.660000,36.950001,34.540367,6811800
2014-04-22,36.855000,37.349998,36.855000,37.174999,34.750687,5122200
2014-04-23,37.270000,37.430000,37.005001,37.049999,34.633846,4719400
2014-04-24,37.009998,37.185001,36.549999,36.695000,34.301991,6784600
2014-04-25,36.544998,36.849998,36.255001,36.349998,33.979485,6481200
2014-04-28,36.680000,36.845001,35.549999,35.834999,33.498081,11446800
2014-04-29,35.860001,36.360001,35.825001,36.240002,33.876659,6236000
2014-04-30,36.165001,36.529999,36.044998,36.474998,34.096336,6173800
2014-05-01,36.404999,36.689999,36.294998,36.459999,34.082321,4818200
2014-05-02,36.465000,36.764999,36.419998,36.494999,34.115036,4048000
2014-05-05,36.334999,36.715000,36.130001,36.645000,34.255260,4655600
2014-05-06,36.494999,36.584999,36.105000,36.125000,33.769169,4585200
2014-05-07,36.355000,36.415001,35.764999,36.090000,33.736450,5605400
2014-05-08,36.139999,36.674999,36.125000,36.525002,34.143089,7965200
2014-05-09,36.435001,36.790001,36.345001,36.724998,34.330032,4817000
2014-05-12,36.810001,37.330002,36.685001,37.314999,34.881557,6636400
2014-05-13,37.334999,37.500000,37.264999,37.294998,34.862865,4530200
2014-05-14,37.240002,37.325001,36.750000,36.790001,34.390800,6281200
2014-05-15,36.705002,36.810001,36.185001,36.470001,34.091663,6039800
2014-05-16,36.480000,36.974998,36.415001,36.970001,34.559055,5376800
2014-05-19,37.009998,37.275002,36.865002,37.244999,34.816128,4682200
2014-05-20,37.020000,37.049999,36.555000,36.630001,34.241234,5921400
2014-05-21,36.689999,37.130001,36.630001,37.105000,34.685261,4671800
2014-05-22,37.209999,37.465000,37.000000,37.439999,34.998413,4866400
2014-05-23,37.564999,38.160000,37.480000,37.924999,35.451778,7335200
2014-05-27,38.220001,38.424999,38.110001,38.305000,35.806999,6698000
2014-05-28,38.264999,38.305000,37.959999,38.134998,35.648083,4730000
2014-05-29,38.099998,38.320000,37.994999,38.189999,35.925591,3987600
2014-05-30,38.200001,38.465000,38.150002,38.455002,36.174885,5192400
2014-06-02,38.494999,38.494999,38.150002,38.360001,36.085518,3809600
2014-06-03,38.209999,38.305000,37.740002,37.775002,35.535206,6793400
2014-06-04,37.720001,38.180000,37.709999,38.064999,35.808006,7356800
2014-06-05,38.154999,38.270000,37.660000,37.935001,35.685711,7326400
2014-06-06,38.080002,38.435001,38.075001,38.115002,35.855049,6637600
2014-06-09,38.049999,38.455002,38.049999,38.334999,36.061996,5028600
2014-06-10,38.169998,38.459999,38.119999,38.154999,35.892670,5150200
2014-06-11,37.834999,37.900002,37.450001,37.570000,35.342354,9250000
2014-06-12,37.595001,37.720001,37.290001,37.384998,35.168331,6330600
2014-06-13,37.369999,37.465000,36.570000,37.310001,35.097778,7712200
2014-06-16,37.404999,37.650002,37.200001,37.275002,35.064854,6531400
2014-06-17,37.384998,37.580002,37.125000,37.544998,35.318836,6122200
2014-06-18,37.619999,38.180000,37.360001,38.105000,35.845638,9852200
2014-06-19,38.215000,38.224998,37.605000,37.820000,35.577530,4977600
2014-06-20,38.044998,38.064999,37.525002,37.549999,35.323540,11385600
2014-06-23,37.549999,37.805000,37.200001,37.724998,35.488167,9069200
2014-06-24,37.695000,37.985001,37.465000,37.490002,35.267094,7617000
2014-06-25,37.514999,38.270000,37.514999,38.235001,35.967926,7172200
2014-06-26,38.285000,38.455002,37.834999,38.430000,36.151367,10522600
2014-06-27,39.264999,39.575001,38.840000,38.840000,36.537056,18138400
2014-06-30,38.755001,38.865002,38.544998,38.775002,36.475910,8535800
2014-07-01,38.865002,39.270000,38.865002,39.000000,36.687569,7129200
2014-07-02,39.029999,39.205002,38.845001,38.895000,36.588795,5577200
2014-07-03,38.764999,39.310001,38.500000,39.224998,36.899235,4568600
2014-07-07,39.000000,39.415001,38.970001,39.325001,36.993301,5464800
2014-07-08,39.154999,39.205002,38.535000,38.834999,36.532345,8044400
2014-07-09,38.889999,39.384998,38.845001,39.345001,37.012112,7028800
2014-07-10,38.634998,38.904999,38.395000,38.750000,36.452389,6357000
2014-07-11,38.639999,38.794998,38.380001,38.645000,36.353607,5758000
2014-07-14,38.974998,39.095001,38.794998,38.974998,36.664055,5503400
2014-07-15,38.759998,39.105000,38.740002,39.014999,36.701675,6506000
2014-07-16,38.924999,39.115002,38.384998,38.459999,36.179585,7449600
2014-07-17,38.215000,38.485001,38.150002,38.264999,35.996147,7461600
2014-07-18,38.424999,38.855000,38.334999,38.759998,36.461800,6065200
2014-07-21,38.415001,38.650002,38.349998,38.410000,36.132553,4209400
2014-07-22,38.555000,38.820000,38.500000,38.520000,36.236031,5036000
2014-07-23,38.630001,38.724998,38.415001,38.685001,36.391243,4092200
2014-07-24,38.970001,39.384998,38.930000,39.299999,36.969776,8030200
2014-07-25,39.169998,39.389999,38.805000,38.860001,36.555878,4540400
2014-07-28,38.965000,39.299999,38.759998,39.200001,36.875710,4065200
2014-07-29,39.209999,39.430000,39.049999,39.049999,36.734608,4669600
2014-07-30,39.195000,39.970001,39.139999,39.805000,37.444836,9048200
2014-07-31,39.330002,39.509998,38.490002,38.564999,36.278362,7796800
2014-08-01,38.270000,38.625000,38.195000,38.389999,36.113747,5825800
2014-08-04,38.439999,38.705002,38.145000,38.580002,36.292480,4839400
2014-08-05,38.380001,38.820000,38.264999,38.459999,36.179585,4866200
2014-08-06,38.255001,38.619999,38.224998,38.570000,36.283066,5074400
2014-08-07,38.849998,38.865002,37.990002,38.174999,35.911480,6737400
2014-08-08,38.154999,38.549999,37.950001,38.529999,36.245441,6714800
2014-08-11,38.740002,38.750000,38.490002,38.529999,36.245441,7828600
2014-08-12,38.500000,38.720001,38.244999,38.365002,36.090218,9142000
2014-08-13,38.540001,38.895000,38.270000,38.625000,36.334801,6400400
2014-08-14,38.759998,38.904999,38.480000,38.650002,36.358322,3935000
2014-08-15,38.860001,39.000000,38.244999,38.564999,36.278362,4490000
2014-08-18,38.865002,39.345001,38.785000,39.275002,36.946266,5697400
2014-08-19,39.355000,39.544998,39.174999,39.255001,36.927448,4424000
2014-08-20,39.095001,39.540001,39.095001,39.455002,37.115601,3965800
2014-08-21,39.520000,39.700001,39.325001,39.470001,37.129700,4001800
2014-08-22,39.625000,39.865002,39.459999,39.645000,37.294327,5807400
2014-08-25,39.799999,40.150002,39.750000,40.005001,37.632977,5074400
2014-08-26,40.014999,40.049999,39.709999,39.740002,37.383698,5216400
2014-08-27,39.994999,39.994999,39.709999,39.860001,37.496574,3679400
2014-08-28,39.509998,39.610001,39.330002,39.410000,37.297825,5169200
2014-08-29,39.424999,39.470001,39.134998,39.275002,37.170063,6423000
2014-09-02,39.174999,39.759998,39.174999,39.639999,37.515511,8164200
2014-09-03,39.895000,39.939999,39.270000,39.410000,37.297825,4409600
2014-09-04,39.599998,40.110001,39.590000,39.959999,37.818352,6022800
2014-09-05,39.770000,41.055000,39.674999,41.020000,38.821548,12380600
2014-09-08,40.959999,41.395000,40.544998,41.200001,38.991898,11728200
2014-09-09,41.134998,41.270000,40.755001,40.919998,38.726910,8119000
2014-09-10,40.865002,41.305000,40.750000,41.235001,39.025017,6742400
2014-09-11,41.080002,41.294998,40.770000,40.910000,38.717438,7460400
2014-09-12,40.985001,41.000000,40.705002,40.919998,38.726910,5926200
2014-09-15,41.049999,41.090000,40.505001,40.805000,38.618061,6729000
2014-09-16,40.615002,40.770000,40.415001,40.599998,38.424049,9393200
2014-09-17,40.775002,40.915001,40.500000,40.755001,38.570751,7443200
2014-09-18,40.924999,41.000000,40.625000,40.985001,38.788422,6393400
2014-09-19,41.320000,41.369999,40.665001,40.904999,38.712704,19704400
2014-09-22,40.840000,40.935001,40.099998,40.355000,38.192188,8138400
2014-09-23,40.259998,40.290001,39.945000,40.060001,37.912991,6046800
2014-09-24,40.070000,40.435001,39.959999,40.419998,38.253708,6754000
2014-09-25,40.340000,40.340000,39.634998,39.875000,37.737904,14138400
2014-09-26,43.990002,44.994999,43.650002,44.750000,42.351631,35090400
2014-09-29,44.134998,45.049999,44.134998,44.560001,42.171818,14834400
2014-09-30,44.345001,45.145000,44.200001,44.599998,42.209671,11583400
2014-10-01,44.455002,44.500000,43.755001,43.849998,41.499870,9471600
2014-10-02,43.834999,44.755001,43.439999,44.650002,42.257000,8739200
2014-10-03,44.880001,45.224998,44.584999,45.145000,42.725471,8790000
2014-10-06,45.145000,45.250000,44.279999,44.610001,42.219135,7031200
2014-10-07,44.299999,44.595001,44.014999,44.035000,41.674950,5486400
2014-10-08,44.055000,44.580002,43.764999,44.415001,42.034588,7481200
2014-10-09,44.224998,44.494999,43.549999,43.615002,41.277458,7462200
2014-10-10,43.720001,44.099998,43.505001,43.595001,41.258541,9048200
2014-10-13,43.480000,43.560001,42.619999,42.695000,40.406773,8005200
2014-10-14,42.889999,42.955002,42.419998,42.544998,40.264805,9853400
2014-10-15,42.560001,43.549999,42.049999,42.590000,40.307407,17571600
2014-10-16,42.095001,43.625000,41.924999,43.520000,41.187557,13644000
2014-10-17,43.895000,44.174999,43.465000,43.590000,41.253799,11396800
2014-10-20,43.400002,44.465000,43.384998,44.450001,42.067715,6743400
2014-10-21,44.650002,45.349998,44.509998,45.320000,42.891090,6459600
2014-10-22,45.325001,45.764999,44.904999,44.930000,42.521992,7087800
2014-10-23,45.064999,45.660000,44.974998,45.185001,42.763317,6191800
2014-10-24,44.974998,45.494999,44.955002,45.450001,43.014118,4931000
2014-10-27,45.455002,45.889999,45.215000,45.820000,43.364296,5819400
2014-10-28,45.764999,46.224998,45.654999,46.224998,43.747581,6358400
2014-10-29,46.080002,46.270000,45.709999,45.974998,43.510986,4998600
2014-10-30,45.884998,46.500000,45.775002,46.500000,44.007847,4585200
2014-10-31,47.064999,47.070000,46.334999,46.485001,43.993652,6463600
2014-11-03,46.674999,46.740002,46.435001,46.724998,44.220787,4862800
2014-11-04,46.529999,47.009998,46.310001,46.974998,44.457390,4441400
2014-11-05,47.419998,47.419998,46.855000,47.340000,44.802834,6513800
2014-11-06,47.424999,47.544998,47.270000,47.299999,44.764969,5482000
2014-11-07,47.375000,47.375000,46.770000,46.889999,44.376949,4909800
2014-11-10,47.020000,47.535000,47.020000,47.480000,44.935314,5898200
2014-11-11,47.599998,47.650002,47.290001,47.439999,44.897469,4563200
2014-11-12,47.224998,47.959999,47.115002,47.904999,45.337540,5018400
2014-11-13,48.090000,48.275002,47.779999,48.060001,45.484241,5417400
2014-11-14,47.895000,47.939999,47.505001,47.750000,45.190849,6406800
2014-11-17,47.685001,48.095001,47.520000,48.029999,45.455845,5931000
2014-11-18,47.994999,48.424999,47.880001,48.235001,45.649860,4803400
2014-11-19,48.250000,48.549999,48.174999,48.474998,45.876991,4586000
2014-11-20,48.310001,48.849998,48.154999,48.650002,46.042614,4822400
2014-11-21,49.345001,49.480000,48.330002,48.709999,46.099403,7016400
2014-11-24,48.895000,49.250000,48.869999,48.974998,46.350193,5081600
2014-11-25,49.150002,49.250000,48.634998,48.645000,46.037880,6177200
2014-11-26,48.650002,48.939999,48.549999,48.900002,46.279217,3948800
2014-11-28,49.169998,49.880001,49.115002,49.645000,46.984283,3609400
2014-12-01,49.330002,49.695000,48.830002,48.845001,46.227161,5139200
2014-12-02,49.029999,49.360001,48.845001,49.020000,46.392788,4384000
2014-12-03,49.080002,49.299999,48.759998,49.250000,46.610462,3792000
2014-12-04,49.250000,49.695000,49.029999,49.525002,46.870724,4128200
2014-12-05,49.630001,49.750000,49.415001,49.665001,47.003216,3408200
2014-12-08,49.525002,49.525002,48.650002,48.860001,46.241356,5155200
2014-12-09,48.529999,48.700001,47.990002,48.514999,45.914848,5989000
2014-12-10,48.240002,49.119999,48.230000,48.830002,46.212967,6457800
2014-12-11,48.740002,49.299999,48.419998,48.465000,46.132057,8723600
2014-12-12,48.325001,48.945000,48.084999,48.084999,45.770355,8243800
2014-12-15,48.215000,48.465000,47.389999,47.715000,45.418163,10152600
2014-12-16,47.674999,47.709999,46.485001,46.605000,44.361603,14614400
2014-12-17,46.865002,47.380001,46.450001,47.250000,44.975552,11205200
2014-12-18,48.134998,48.540001,47.529999,48.540001,46.203449,18960800
2014-12-19,47.750000,48.139999,46.415001,47.419998,45.137367,27002000
2014-12-22,47.564999,47.965000,47.509998,47.965000,45.656132,7662200
2014-12-23,48.000000,48.255001,47.794998,47.985001,45.675171,5241800
2014-12-24,48.200001,48.674999,48.044998,48.145000,45.827469,2439600
2014-12-26,48.255001,48.605000,48.125000,48.415001,46.084469,3144400
2014-12-29,48.305000,48.825001,48.305000,48.650002,46.308155,4017800
2014-12-30,48.439999,48.650002,48.310001,48.439999,46.108261,4146800
2014-12-31,48.485001,48.805000,48.020000,48.075001,45.760834,2348700
2015-01-02,48.275002,48.474998,47.055000,47.514999,45.227787,2492900
2015-01-05,47.255001,47.275002,46.564999,46.750000,44.499619,3444600
2015-01-06,46.945000,47.075001,46.035000,46.474998,44.237850,3788000
2015-01-07,46.805000,47.650002,46.549999,47.435001,45.151642,3628000
2015-01-08,47.830002,48.549999,47.810001,48.529999,46.193928,2989100
2015-01-09,48.465000,48.494999,47.799999,47.994999,45.684685,2332700
2015-01-12,47.955002,48.259998,47.615002,47.930000,45.622814,2806500
2015-01-13,48.169998,48.724998,47.314999,47.505001,45.218281,3091100
2015-01-14,46.689999,47.185001,46.455002,46.855000,44.599560,3375200
2015-01-15,47.314999,47.340000,46.285000,46.404999,44.171223,2117500
2015-01-16,46.384998,46.564999,46.014999,46.494999,44.256886,4385000
2015-01-20,46.720001,46.945000,46.310001,46.805000,44.551971,4367000
2015-01-21,46.555000,47.064999,46.505001,46.755001,44.504383,2927000
2015-01-22,47.174999,48.055000,46.779999,47.924999,45.618053,3476200
2015-01-23,48.070000,48.375000,47.825001,48.080002,45.765594,3374700
2015-01-26,48.000000,48.235001,47.775002,48.174999,45.856014,2479000
2015-01-27,47.650002,47.724998,47.060001,47.250000,44.975552,3348400
2015-01-28,47.500000,47.660000,46.625000,46.654999,44.409191,3201300
2015-01-29,46.834999,47.435001,46.584999,47.435001,45.151642,3401200
2015-01-30,46.959999,47.180000,46.049999,46.125000,43.904701,4053200
2015-02-02,46.340000,46.345001,45.384998,45.959999,43.747643,4028300
2015-02-03,46.115002,46.695000,46.014999,46.674999,44.428226,3960900
2015-02-04,46.384998,46.634998,46.134998,46.270000,44.042728,3593700
2015-02-05,46.439999,46.794998,46.279999,46.669998,44.423458,2877200
2015-02-06,46.700001,46.735001,45.770000,45.895000,43.685772,3643100
2015-02-09,45.750000,45.849998,45.345001,45.584999,43.390690,3669700
2015-02-10,45.869999,46.549999,45.610001,46.375000,44.142658,3847300
2015-02-11,46.244999,46.375000,45.474998,45.654999,43.457325,4270500
2015-02-12,45.730000,46.330002,45.400002,46.000000,43.785717,5927900
2015-02-13,46.009998,46.285000,45.950001,46.020000,43.804764,3847800
2015-02-17,45.869999,46.450001,45.860001,45.930000,43.719086,3685500
2015-02-18,45.770000,46.884998,45.715000,46.810001,44.556728,3831600
2015-02-19,46.740002,47.130001,46.740002,46.849998,44.594799,3302600
2015-02-20,46.805000,47.645000,46.674999,47.465000,45.180195,3699000
2015-02-23,47.459999,47.615002,47.139999,47.505001,45.218281,2311100
2015-02-24,47.375000,47.770000,47.375000,47.709999,45.413406,2619600
2015-02-25,47.709999,48.599998,47.709999,48.410000,46.079716,3526800
2015-02-26,48.330002,48.665001,48.325001,48.494999,46.429161,2967500
2015-02-27,48.474998,48.705002,48.314999,48.560001,46.491386,3559300
2015-03-02,48.445000,49.430000,48.375000,49.375000,47.271667,5512500
2015-03-03,49.220001,49.235001,48.560001,48.985001,46.898285,3519200
2015-03-04,48.834999,48.935001,48.480000,48.759998,46.682865,2413800
2015-03-05,48.980000,49.340000,48.895000,49.230000,47.132851,3316800
2015-03-06,49.230000,49.345001,48.299999,48.455002,46.390865,3587300
2015-03-09,48.544998,48.910000,48.470001,48.715000,46.639790,2969400
2015-03-10,48.209999,48.485001,48.125000,48.255001,46.199379,3529300
2015-03-11,48.189999,48.540001,47.590000,47.669998,45.639305,3742100
2015-03-12,47.750000,48.549999,47.689999,48.520000,46.453094,2904900
2015-03-13,48.520000,48.740002,47.650002,47.904999,45.864292,3698100
2015-03-16,48.099998,48.400002,47.965000,48.220001,46.165871,4248500
2015-03-17,48.070000,48.389999,47.755001,48.270000,46.213741,3180300
2015-03-18,48.270000,48.935001,47.805000,48.755001,46.678085,4419900
2015-03-19,48.904999,49.310001,48.605000,49.160000,47.065838,6768000
2015-03-20,51.314999,51.895000,50.625000,50.990002,48.817879,14889900
2015-03-23,50.775002,51.299999,50.599998,50.730000,48.568954,4881900
2015-03-24,50.525002,50.830002,50.299999,50.325001,48.181206,3799400
2015-03-25,50.500000,50.590000,49.470001,49.494999,47.386555,4066700
2015-03-26,49.169998,50.044998,48.834999,49.665001,47.549320,4739900
2015-03-27,49.560001,50.090000,49.560001,49.939999,47.812607,2180900
2015-03-30,50.615002,50.775002,50.270000,50.445000,48.296093,2717700
2015-03-31,50.439999,50.919998,50.145000,50.165001,48.028023,3154600
2015-04-01,50.000000,50.139999,49.169998,49.775002,47.654633,3292900
2015-04-02,50.020000,50.160000,49.695000,49.830002,47.707294,1920200
2015-04-06,49.375000,50.314999,49.275002,49.865002,47.740799,2513700
2015-04-07,49.865002,50.130001,49.735001,49.805000,47.683361,1996800
2015-04-08,50.000000,50.485001,49.860001,50.419998,48.272152,3261200
2015-04-09,50.500000,50.845001,50.299999,50.360001,48.214714,2650500
2015-04-10,50.459999,50.540001,49.965000,49.985001,47.855690,2959100
2015-04-13,49.985001,50.029999,49.529999,49.634998,47.520596,3656900
2015-04-14,49.529999,49.904999,49.349998,49.764999,47.645058,2381900
2015-04-15,50.314999,50.365002,49.865002,49.915001,47.788673,5716200
2015-04-16,49.744999,50.084999,49.700001,49.950001,47.822178,2052000
2015-04-17,49.584999,49.685001,49.070000,49.275002,47.175930,3024800
2015-04-20,49.540001,50.169998,49.509998,49.994999,47.865257,3100500
2015-04-21,50.380001,50.424999,49.860001,50.145000,48.008877,5125200
2015-04-22,50.150002,50.195000,49.645000,50.075001,47.941856,1952900
2015-04-23,49.889999,50.799999,49.724998,50.555000,48.401402,2334100
2015-04-24,50.230000,50.639999,50.105000,50.474998,48.324814,2167000
2015-04-27,50.634998,51.000000,50.384998,50.470001,48.320030,2579200
2015-04-28,50.400002,50.400002,49.595001,49.930000,47.803036,3015800
2015-04-29,49.764999,50.244999,49.630001,50.084999,47.951424,2697600
2015-04-30,49.875000,50.255001,49.230000,49.419998,47.314747,3248500
2015-05-01,49.939999,50.410000,49.705002,50.389999,48.243427,3341700
2015-05-04,50.500000,50.599998,50.240002,50.415001,48.267368,2278900
2015-05-05,50.215000,50.435001,50.130001,50.209999,48.071110,2552200
2015-05-06,50.134998,50.500000,49.840000,50.110001,47.975368,2698300
2015-05-07,50.224998,50.794998,50.009998,50.724998,48.564167,2763100
2015-05-08,51.145000,51.650002,51.145000,51.220001,49.038078,2767400
2015-05-11,51.209999,51.610001,51.044998,51.395000,49.205624,2669900
2015-05-12,50.990002,51.345001,50.799999,51.185001,49.004566,2338200
2015-05-13,51.345001,51.365002,50.895000,51.080002,48.904041,2254100
2015-05-14,51.470001,51.755001,51.154999,51.720001,49.516769,2716700
2015-05-15,51.825001,52.514999,51.685001,52.490002,50.253979,3932600
2015-05-18,52.555000,52.750000,52.209999,52.375000,50.143871,2521400
2015-05-19,52.310001,52.590000,52.174999,52.320000,50.091221,2985600
2015-05-20,52.459999,52.575001,52.105000,52.305000,50.076859,2699600
2015-05-21,52.435001,52.599998,52.119999,52.200001,49.976330,2727600
2015-05-22,52.605000,52.610001,52.020000,52.215000,49.990688,2827400
2015-05-26,52.215000,52.375000,51.590000,51.709999,49.507202,2845700
2015-05-27,51.740002,51.959999,51.154999,51.419998,49.229553,4448400
2015-05-28,51.115002,51.474998,50.755001,51.150002,49.239193,2890800
2015-05-29,51.150002,51.189999,50.520000,50.834999,48.935951,2772600
2015-06-01,50.884998,51.145000,50.724998,50.880001,48.979271,4944000
2015-06-02,50.900002,51.345001,50.750000,51.055000,49.147736,2487200
2015-06-03,51.145000,51.544998,50.884998,51.255001,49.340267,2383400
2015-06-04,51.029999,51.650002,50.810001,50.974998,49.070717,2233600
2015-06-05,50.750000,51.125000,50.564999,51.014999,49.109226,1895900
2015-06-08,50.799999,50.945000,50.689999,50.720001,48.825253,2067700
2015-06-09,50.744999,50.965000,50.389999,50.674999,48.781921,1738400
2015-06-10,50.915001,52.014999,50.830002,51.669998,49.739761,3135200
2015-06-11,52.544998,52.560001,51.735001,51.939999,49.999672,3089000
2015-06-12,51.775002,52.049999,51.605000,51.889999,49.951542,2066500
2015-06-15,51.549999,51.924999,51.365002,51.674999,49.744576,2451000
2015-06-16,51.740002,52.490002,51.720001,52.279999,50.326969,2517000
2015-06-17,52.369999,52.584999,52.040001,52.375000,50.418419,2036200
2015-06-18,52.525002,53.334999,52.505001,53.000000,51.020073,2845300
2015-06-19,53.014999,53.424999,52.970001,53.264999,51.275177,3642800
2015-06-22,53.430000,53.724998,53.325001,53.395000,51.400314,2093300
2015-06-23,53.599998,53.630001,53.410000,53.599998,51.597656,2967100
2015-06-24,53.599998,53.685001,53.020000,53.110001,51.125954,2528100
2015-06-25,53.404999,53.404999,52.334999,52.610001,50.644650,5405700
2015-06-26,54.185001,55.169998,54.185001,54.855000,52.805771,10143800
2015-06-29,54.634998,54.744999,53.830002,53.834999,51.823887,4502500
2015-06-30,54.424999,54.439999,53.900002,54.009998,51.992340,3765600
2015-07-01,54.474998,54.715000,54.294998,54.715000,52.671009,2962000
2015-07-02,54.955002,55.365002,54.544998,54.935001,52.882786,2950000
2015-07-06,54.544998,55.255001,54.505001,54.919998,52.868343,2495700
2015-07-07,55.040001,55.665001,54.529999,55.645000,53.566265,3603500
2015-07-08,55.110001,55.375000,54.500000,54.634998,52.593994,3366800
2015-07-09,55.119999,55.459999,54.595001,54.720001,52.675819,3084200
2015-07-10,55.264999,55.400002,54.500000,55.259998,53.195644,2579600
2015-07-13,55.619999,56.275002,55.400002,56.205002,54.105350,2523800
2015-07-14,56.419998,56.529999,55.959999,56.169998,54.071651,2780700
2015-07-15,56.000000,56.195000,55.845001,55.950001,53.859871,2508200
2015-07-16,56.380001,56.450001,55.924999,56.169998,54.071651,2167300
2015-07-17,56.185001,56.490002,55.950001,56.400002,54.293060,2272700
2015-07-20,56.634998,56.775002,56.410000,56.564999,54.451900,2989100
2015-07-21,56.490002,56.785000,56.360001,56.494999,54.384506,2313200
2015-07-22,56.435001,57.110001,56.435001,57.044998,54.913967,2977100
2015-07-23,57.250000,57.349998,56.904999,57.000000,54.870640,3357100
2015-07-24,57.090000,57.090000,56.235001,56.494999,54.384506,2983600
2015-07-27,56.200001,56.459999,55.474998,55.865002,53.778049,3324000
2015-07-28,56.035000,56.955002,55.924999,56.735001,54.615543,3474100
2015-07-29,56.790001,57.669998,56.750000,57.459999,55.313465,3419900
2015-07-30,57.474998,57.700001,56.970001,57.505001,55.356781,2797000
2015-07-31,57.750000,57.970001,57.415001,57.610001,55.457855,2539300
2015-08-03,57.755001,58.000000,56.794998,57.415001,55.270142,2496000
2015-08-04,57.474998,57.965000,57.165001,57.884998,55.722576,2614500
2015-08-05,58.305000,58.860001,58.174999,58.375000,56.194275,3426500
2015-08-06,58.500000,58.750000,57.185001,57.560001,55.409725,3105700
2015-08-07,57.360001,57.480000,56.549999,57.255001,55.116119,2953900
2015-08-10,57.695000,58.084999,57.424999,57.680000,55.525249,2306600
2015-08-11,57.070000,57.494999,56.814999,57.230000,55.092052,2540700
2015-08-12,56.770000,56.875000,55.325001,56.529999,54.418205,7127000
2015-08-13,56.634998,57.264999,56.474998,56.799999,54.678116,2953900
2015-08-14,56.794998,57.285000,56.555000,57.180000,55.043922,2342600
2015-08-17,57.060001,57.564999,56.544998,57.490002,55.342342,1958700
2015-08-18,57.560001,57.840000,57.294998,57.410000,55.265331,1834700
2015-08-19,57.000000,58.025002,56.775002,57.480000,55.332722,3108200
2015-08-20,56.855000,57.224998,56.119999,56.150002,54.052399,3268400
2015-08-21,55.735001,55.830002,53.419998,53.435001,51.438824,7956400
2015-08-24,50.130001,53.689999,47.250000,51.935001,49.994862,9941300
2015-08-25,53.639999,53.654999,51.740002,51.764999,49.831211,6808100
2015-08-26,53.250000,54.505001,51.990002,54.380001,52.348522,7578000
2015-08-27,55.185001,56.345001,54.814999,56.310001,54.206429,6808700
2015-08-28,56.299999,56.500000,55.820000,56.250000,54.148659,3763100
2015-08-31,56.195000,56.244999,55.615002,55.875000,53.787674,3525500
2015-09-01,54.490002,54.915001,54.014999,54.314999,52.285942,9385200
2015-09-02,55.075001,55.389999,54.599998,55.349998,53.282280,8536400
2015-09-03,55.615002,56.044998,55.205002,55.424999,53.625763,3032500
2015-09-04,54.610001,55.215000,54.470001,54.845001,53.064583,3563100
2015-09-08,55.730000,55.935001,55.110001,55.875000,54.061150,2755700
2015-09-09,56.355000,56.494999,54.805000,54.930000,53.146828,3144400
2015-09-10,54.830002,55.520000,54.470001,55.189999,53.398392,7363000
2015-09-11,55.115002,55.919998,54.994999,55.910000,54.095020,5589600
2015-09-14,55.755001,56.029999,55.570000,55.945000,54.128876,6833200
2015-09-15,55.950001,57.040001,55.400002,56.919998,55.072224,3843100
2015-09-16,57.165001,57.955002,56.919998,57.790001,55.913986,4052200
2015-09-17,57.619999,58.395000,57.279999,57.634998,55.764023,4031300
2015-09-18,57.075001,57.814999,56.880001,57.525002,55.657589,9240500
2015-09-21,57.834999,58.544998,57.380001,58.279999,56.388081,4373300
2015-09-22,57.625000,58.080002,57.189999,57.985001,56.102657,3777700
2015-09-23,57.985001,58.299999,57.599998,57.715000,55.841415,4527900
2015-09-24,57.150002,57.575001,56.750000,57.395000,55.531815,7176300
2015-09-25,61.564999,62.974998,61.349998,62.500000,60.471085,18484100
2015-09-28,62.250000,62.380001,60.424999,61.070000,59.087505,8225400
2015-09-29,61.000000,61.044998,59.525002,59.834999,57.892601,7207200
2015-09-30,60.369999,61.560001,60.369999,61.485001,59.489040,4693200
2015-10-01,61.580002,61.970001,60.639999,61.915001,59.905075,8994200
2015-10-02,61.044998,62.605000,60.779999,62.605000,60.572681,9114400
2015-10-05,62.919998,63.244999,62.044998,62.134998,60.117935,9646400
2015-10-06,62.134998,62.400002,61.294998,61.595001,59.595463,7665400
2015-10-07,61.805000,62.224998,60.500000,61.049999,59.068157,10215400
2015-10-08,61.459999,62.619999,61.334999,62.455002,60.427551,7622600
2015-10-09,62.279999,62.669998,62.044998,62.470001,60.442062,6940600
2015-10-12,62.599998,63.549999,62.509998,63.215000,61.162872,5449000
2015-10-13,63.000000,63.270000,62.794998,62.904999,60.862934,6355400
2015-10-14,62.994999,63.305000,62.695000,62.919998,60.877453,6509000
2015-10-15,63.610001,64.584999,63.480000,64.394997,62.304569,10764800
2015-10-16,64.750000,65.294998,64.434998,65.235001,63.117306,9321600
2015-10-19,65.855003,66.760002,65.555000,66.605003,64.442825,12587800
2015-10-20,66.525002,66.680000,65.985001,66.184998,64.036461,8869400
2015-10-21,66.324997,66.610001,65.915001,66.235001,64.084839,5504000
2015-10-22,66.434998,66.724998,65.290001,66.205002,64.055824,4647400
2015-10-23,66.535004,66.599998,64.455002,65.264999,63.146339,5258900
2015-10-26,65.135002,66.114998,65.135002,65.690002,63.557526,3441400
2015-10-27,65.500000,65.620003,64.830002,65.410004,63.286629,3075000
2015-10-28,65.860001,66.025002,64.964996,65.644997,63.513992,3545700
2015-10-29,65.339996,65.735001,64.980003,65.559998,63.431755,2460800
2015-10-30,65.775002,65.809998,65.035004,65.514999,63.388206,7230800
2015-11-02,65.864998,66.000000,64.730003,65.595001,63.465614,6123200
2015-11-03,65.620003,65.849998,65.339996,65.699997,63.567204,2746000
2015-11-04,65.695000,65.934998,64.940002,65.180000,63.064079,2581700
2015-11-05,65.589996,66.220001,65.230003,65.930000,63.789738,5068200
2015-11-06,65.800003,66.470001,65.680000,65.889999,63.751030,4837600
2015-11-09,65.625000,65.709999,64.635002,65.239998,63.122135,6181200
2015-11-10,65.044998,65.345001,64.764999,65.000000,62.889923,5287400
2015-11-11,65.139999,65.294998,63.639999,63.709999,61.641804,8578000
2015-11-12,63.500000,64.000000,62.705002,62.990002,60.945183,9388000
2015-11-13,62.540001,62.610001,60.575001,60.930000,58.952049,16371000
2015-11-16,60.900002,61.740002,60.669998,61.730000,59.726086,9146400
2015-11-17,61.525002,61.799999,60.209999,61.290001,59.300369,10581600
2015-11-18,61.520000,63.014999,61.330002,62.889999,60.848423,10597800
2015-11-19,63.130001,63.494999,62.689999,62.889999,60.848423,8557600
2015-11-20,66.035004,66.400002,65.239998,66.324997,64.171921,19064800
2015-11-23,66.410004,66.500000,65.889999,66.230003,64.080002,7135600
2015-11-24,65.815002,66.489998,65.629997,66.254997,64.104187,5311600
2015-11-25,66.540001,67.275002,66.514999,67.065002,64.887909,6989000
2015-11-27,67.459999,67.650002,66.665001,67.165001,64.984650,4527800
2015-11-30,66.964996,67.095001,65.820000,66.139999,63.992912,8738800
2015-12-01,66.059998,66.709999,65.959999,66.654999,64.491196,6857000
2015-12-02,66.425003,66.610001,66.050003,66.324997,64.171921,7965600
2015-12-03,66.555000,66.680000,64.500000,64.559998,62.464214,10649800
2015-12-04,64.900002,66.459999,64.900002,66.165001,64.017113,7410400
2015-12-07,66.375000,66.449997,65.305000,65.800003,63.973362,6190000
2015-12-08,65.434998,66.370003,65.214996,65.849998,64.021965,5605800
2015-12-09,65.379997,65.769997,63.869999,64.419998,62.631664,7442800
2015-12-10,64.360001,64.820000,64.004997,64.320000,62.534451,5647800
2015-12-11,63.810001,63.869999,62.834999,63.145000,61.392063,4138000
2015-12-14,63.314999,64.165001,63.060001,63.930000,62.155270,3968300
2015-12-15,64.800003,65.000000,64.175003,64.305000,62.519867,6869600
2015-12-16,64.684998,65.599998,64.410004,65.464996,63.647655,7542200
2015-12-17,65.849998,65.925003,65.035004,65.110001,63.302513,7400800
2015-12-18,64.864998,65.264999,64.184998,64.260002,62.476116,6902300
2015-12-21,64.839996,65.154999,64.305000,64.900002,63.098347,4486300
2015-12-22,65.739998,65.925003,64.910004,65.925003,64.094887,7163700
2015-12-23,68.120003,68.195000,63.910000,64.355003,62.568474,28659700
2015-12-24,64.550003,64.730003,62.150002,63.180000,61.426094,13890800
2015-12-28,63.209999,63.880001,62.799999,63.810001,62.038601,8704400
2015-12-29,64.309998,64.480003,64.019997,64.260002,62.476116,6708600
2015-12-30,64.360001,64.400002,63.169998,63.250000,61.494152,5817900
2015-12-31,63.150002,63.169998,62.500000,62.500000,60.764969,6454700
2016-01-04,61.110001,61.910000,60.860001,61.520000,59.812180,11626800
2016-01-05,61.720001,62.590000,61.720001,62.380001,60.648304,9220600
2016-01-06,61.299999,62.040001,61.150002,61.490002,59.783012,6551600
2016-01-07,60.389999,61.259998,59.779999,59.849998,58.188534,10881300
2016-01-08,60.060001,60.790001,58.660000,58.869999,57.235744,11191300
2016-01-11,58.970001,60.040001,58.540001,59.549999,57.896862,12815400
2016-01-12,60.349998,60.820000,59.570000,59.939999,58.276031,8292200
2016-01-13,60.529999,60.529999,58.669998,58.779999,57.148239,9944300
2016-01-14,59.000000,59.349998,57.279999,58.509998,56.885738,9989000
2016-01-15,56.930000,58.139999,56.590000,57.560001,55.962109,12208300
2016-01-19,58.189999,59.070000,57.669998,58.320000,56.701012,9924300
2016-01-20,57.250000,59.590000,56.750000,59.040001,57.401028,16234200
2016-01-21,59.080002,61.160000,59.060001,60.560001,58.878830,16121600
2016-01-22,61.290001,61.470001,60.590000,60.880001,59.189945,8430100
2016-01-25,61.090000,61.299999,60.619999,60.700001,59.014935,10383400
2016-01-26,60.490002,61.369999,60.270000,61.110001,59.413559,7999000
2016-01-27,60.959999,61.099998,59.200001,59.580002,57.926037,8593700
2016-01-28,60.320000,61.599998,59.980000,61.200001,59.501060,10207000
2016-01-29,61.200001,62.160000,61.200001,62.009998,60.288567,10475200
2016-02-01,61.750000,63.470001,61.700001,63.160000,61.406643,8247800
2016-02-02,63.020000,63.500000,62.310001,62.549999,60.813583,9458500
2016-02-03,62.880001,62.900002,61.299999,62.490002,60.755249,7213500
2016-02-04,62.020000,62.160000,59.990002,60.169998,58.499653,10352200
2016-02-05,59.759998,59.840000,56.980000,57.169998,55.582928,14415900
2016-02-08,56.099998,56.209999,53.639999,55.040001,53.512066,21214500
2016-02-09,54.500000,56.619999,54.279999,55.680000,54.134296,10716900
2016-02-10,56.540001,58.180000,55.930000,57.410000,55.816265,13376800
2016-02-11,56.459999,56.910000,55.389999,56.000000,54.445415,13090900
2016-02-12,57.369999,57.450001,55.500000,56.419998,54.853752,10229500
2016-02-16,57.570000,58.000000,56.820000,57.790001,56.185719,8058000
2016-02-17,58.599998,58.599998,57.099998,58.169998,56.555168,10332700
2016-02-18,58.169998,58.959999,57.980000,58.599998,56.973232,9658600
2016-02-19,58.500000,59.310001,57.630001,59.310001,57.663528,10080100
2016-02-22,59.310001,60.480000,59.259998,60.169998,58.499653,11523400
2016-02-23,60.259998,60.740002,59.889999,60.209999,58.538540,7504600
2016-02-24,59.740002,60.700001,59.200001,60.400002,58.723270,10390800
2016-02-25,60.680000,62.380001,60.630001,62.380001,60.648304,8296000
2016-02-26,62.639999,63.490002,62.470001,62.599998,60.862194,8896100
2016-02-29,62.459999,62.680000,61.580002,61.590000,59.880234,7720600
2016-03-01,61.970001,63.099998,61.750000,62.919998,61.173306,7438300
2016-03-02,62.520000,62.889999,61.500000,62.220001,60.492744,8465800
2016-03-03,62.049999,62.200001,60.919998,61.470001,59.917641,7875100
2016-03-04,61.419998,61.540001,60.380001,61.259998,59.712948,7279400
2016-03-07,61.070000,61.139999,58.790001,59.250000,57.753708,12829600
2016-03-08,59.029999,60.599998,58.709999,59.810001,58.299564,9307900
2016-03-09,59.580002,59.619999,57.950001,58.330002,56.856945,12766900
2016-03-10,58.700001,59.040001,57.970001,58.880001,57.393055,9345000
2016-03-11,59.130001,60.439999,59.130001,60.080002,58.562744,8834400
2016-03-14,60.189999,61.330002,60.099998,60.810001,59.274311,7090500
2016-03-15,60.500000,61.750000,60.360001,61.400002,59.849411,6188800
2016-03-16,61.470001,62.230000,61.290001,61.860001,60.297794,7018300
2016-03-17,61.759998,63.380001,61.740002,63.180000,61.584457,9926800
2016-03-18,63.549999,63.980000,62.849998,62.990002,61.399254,13192900
2016-03-21,63.549999,65.290001,63.400002,64.720001,63.085571,13635400
2016-03-22,64.830002,65.440002,64.169998,64.900002,63.261024,18212900
2016-03-23,61.330002,63.450001,61.150002,62.439999,60.863144,26987000
2016-03-24,62.060001,62.139999,61.119999,61.650002,60.093102,12231300
2016-03-28,61.580002,61.980000,61.250000,61.340000,59.790924,7899000
2016-03-29,61.259998,61.900002,61.250000,61.490002,59.937141,7404100
2016-03-30,61.770000,62.410000,61.770000,62.040001,60.473248,7859300
2016-03-31,61.990002,62.639999,61.310001,61.470001,59.917641,8257800
2016-04-01,61.220001,61.820000,61.150002,61.590000,60.034607,7555300
2016-04-04,61.730000,61.849998,59.419998,59.970001,58.455524,16523400
2016-04-05,59.619999,60.169998,59.439999,59.669998,58.163094,7554000
2016-04-06,59.599998,60.680000,59.189999,60.310001,58.786938,10194900
2016-04-07,59.790001,60.580002,59.709999,60.299999,58.777187,7092900
2016-04-08,60.490002,60.560001,59.320000,59.419998,57.919411,8761700
2016-04-11,59.730000,59.779999,57.820000,57.919998,56.457294,12593400
2016-04-12,58.000000,58.619999,56.889999,58.549999,57.071384,12408900
2016-04-13,59.020000,59.950001,58.830002,59.580002,58.075375,10629100
2016-04-14,59.709999,60.340000,59.439999,59.490002,57.987648,7756900
2016-04-15,59.020000,59.590000,58.389999,59.500000,57.997398,7653600
2016-04-18,59.380001,60.000000,59.380001,59.570000,58.065628,6059600
2016-04-19,59.959999,59.990002,59.330002,59.560001,58.055878,6594400
2016-04-20,59.430000,60.240002,59.430000,59.619999,58.114365,7177500
2016-04-21,60.529999,60.529999,59.709999,60.080002,58.562744,7156700
2016-04-22,60.180000,60.220001,58.970001,59.430000,57.929161,8294300
2016-04-25,59.340000,59.419998,58.759998,59.209999,57.714718,6117700
2016-04-26,59.310001,59.970001,59.270000,59.540001,58.036385,5582200
2016-04-27,59.630001,59.730000,58.630001,59.270000,57.773205,8094600
2016-04-28,58.950001,59.889999,58.419998,58.540001,57.061638,6028600
2016-04-29,58.410000,59.090000,58.099998,58.939999,57.451530,8178700
2016-05-02,59.090000,59.750000,58.990002,59.590000,58.085114,8647800
2016-05-03,59.240002,59.849998,59.029999,59.520000,58.016888,8061300
2016-05-04,59.230000,59.959999,58.820000,59.110001,57.617245,8062800
2016-05-05,58.939999,58.980000,58.000000,58.189999,56.720470,7846000
2016-05-06,58.160000,58.439999,57.380001,58.430000,56.954418,7308000
2016-05-09,58.590000,59.189999,58.450001,58.720001,57.237099,5604900
2016-05-10,58.610001,59.990002,58.610001,59.200001,57.704967,7544700
2016-05-11,58.500000,58.680000,56.849998,57.009998,55.570267,12823000
2016-05-12,57.520000,58.340000,57.310001,57.990002,56.525528,8083700
2016-05-13,57.740002,58.119999,57.279999,57.310001,55.862701,7392600
2016-05-16,57.270000,57.529999,56.630001,57.139999,55.696991,8045900
2016-05-17,57.150002,57.380001,56.650002,57.099998,55.658005,7620700
2016-05-18,56.759998,56.869999,55.669998,56.119999,54.702751,11532800
2016-05-19,55.820000,57.299999,55.669998,57.040001,55.599522,9376500
2016-05-20,55.880001,57.060001,55.410000,56.480000,55.053661,13745300
2016-05-23,56.599998,56.970001,55.950001,55.990002,54.576035,7742800
2016-05-24,56.049999,56.770000,55.860001,56.590000,55.160881,11098700
2016-05-25,56.470001,56.689999,55.770000,55.990002,54.576035,9921500
2016-05-26,56.049999,56.360001,55.599998,55.840000,54.429821,9004600
2016-05-27,56.169998,56.529999,55.980000,56.189999,54.770985,8525900
2016-05-31,56.410000,56.470001,55.169998,55.220001,53.825481,14233600
2016-06-01,53.330002,55.040001,52.919998,54.930000,53.542805,28409300
2016-06-02,54.220001,54.669998,54.220001,54.529999,53.308178,13876200
2016-06-03,54.290001,54.570000,53.400002,53.450001,52.252380,17265800
2016-06-06,53.770000,54.540001,53.689999,54.299999,53.083328,13808300
2016-06-07,54.160000,54.349998,53.549999,53.549999,52.350136,13334000
2016-06-08,53.830002,54.340000,53.660000,54.119999,52.907368,12068500
2016-06-09,54.110001,55.049999,53.880001,54.939999,53.709000,11609800
2016-06-10,54.639999,55.360001,54.549999,55.110001,53.875187,12183600
2016-06-13,55.000000,55.639999,54.880001,54.910000,53.679665,8582200
2016-06-14,54.580002,54.939999,54.080002,54.119999,52.907368,9585600
2016-06-15,54.240002,55.060001,54.240002,54.310001,53.093109,7498400
2016-06-16,53.540001,53.639999,52.939999,53.470001,52.271931,14456500
2016-06-17,53.450001,53.869999,53.160000,53.709999,52.506561,11007100
2016-06-20,54.230000,55.150002,54.230000,54.360001,53.141994,8429400
2016-06-21,54.459999,55.090000,54.439999,54.770000,53.542805,8278200
2016-06-22,55.000000,55.139999,54.529999,54.570000,53.347286,7019600
2016-06-23,55.110001,55.180000,53.950001,54.119999,52.907368,11219800
2016-06-24,52.360001,53.360001,52.180000,52.590000,51.411652,18481200
2016-06-27,52.000000,52.520000,51.480000,51.889999,50.727329,15265700
2016-06-28,52.040001,53.200001,51.570000,53.090000,51.900448,20837800
2016-06-29,54.500000,55.139999,52.889999,55.130001,53.894733,36084800
2016-06-30,55.290001,55.430000,54.599998,55.200001,53.963173,17350500
2016-07-01,55.070000,55.810001,54.910000,55.610001,54.363987,9285100
2016-07-05,55.340000,55.910000,55.009998,55.200001,53.963173,10256100
2016-07-06,54.880001,55.810001,54.820000,55.799999,54.549721,7863400
2016-07-07,55.799999,55.980000,55.560001,55.919998,54.667034,6934900
2016-07-08,56.099998,56.820000,56.090000,56.720001,55.449112,8645900
2016-07-11,56.830002,57.230000,56.709999,56.830002,55.556652,8122500
2016-07-12,57.090000,58.200001,57.070000,58.060001,56.759087,11164400
2016-07-13,58.180000,58.439999,57.730000,57.990002,56.690659,9126500
2016-07-14,58.299999,58.599998,58.150002,58.490002,57.179451,7488400
2016-07-15,58.590000,58.869999,57.869999,57.869999,56.573341,9225200
2016-07-18,58.000000,58.160000,57.740002,57.740002,56.446259,6478900
2016-07-19,57.459999,57.770000,57.150002,57.759998,56.465805,7442700
2016-07-20,57.990002,58.099998,57.740002,57.759998,56.465805,5872400
2016-07-21,57.990002,58.029999,56.570000,56.990002,55.713066,8262000
2016-07-22,56.820000,56.959999,56.430000,56.730000,55.458889,8614700
2016-07-25,56.869999,57.150002,56.459999,57.139999,55.859703,7256300
2016-07-26,57.200001,57.869999,56.250000,56.369999,55.106953,8546700
2016-07-27,56.500000,57.000000,55.470001,55.790001,54.539948,10245800
2016-07-28,55.590000,55.810001,54.980000,55.450001,54.207573,9574100
2016-07-29,55.270000,55.660000,55.209999,55.500000,54.256451,6353400
2016-08-01,55.730000,55.869999,55.299999,55.410000,54.168461,6268400
2016-08-02,55.230000,55.279999,54.779999,54.919998,53.689442,7145600
2016-08-03,54.549999,55.189999,54.279999,54.750000,53.523247,9687300
2016-08-04,54.959999,55.570000,54.650002,54.790001,53.562355,8602000
2016-08-05,55.320000,56.060001,55.169998,55.849998,54.598606,7512500
2016-08-08,56.130001,56.389999,55.680000,55.980000,54.725693,6307000
2016-08-09,56.080002,56.240002,55.689999,55.770000,54.520401,8044400
2016-08-10,55.950001,56.180000,55.070000,55.130001,53.894733,6881400
2016-08-11,55.630001,56.889999,55.480000,56.730000,55.458889,9477600
2016-08-12,56.700001,56.759998,56.130001,56.450001,55.185165,5393400
2016-08-15,56.650002,57.060001,56.619999,56.770000,55.497993,4836300
2016-08-16,56.799999,57.040001,56.419998,56.880001,55.605526,4901800
2016-08-17,56.869999,56.970001,56.540001,56.860001,55.585979,7340500
2016-08-18,56.990002,57.459999,56.900002,57.209999,55.928135,6043600
2016-08-19,57.400002,59.139999,57.250000,58.900002,57.580265,15987100
2016-08-22,58.820000,59.459999,58.650002,58.660000,57.345646,8266000
2016-08-23,58.799999,59.799999,58.799999,59.619999,58.284130,8222800
2016-08-24,59.889999,60.330002,59.720001,60.220001,58.870693,11379000
2016-08-25,60.009998,60.150002,59.029999,59.240002,57.912655,8713900
2016-08-26,58.570000,59.200001,58.299999,59.000000,57.678024,9994300
2016-08-29,59.200001,59.250000,58.529999,58.630001,57.316319,5772000
2016-08-30,58.459999,58.759998,57.849998,58.000000,56.700432,6344600
2016-08-31,57.860001,58.279999,57.189999,57.639999,56.348495,7723600
2016-09-01,57.669998,58.549999,57.529999,58.540001,57.387634,8225000
2016-09-02,58.630001,59.180000,57.990002,58.020000,56.877869,6933100
2016-09-06,58.250000,58.380001,57.209999,57.410000,56.279877,9771800
2016-09-07,57.480000,57.779999,57.009998,57.720001,56.583771,7536100
2016-09-08,56.880001,57.270000,56.110001,56.169998,55.064281,12731400
2016-09-09,55.880001,56.000000,55.270000,55.330002,54.240822,11310400
2016-09-12,55.000000,56.119999,54.950001,56.009998,54.907436,7470900
2016-09-13,55.860001,55.939999,55.119999,55.369999,54.280033,7359400
2016-09-14,55.160000,55.560001,54.930000,55.130001,54.044758,7621200
2016-09-15,55.000000,55.540001,54.810001,55.470001,54.378067,6283900
2016-09-16,55.240002,55.360001,55.049999,55.180000,54.093777,11715400
2016-09-19,55.380001,55.470001,54.930000,54.950001,53.868305,7631900
2016-09-20,55.259998,55.439999,54.759998,54.869999,53.789875,8563000
2016-09-21,55.020000,55.380001,54.610001,55.340000,54.250626,8041700
2016-09-22,55.470001,55.980000,55.240002,55.410000,54.319244,8052400
2016-09-23,55.020000,55.709999,54.910000,55.150002,54.064362,8921700
2016-09-26,54.799999,55.000000,54.080002,54.400002,53.329128,11629600
2016-09-27,54.250000,55.540001,53.900002,55.340000,54.250626,17945200
2016-09-28,54.599998,55.000000,52.799999,53.250000,52.201767,33213000
2016-09-29,52.919998,53.580002,52.119999,52.160000,51.133224,16993900
2016-09-30,52.570000,53.060001,52.279999,52.650002,51.613575,12940200
2016-10-03,52.540001,53.000000,52.419998,52.669998,51.633179,7632500
2016-10-04,52.900002,53.060001,52.080002,52.139999,51.113617,10737400
2016-10-05,52.150002,52.639999,52.099998,52.119999,51.094009,7244100
2016-10-06,52.200001,52.330002,51.970001,52.029999,51.005783,9391700
2016-10-07,52.419998,52.459999,51.680000,51.790001,50.770508,8407100
2016-10-10,52.130001,52.250000,51.770000,51.790001,50.770508,5440800
2016-10-11,51.950001,52.250000,51.520000,51.820000,50.799919,9203500
2016-10-12,52.009998,52.709999,51.799999,52.439999,51.407707,9301300
2016-10-13,52.119999,52.320000,51.500000,52.029999,51.005783,8425800
2016-10-14,52.380001,52.500000,51.619999,51.619999,50.603855,7133800
2016-10-17,51.650002,51.750000,50.959999,51.029999,50.025463,7904000
2016-10-18,51.299999,51.660000,51.189999,51.220001,50.211727,6716900
2016-10-19,51.340000,51.840000,51.139999,51.799999,50.780304,6999000
2016-10-20,51.770000,52.360001,51.689999,51.889999,50.868538,6590500
2016-10-21,51.740002,51.869999,51.250000,51.770000,50.750904,9161000
2016-10-24,52.160000,52.290001,51.830002,51.869999,50.848927,7578200
2016-10-25,50.970001,51.439999,50.709999,51.049999,50.045071,14975300
2016-10-26,50.950001,52.270000,50.900002,51.970001,50.946964,12401100
2016-10-27,52.340000,52.340000,51.689999,51.889999,50.868538,7939200
2016-10-28,52.119999,52.500000,51.790001,52.020000,50.995979,9096700
2016-10-31,50.880001,51.150002,50.000000,50.180000,49.192200,17931300
2016-11-01,50.500000,50.509998,49.139999,49.619999,48.643223,14100400
2016-11-02,49.240002,50.270000,49.009998,49.720001,48.741257,10775900
2016-11-03,49.980000,50.000000,49.310001,49.730000,48.751053,7678700
2016-11-04,49.799999,50.450001,49.759998,49.959999,48.976528,9925200
2016-11-07,50.480000,50.930000,50.279999,50.910000,49.907833,8358700
2016-11-08,51.099998,51.490002,50.950001,51.080002,50.074482,8107100
2016-11-09,50.070000,51.270000,49.799999,51.119999,50.113693,9058600
2016-11-10,51.290001,51.369999,50.330002,50.389999,49.398060,12316100
2016-11-11,50.220001,50.849998,50.180000,50.770000,49.770584,6300600
2016-11-14,51.180000,51.189999,50.209999,50.209999,49.221607,7933800
2016-11-15,50.459999,50.639999,49.750000,50.130001,49.143181,9299800
2016-11-16,50.000000,50.799999,49.950001,50.680000,49.682358,6654900
2016-11-17,50.939999,51.669998,50.720001,51.590000,50.574444,7671600
2016-11-18,51.389999,51.889999,50.959999,51.099998,50.094082,7461600
2016-11-21,51.000000,51.419998,50.950001,51.279999,50.270542,5357200
2016-11-22,51.470001,51.750000,51.049999,51.709999,50.692081,5228100
2016-11-23,51.709999,51.849998,51.200001,51.340000,50.329365,4141600
2016-11-25,51.680000,51.740002,51.349998,51.520000,50.505821,2736800
2016-11-28,51.439999,51.439999,50.610001,51.009998,50.005856,8602100
2016-11-29,51.200001,51.369999,50.570000,50.630001,49.633343,6065700
2016-11-30,50.520000,50.810001,50.070000,50.070000,49.084366,8198400
2016-12-01,50.110001,51.250000,50.060001,50.650002,49.832092,7610100
2016-12-02,50.259998,50.680000,50.110001,50.459999,49.645161,6933300
2016-12-05,50.799999,52.270000,50.700001,51.849998,51.012714,12031200
2016-12-06,50.830002,51.099998,50.259998,50.570000,49.753387,12496300
2016-12-07,50.790001,52.250000,50.599998,52.099998,51.258678,10412600
2016-12-08,52.150002,52.470001,51.450001,51.549999,50.717556,9260900
2016-12-09,51.759998,51.970001,51.500000,51.720001,50.884815,5869800
2016-12-12,51.500000,51.900002,50.939999,51.540001,50.707722,11459500
2016-12-13,51.830002,53.220001,51.830002,52.299999,51.455452,11442300
2016-12-14,52.240002,52.340000,51.590000,51.790001,50.953686,8012800
2016-12-15,52.000000,52.040001,51.090000,51.290001,50.461758,9567500
2016-12-16,51.599998,51.639999,50.669998,50.919998,50.097729,12847200
2016-12-19,50.910000,51.360001,50.480000,50.849998,50.028858,9451700
2016-12-20,51.060001,51.990002,50.750000,51.790001,50.953686,15984100
2016-12-21,52.900002,53.349998,51.549999,52.299999,51.455452,23236400
2016-12-22,52.799999,53.000000,52.029999,52.139999,51.298031,11798900
2016-12-23,51.990002,52.349998,51.669998,51.910000,51.071743,9335800
2016-12-27,51.799999,52.250000,51.200001,51.290001,50.461758,8175000
2016-12-28,51.310001,51.500000,50.869999,51.020000,50.196117,6318000
2016-12-29,51.000000,51.240002,50.880001,51.060001,50.235470,4659600
2016-12-30,51.099998,51.330002,50.700001,50.830002,50.009190,7384300
2017-01-03,51.990002,52.500000,51.770000,51.980000,51.140614,13295600
2017-01-04,52.230000,53.349998,52.090000,53.070000,52.213017,13759500
2017-01-05,52.919998,53.099998,52.439999,53.060001,52.203178,8682200
2017-01-06,53.090000,54.090000,52.980000,53.910000,53.039452,12532400
2017-01-09,53.959999,53.990002,53.220001,53.380001,52.518005,8724800
2017-01-10,53.549999,53.730000,53.110001,53.110001,52.252369,8041900
2017-01-11,53.119999,53.290001,52.669998,52.689999,51.839149,8208300
2017-01-12,52.509998,52.689999,52.160000,52.400002,51.553833,7368700
2017-01-13,52.590000,52.930000,52.230000,52.919998,52.065437,6694400
2017-01-17,53.400002,53.950001,53.009998,53.650002,52.783649,9885000
2017-01-18,53.860001,53.889999,52.860001,53.270000,52.409782,6743100
2017-01-19,53.840000,53.939999,52.889999,52.930000,52.075279,8320600
2017-01-20,53.220001,53.349998,52.900002,53.200001,52.340916,7861000
2017-01-23,53.020000,53.259998,52.720001,53.240002,52.380272,7025700
2017-01-24,53.020000,53.570000,52.990002,53.450001,52.586880,6321300
2017-01-25,53.730000,54.119999,53.689999,53.860001,52.990253,6675000
2017-01-26,54.110001,54.119999,53.360001,53.650002,52.783649,6202000
2017-01-27,53.680000,54.080002,53.029999,53.189999,52.331078,7362000
2017-01-30,52.779999,53.220001,52.410000,53.080002,52.222858,9770800
2017-01-31,51.680000,52.900002,51.630001,52.900002,52.045761,12342900
2017-02-01,52.980000,53.259998,52.610001,53.020000,52.163818,8810900
2017-02-02,53.000000,53.009998,52.480000,52.799999,51.947376,7874200
2017-02-03,52.619999,52.810001,52.250000,52.360001,51.514481,8850400
2017-02-06,52.090000,52.799999,52.049999,52.799999,51.947376,7355200
2017-02-07,53.070000,53.279999,52.669998,52.810001,51.957211,6446900
2017-02-08,52.740002,53.939999,52.700001,53.880001,53.009933,9281100
2017-02-09,53.880001,55.700001,53.880001,55.310001,54.416847,14345400
2017-02-10,55.630001,56.470001,55.630001,56.220001,55.312149,14973400
2017-02-13,56.169998,56.340000,55.750000,56.090000,55.184246,7679800
2017-02-14,55.919998,56.689999,55.830002,56.450001,55.538433,8859900
2017-02-15,56.290001,56.759998,56.209999,56.639999,55.725368,6652000
2017-02-16,56.880001,56.919998,56.099998,56.290001,55.381020,8374200
2017-02-17,56.119999,56.799999,55.860001,56.750000,55.833584,12638000
2017-02-21,56.380001,57.450001,56.200001,57.360001,56.433739,10955000
2017-02-22,57.480000,58.380001,57.360001,58.240002,57.299526,10914100
2017-02-23,58.110001,58.400002,57.270000,57.389999,56.463253,12316300
2017-02-24,57.389999,58.419998,57.070000,57.860001,56.925663,9684500
2017-02-27,57.650002,57.830002,57.349998,57.689999,56.758408,4375700
2017-02-28,57.369999,57.549999,56.860001,57.160000,56.236969,7951300
2017-03-01,57.860001,58.029999,57.330002,57.950001,57.014210,8558900
2017-03-02,57.900002,58.250000,57.650002,57.799999,57.043819,6438400
2017-03-03,57.799999,57.799999,56.509998,56.700001,55.958210,9181600
2017-03-06,56.700001,56.930000,56.529999,56.770000,56.027294,6896800
2017-03-07,56.709999,56.990002,56.020000,56.549999,55.810173,7124400
2017-03-08,56.939999,56.939999,56.310001,56.509998,55.770691,7604800
2017-03-09,56.610001,56.660000,56.090000,56.360001,55.622662,6165700
2017-03-10,56.490002,56.990002,56.259998,56.430000,55.691742,8882400
2017-03-13,56.430000,56.820000,56.110001,56.669998,55.928596,7235900
2017-03-14,56.869999,58.009998,56.720001,57.279999,56.530624,9286900
2017-03-15,57.630001,57.990002,56.750000,57.660000,56.905651,10067500
2017-03-16,57.430000,57.720001,56.830002,57.599998,56.846432,9895000
2017-03-17,57.770000,57.889999,57.310001,57.799999,57.043819,10791500
2017-03-20,58.000000,58.810001,57.959999,58.680000,57.912304,13352500
2017-03-21,58.779999,59.000000,57.720001,58.009998,57.251068,15269800
2017-03-22,54.759998,55.000000,53.759998,53.919998,53.214577,37413400
2017-03-23,54.610001,55.549999,54.520000,55.369999,54.645607,23848300
2017-03-24,55.290001,56.639999,55.119999,56.360001,55.622662,14438600
2017-03-27,55.639999,56.250000,55.540001,55.930000,55.198280,8663600
2017-03-28,55.990002,56.779999,55.790001,56.619999,55.879253,7823900
2017-03-29,56.410000,57.099998,56.349998,56.680000,55.938469,7456200
2017-03-30,56.480000,56.599998,55.810001,56.040001,55.306843,7210500
2017-03-31,56.000000,56.029999,55.650002,55.730000,55.000896,5905600
2017-04-03,55.740002,55.799999,55.150002,55.560001,54.833126,7088800
2017-04-04,55.150002,55.299999,54.830002,55.040001,54.319931,8843300
2017-04-05,54.970001,55.799999,54.500000,54.980000,54.260712,7722100
2017-04-06,55.070000,55.939999,54.939999,55.139999,54.418617,6692200
2017-04-07,55.099998,55.240002,54.770000,55.110001,54.389011,6078300
2017-04-10,55.000000,55.330002,54.720001,54.900002,54.181759,5472700
2017-04-11,54.950001,55.070000,54.549999,54.919998,54.201496,4348600
2017-04-12,54.660000,55.619999,54.500000,55.570000,54.842991,8504100
2017-04-13,55.410000,55.599998,55.259998,55.340000,54.616001,5282100
2017-04-17,55.320000,56.340000,55.250000,56.240002,55.504230,7688700
2017-04-18,56.020000,56.419998,55.799999,56.110001,55.375927,5651100
2017-04-19,56.160000,56.220001,55.740002,55.860001,55.129196,5947700
2017-04-20,55.959999,56.689999,55.880001,56.400002,55.662136,6867100
2017-04-21,56.290001,56.380001,55.680000,55.849998,55.119328,6055600
2017-04-24,56.139999,56.209999,55.470001,55.470001,54.744305,10777700
2017-04-25,55.529999,55.770000,55.410000,55.450001,54.724567,8971000
2017-04-26,55.459999,55.840000,55.119999,55.160000,54.438358,10936000
2017-04-27,55.180000,55.570000,54.910000,55.470001,54.744305,8558000
2017-04-28,55.430000,55.529999,55.139999,55.410000,54.685085,6415300
2017-05-01,55.430000,55.450001,54.980000,54.990002,54.270580,4881400
2017-05-02,55.119999,55.160000,54.790001,55.070000,54.349533,7363600
2017-05-03,55.169998,55.299999,54.400002,54.529999,53.816601,9474700
2017-05-04,54.680000,54.830002,54.200001,54.470001,53.757385,6830600
2017-05-05,54.410000,54.500000,53.560001,53.950001,53.244190,13379900
2017-05-08,54.180000,54.509998,53.830002,54.299999,53.589611,8728100
2017-05-09,54.330002,55.080002,54.160000,54.889999,54.171886,6441200
2017-05-10,54.910000,55.060001,54.509998,54.560001,53.846207,5823000
2017-05-11,54.520000,54.520000,53.400002,54.240002,53.530396,6499600
2017-05-12,54.099998,54.389999,53.790001,54.200001,53.490917,5606300
2017-05-15,54.119999,54.200001,53.680000,53.770000,53.066544,8201700
2017-05-16,52.369999,53.380001,52.119999,52.779999,52.089493,14562700
2017-05-17,52.779999,52.869999,51.799999,51.799999,51.122314,18341500
2017-05-18,51.970001,52.080002,51.299999,51.680000,51.003887,22576500
2017-05-19,51.000000,52.110001,50.810001,51.770000,51.092705,20047800
2017-05-22,51.770000,51.959999,51.400002,51.570000,50.895325,13671500
2017-05-23,51.980000,52.630001,51.880001,52.200001,51.517086,11087300
2017-05-24,52.250000,52.299999,51.740002,52.009998,51.329567,9383600
2017-05-25,52.380001,52.590000,52.209999,52.349998,51.665115,7627500
2017-05-26,52.349998,52.759998,52.230000,52.590000,51.901981,5921300
2017-05-30,52.759998,53.020000,52.639999,52.919998,52.227657,8039600
2017-05-31,53.020000,53.279999,52.709999,52.990002,52.296749,8938800
2017-06-01,53.060001,53.299999,52.209999,52.299999,51.791702,13352100
2017-06-02,52.700001,53.009998,52.360001,52.980000,52.465092,18511200
2017-06-05,53.000000,53.230000,52.700001,53.009998,52.494801,5748900
2017-06-06,52.900002,53.099998,52.430000,52.480000,51.969952,8923000
2017-06-07,52.790001,53.360001,52.750000,53.230000,52.712666,7438300
2017-06-08,53.230000,54.139999,53.150002,53.200001,52.682961,7680200
2017-06-09,53.200001,53.470001,52.799999,53.459999,52.940430,8347400
2017-06-12,53.509998,54.250000,53.500000,54.029999,53.504890,9180000
2017-06-13,54.029999,54.660000,53.840000,54.310001,53.782169,8720100
2017-06-14,54.480000,54.669998,53.950001,54.660000,54.128765,6783900
2017-06-15,54.000000,54.049999,52.730000,52.900002,52.385872,16041100
2017-06-16,51.750000,51.840000,50.790001,51.099998,50.603367,25725500
2017-06-19,51.419998,52.220001,51.400002,52.020000,51.514423,11265300
2017-06-20,52.049999,52.130001,51.099998,51.560001,51.058895,10676500
2017-06-21,51.900002,52.689999,51.900002,52.590000,52.078884,13021700
2017-06-22,52.599998,52.619999,52.090000,52.400002,51.890732,10660700
2017-06-23,52.150002,52.919998,51.669998,52.849998,52.336357,8522400
2017-06-26,52.950001,53.570000,52.669998,53.279999,52.762177,7966200
2017-06-27,53.189999,53.259998,52.639999,52.950001,52.435387,7873100
2017-06-28,53.169998,53.610001,52.959999,53.360001,52.841400,7527200
2017-06-29,53.330002,53.630001,52.990002,53.169998,52.653248,14801900
2017-06-30,56.599998,59.709999,56.500000,59.000000,58.426586,46553000
2017-07-03,58.369999,59.009998,58.330002,58.650002,58.079990,9910000
2017-07-05,58.240002,58.290001,57.509998,57.560001,57.000584,16167000
2017-07-06,57.450001,57.720001,57.000000,57.160000,56.604469,9035700
2017-07-07,57.400002,58.080002,57.029999,57.980000,57.416496,8145400
2017-07-10,57.889999,58.810001,57.680000,58.730000,58.159206,8942400
2017-07-11,58.540001,58.930000,58.040001,58.180000,57.614555,7223000
2017-07-12,58.310001,58.750000,58.099998,58.220001,57.654171,7243100
2017-07-13,58.220001,58.580002,57.930000,57.939999,57.376888,8108600
2017-07-14,57.950001,58.209999,57.639999,58.000000,57.436306,6345300
2017-07-17,58.000000,58.349998,57.759998,57.790001,57.228344,6885000
2017-07-18,57.740002,58.080002,57.470001,57.650002,57.089706,4922500
2017-07-19,57.599998,57.880001,57.389999,57.770000,57.208542,4451100
2017-07-20,59.119999,59.590000,58.799999,59.099998,58.525616,11915500
2017-07-21,59.000000,60.000000,58.910000,59.950001,59.367352,11048300
2017-07-24,59.689999,59.770000,58.759998,58.950001,58.377075,7498900
2017-07-25,59.320000,59.520000,58.919998,59.389999,58.812798,5157100
2017-07-26,59.090000,59.130001,58.320000,58.360001,57.792805,5529500
2017-07-27,58.599998,58.680000,57.990002,58.150002,57.584850,8259900
2017-07-28,58.150002,58.740002,57.970001,58.669998,58.099789,5112800
2017-07-31,58.709999,59.119999,58.330002,59.049999,58.476101,6225900
2017-08-01,59.000000,59.939999,58.900002,59.840000,59.258427,9051700
2017-08-02,59.549999,59.950001,59.270000,59.790001,59.208912,4468100
2017-08-03,59.799999,60.529999,59.639999,60.139999,59.555504,5677200
2017-08-04,60.169998,60.340000,59.630001,59.759998,59.179199,4106000
2017-08-07,59.820000,60.099998,59.709999,59.790001,59.208912,4066700
2017-08-08,59.880001,60.119999,59.360001,59.459999,58.882114,5586400
2017-08-09,59.419998,59.970001,59.259998,59.900002,59.317844,5310900
2017-08-10,59.680000,59.689999,59.060001,59.070000,58.495903,5585100
2017-08-11,58.730000,59.270000,58.590000,58.970001,58.396881,4980000
2017-08-14,59.150002,60.000000,59.130001,59.779999,59.199005,5838300
2017-08-15,58.939999,59.009998,58.290001,58.560001,57.990864,8913000
2017-08-16,58.900002,59.049999,58.220001,58.540001,57.971062,5489600
2017-08-17,58.529999,58.740002,57.419998,57.459999,56.901554,9148600
2017-08-18,54.849998,55.419998,54.169998,54.950001,54.415951,22905200
2017-08-21,54.439999,54.439999,53.110001,53.610001,53.088974,14289300
2017-08-22,53.919998,54.410000,53.790001,54.130001,53.603916,8212800
2017-08-23,53.919998,54.080002,53.450001,53.610001,53.088974,6409400
2017-08-24,53.930000,53.970001,53.459999,53.840000,53.316734,5461900
2017-08-25,54.029999,54.200001,53.540001,53.900002,53.376152,6416600
2017-08-28,54.070000,54.430000,53.619999,53.730000,53.207806,5269400
2017-08-29,52.740002,52.880001,52.070000,52.730000,52.217525,12539900
2017-08-30,52.799999,52.959999,52.250000,52.560001,52.049175,7434500
2017-08-31,52.599998,52.980000,52.470001,52.810001,52.476460,7728900
2017-09-01,53.000000,53.450001,52.900002,53.360001,53.022987,5509800
2017-09-05,53.250000,53.470001,52.880001,53.009998,52.675194,6306500
2017-09-06,53.119999,53.340000,52.709999,52.759998,52.426773,7407600
2017-09-07,52.759998,52.849998,52.340000,52.389999,52.059109,6905800
2017-09-08,52.250000,52.509998,52.110001,52.200001,51.870312,8563300
2017-09-11,52.380001,53.130001,52.320000,53.029999,52.695068,8649900
2017-09-12,53.770000,54.090000,53.299999,53.400002,53.062737,7823700
2017-09-13,53.450001,53.639999,53.040001,53.520000,53.181976,6086000
2017-09-14,53.540001,53.889999,53.119999,53.730000,53.390652,7497400
2017-09-15,53.860001,54.060001,53.520000,53.869999,53.529762,10046800
2017-09-18,53.869999,54.160000,53.400002,53.500000,53.162102,8166400
2017-09-19,52.779999,54.049999,52.509998,53.330002,52.993179,14707200
2017-09-20,53.490002,53.639999,53.040001,53.560001,53.221722,7058000
2017-09-21,53.549999,53.639999,53.090000,53.189999,52.854057,8065400
2017-09-22,53.020000,53.610001,52.799999,53.240002,52.903748,10962400
2017-09-25,53.080002,53.560001,53.000000,53.230000,52.893803,12262400
2017-09-26,53.180000,53.970001,52.980000,53.700001,53.360840,16183700
2017-09-27,52.169998,52.689999,51.029999,52.669998,52.337341,36202500
2017-09-28,52.799999,53.029999,52.330002,52.630001,52.297596,11334700
2017-09-29,52.590000,52.820000,51.759998,51.849998,51.522522,12189900
2017-10-02,52.160000,52.209999,51.660000,51.869999,51.542397,7516200
2017-10-03,52.000000,52.049999,51.400002,51.470001,51.144924,8126700
2017-10-04,51.509998,52.130001,51.400002,52.080002,51.751072,8204300
2017-10-05,52.009998,52.320000,51.779999,52.180000,51.850441,5287400
2017-10-06,52.200001,52.459999,52.119999,52.419998,52.088921,5360300
2017-10-09,52.230000,52.299999,51.500000,51.520000,51.194607,6875100
2017-10-10,51.580002,51.820000,51.369999,51.529999,51.204544,8372700
2017-10-11,51.389999,51.520000,50.830002,51.029999,50.707703,9109600
2017-10-12,50.980000,51.119999,50.349998,50.830002,50.508968,10658400
2017-10-13,50.830002,51.070000,50.400002,50.980000,50.658016,16227900
2017-10-16,50.799999,51.410000,50.639999,51.369999,51.045551,9299300
2017-10-17,51.500000,52.040001,51.380001,52.000000,51.671577,9492700
2017-10-18,52.180000,52.400002,52.099998,52.299999,51.969677,10890300
2017-10-19,51.660000,52.799999,51.480000,52.689999,52.357216,12568200
2017-10-20,52.790001,53.500000,52.790001,53.060001,52.724880,13020900
2017-10-23,53.060001,53.950001,53.000000,53.660000,53.321091,12242600
2017-10-24,53.900002,54.000000,53.099998,53.419998,53.082607,14767600
2017-10-25,53.430000,55.910000,52.669998,54.939999,54.593006,24804000
2017-10-26,55.259998,57.250000,55.139999,56.810001,56.451199,22185100
2017-10-27,55.820000,56.360001,55.650002,55.959999,55.606564,12801800
2017-10-30,55.709999,55.930000,54.840000,55.270000,54.920921,10169400
2017-10-31,54.750000,55.279999,54.520000,54.990002,54.642693,9794800
2017-11-01,55.419998,55.500000,54.849998,55.070000,54.722187,7544500
2017-11-02,55.150002,55.320000,54.590000,55.119999,54.771866,7250300
2017-11-03,55.150002,55.720001,55.040001,55.709999,55.358143,9448200
2017-11-06,55.290001,56.130001,55.139999,56.040001,55.686058,9332200
2017-11-07,55.750000,56.020000,55.020000,55.150002,54.801682,7774700
2017-11-08,55.000000,55.770000,54.889999,55.759998,55.407825,7079400
2017-11-09,55.500000,56.349998,55.310001,56.130001,55.775490,10958500
2017-11-10,55.880001,56.490002,55.619999,56.090000,55.735744,7535700
2017-11-13,55.660000,56.090000,55.660000,55.910000,55.556881,10106100
2017-11-14,55.709999,56.180000,55.529999,55.980000,55.626438,5037500
2017-11-15,55.959999,56.869999,55.080002,56.630001,56.272335,6610500
2017-11-16,56.619999,57.279999,56.410000,57.230000,56.868546,8233300
2017-11-17,58.540001,59.529999,58.369999,59.189999,58.816162,15475500
2017-11-20,58.630001,59.500000,57.980000,59.250000,58.875786,8480600
2017-11-21,59.029999,59.400002,58.930000,59.389999,59.014900,9057800
2017-11-22,59.180000,59.340000,58.939999,59.070000,58.696922,8501300
2017-11-24,59.000000,59.349998,58.910000,59.320000,58.945343,3400400
2017-11-27,59.200001,59.700001,59.169998,59.630001,59.253387,7891600
2017-11-28,58.759998,59.599998,58.540001,59.580002,59.203701,8665300
2017-11-29,59.730000,60.630001,59.730000,60.360001,59.978779,12022800
2017-11-30,60.259998,61.209999,60.200001,60.419998,60.038391,12551200
2017-12-01,60.419998,60.430000,59.240002,59.880001,59.699421,10113500
2017-12-04,60.270000,60.700001,59.970001,60.099998,59.918755,7513200
2017-12-05,60.650002,60.799999,59.650002,60.419998,60.237789,8862900
2017-12-06,60.410000,60.849998,59.700001,59.720001,59.539906,7862200
2017-12-07,59.860001,61.060001,59.650002,60.599998,60.417248,6113300
2017-12-08,60.500000,61.369999,60.290001,61.299999,61.115135,6065200
2017-12-11,61.369999,62.220001,61.299999,61.910000,61.723297,9017800
2017-12-12,61.810001,62.529999,61.650002,62.169998,61.982513,7358000
2017-12-13,62.220001,64.459999,62.020000,64.300003,64.106094,16072600
2017-12-14,64.430000,64.849998,64.050003,64.529999,64.335396,13055100
2017-12-15,64.889999,65.070000,64.150002,64.790001,64.594612,15659300
2017-12-18,64.930000,65.080002,64.389999,64.809998,64.614548,12652000
2017-12-19,65.150002,65.190002,64.180000,64.239998,64.046272,8212500
2017-12-20,64.389999,64.500000,63.580002,63.590000,63.398232,12468600
2017-12-21,64.290001,64.980003,63.299999,64.769997,64.574669,14352300
2017-12-22,61.200001,63.540001,60.130001,63.290001,63.099136,20414200
2017-12-26,62.900002,63.889999,62.810001,63.650002,63.458054,4563500
2017-12-27,63.560001,63.599998,62.770000,62.950001,62.760162,8959700
2017-12-28,63.000000,63.320000,62.849998,62.950001,62.760162,3987200
2017-12-29,63.209999,63.369999,62.549999,62.549999,62.361366,5222100
2018-01-02,62.849998,63.490002,62.849998,63.490002,63.298534,6511000
2018-01-03,63.480000,63.660000,62.759998,63.480000,63.288563,6091100
2018-01-04,63.400002,63.549999,62.549999,63.439999,63.248684,5780500
2018-01-05,63.700001,64.300003,63.470001,63.980000,63.787056,11632300
2018-01-08,64.150002,64.709999,63.980000,64.550003,64.355339,11905700
2018-01-09,64.230003,64.720001,63.470001,64.089996,63.896721,8771300
2018-01-10,63.880001,64.230003,63.439999,64.220001,64.026337,5010600
2018-01-11,64.029999,64.309998,63.779999,64.290001,64.096123,5103500
2018-01-12,64.500000,64.720001,64.320000,64.669998,64.474976,5135700
2018-01-16,64.779999,65.360001,63.369999,63.419998,63.228745,9117000
2018-01-17,63.669998,64.010002,63.080002,63.810001,63.617569,7422600
2018-01-18,64.000000,64.209999,63.540001,64.110001,63.916664,5656900
2018-01-19,65.309998,67.239998,65.120003,67.209999,67.007317,12896100
2018-01-22,66.550003,66.830002,65.760002,66.389999,66.189789,8491800
2018-01-23,66.529999,67.330002,66.440002,67.139999,66.937523,6412000
2018-01-24,67.339996,68.180000,67.070000,68.000000,67.794930,7421800
2018-01-25,68.129997,68.639999,67.449997,67.709999,67.505806,5707600
2018-01-26,68.199997,68.639999,67.919998,68.040001,67.834816,6290500
2018-01-29,67.820000,68.139999,67.419998,67.580002,67.376198,5067300
2018-01-30,67.500000,68.309998,67.160004,67.330002,67.126953,6350500
2018-01-31,67.500000,68.830002,67.470001,68.220001,68.014267,11036400
2018-02-01,67.669998,67.970001,66.699997,67.650002,67.445992,5790500
2018-02-02,67.220001,67.790001,67.000000,67.220001,67.017288,9348300
2018-02-05,66.629997,67.209999,64.389999,64.389999,64.195816,12549500
2018-02-06,62.480000,65.419998,62.090000,65.220001,65.023315,13356700
2018-02-07,65.150002,66.839996,65.099998,65.629997,65.432076,8845700
2018-02-08,65.529999,65.709999,62.459999,62.490002,62.301552,14121800
2018-02-09,63.759998,66.050003,62.840000,65.489998,65.292503,13733300
2018-02-12,65.940002,66.820000,65.680000,65.980003,65.781029,9792200
2018-02-13,65.849998,66.230003,65.430000,65.870003,65.671356,9538400
2018-02-14,65.720001,68.029999,65.550003,67.959999,67.755051,8662600
2018-02-15,68.389999,68.760002,67.250000,68.290001,68.084061,7390200
2018-02-16,67.900002,69.000000,67.739998,68.300003,68.094032,6842100
2018-02-20,67.639999,67.970001,67.050003,67.489998,67.286469,4859100
2018-02-21,67.660004,68.019997,67.029999,67.050003,66.847801,5107900
2018-02-22,67.250000,67.480003,66.739998,67.129997,66.927551,6515800
2018-02-23,67.389999,68.160004,66.849998,68.160004,67.954453,4428500
2018-02-26,68.389999,69.809998,68.339996,69.650002,69.439957,6499500
2018-02-27,70.000000,70.250000,68.029999,68.029999,67.824844,6843100
2018-02-28,68.099998,68.300003,67.010002,67.029999,66.827858,6091800
2018-03-01,67.239998,67.669998,65.669998,66.320000,66.119995,7323900
2018-03-02,64.910004,66.089996,64.209999,65.889999,65.889999,8380500
2018-03-05,65.480003,65.489998,64.339996,65.050003,65.050003,8838400
2018-03-06,65.209999,65.360001,64.629997,65.239998,65.239998,6550100
2018-03-07,64.510002,64.790001,63.889999,64.169998,64.169998,6457600
2018-03-08,64.559998,65.250000,64.480003,65.110001,65.110001,5573000
2018-03-09,65.510002,66.510002,65.360001,66.300003,66.300003,5838400
2018-03-12,66.650002,67.610001,66.320000,66.820000,66.820000,7521100
